%!PS-Adobe-3.0 EPSF-3.0 
%%BoundingBox: 0 0 539 785
%%Pages: 0
%%Creator: Sun Microsystems, Inc.
%%Title: none
%%CreationDate: none
%%LanguageLevel: 2
%%EndComments
%%BeginProlog
%%BeginResource: procset SDRes-Prolog 1.0 0
/b4_inc_state save def
/dict_count countdictstack def
/op_count count 1 sub def
userdict begin
0 setgray 0 setlinecap 1 setlinewidth 0 setlinejoin 10 setmiterlimit[] 0 setdash newpath
/languagelevel where {pop languagelevel 1 ne {false setstrokeadjust false setoverprint} if} if
/bdef {bind def} bind def
/c {setgray} bdef
/l {neg lineto} bdef
/rl {neg rlineto} bdef
/lc {setlinecap} bdef
/lj {setlinejoin} bdef
/lw {setlinewidth} bdef
/ml {setmiterlimit} bdef
/ld {setdash} bdef
/m {neg moveto} bdef
/ct {6 2 roll neg 6 2 roll neg 6 2 roll neg curveto} bdef
/r {rotate} bdef
/t {neg translate} bdef
/s {scale} bdef
/sw {show} bdef
/gs {gsave} bdef
/gr {grestore} bdef
/f {findfont dup length dict begin
{1 index /FID ne {def} {pop pop} ifelse} forall /Encoding ISOLatin1Encoding def
currentdict end /NFont exch definefont pop /NFont findfont} bdef
/p {closepath} bdef
/sf {scalefont setfont} bdef
/ef {eofill}bdef
/pc {closepath stroke}bdef
/ps {stroke}bdef
/pum {matrix currentmatrix}bdef
/pom {setmatrix}bdef
/bs {/aString exch def /nXOfs exch def /nWidth exch def currentpoint nXOfs 0 rmoveto pum nWidth aString stringwidth pop div 1 scale aString show pom moveto} bdef
%%EndResource
%%EndProlog
%%BeginSetup
%%EndSetup
%%Page: 1 1
%%BeginPageSetup
%%EndPageSetup
pum
0.02836 0.02833 s 
0 -27700 t
/tm matrix currentmatrix def
gs
tm setmatrix
-1000 -1000 t 
1 1 s 
1000 1000 m 19999 1000 l 19999 28699 l 1000 28699 l 1000 1000 l eoclip newpath
gs
0 0 m 18999 0 l 18999 27699 l 0 27699 l 0 0 l eoclip newpath
50 lw 1 lj 0.000 c 10500 12246 m  6000 12246 l  6000 4246 l  15000 4246 l 
15000 12246 l  10500 12246 l  pc
pum
9336 8637 t
0.222 c 293 0 m  293 -713 l  26 -713 l  26 -808 l  667 -808 l  667 -713 l 
400 -713 l  400 0 l  293 0 l  p ef
1019 -72 m  983 -41 947 -19 913 -6 ct 879 7 843 13 804 13 ct 740 13 690 -3 656 -34 ct 
621 -66 604 -106 604 -155 ct 604 -183 610 -210 623 -233 ct 636 -257 654 -276 675 -290 ct 
696 -305 720 -316 746 -323 ct 766 -328 795 -333 834 -338 ct 914 -347 973 -359 1011 -372 ct 
1012 -386 1012 -394 1012 -398 ct 1012 -438 1002 -467 984 -483 ct 958 -506 921 -517 871 -517 ct 
824 -517 789 -509 767 -492 ct 745 -476 729 -447 718 -406 ct 621 -419 l  630 -460 644 -494 664 -519 ct 
685 -545 714 -565 752 -578 ct 790 -592 835 -599 885 -599 ct 935 -599 976 -593 1007 -582 ct 
1038 -570 1061 -555 1076 -537 ct 1090 -519 1101 -497 1107 -470 ct 1110 -453 1112 -422 1112 -378 ct 
1112 -246 l  1112 -153 1114 -95 1118 -71 ct 1122 -46 1130 -23 1143 0 ct 1039 0 l 
1029 -21 1022 -45 1019 -72 ct p
1011 -294 m  975 -279 921 -267 849 -257 ct 808 -251 779 -244 763 -237 ct 746 -229 733 -219 723 -205 ct 
714 -190 710 -175 710 -157 ct 710 -131 720 -109 740 -91 ct 760 -74 789 -65 828 -65 ct 
866 -65 900 -73 930 -90 ct 959 -107 981 -129 995 -159 ct 1006 -181 1011 -214 1011 -258 ct 
1011 -294 l  p ef
1229 -175 m  1327 -190 l  1332 -151 1348 -121 1373 -100 ct 1398 -79 1433 -69 1478 -69 ct 
1524 -69 1558 -78 1580 -96 ct 1602 -115 1613 -137 1613 -162 ct 1613 -184 1603 -202 1584 -215 ct 
1570 -224 1536 -235 1482 -248 ct 1410 -267 1359 -283 1331 -296 ct 1303 -309 1282 -328 1267 -352 ct 
1253 -375 1245 -402 1245 -430 ct 1245 -456 1251 -481 1263 -503 ct 1275 -525 1291 -544 1312 -558 ct 
1327 -570 1348 -579 1375 -587 ct 1402 -595 1430 -599 1461 -599 ct 1507 -599 1547 -592 1582 -579 ct 
1617 -566 1642 -548 1659 -525 ct 1675 -503 1687 -473 1693 -435 ct 1596 -421 l 
1591 -452 1579 -475 1558 -492 ct 1536 -509 1507 -517 1468 -517 ct 1422 -517 1390 -510 1370 -495 ct 
1351 -480 1341 -462 1341 -442 ct 1341 -429 1345 -417 1353 -407 ct 1361 -396 1374 -388 1391 -381 ct 
1401 -377 1430 -369 1479 -355 ct 1549 -337 1598 -321 1626 -309 ct 1654 -297 1675 -280 1691 -257 ct 
1707 -234 1715 -206 1715 -172 ct 1715 -139 1705 -108 1686 -79 ct 1667 -50 1639 -27 1602 -11 ct 
1566 5 1525 13 1479 13 ct 1403 13 1345 -3 1305 -34 ct 1265 -66 1240 -113 1229 -175 ct 
p ef
1836 0 m  1836 -809 l  1935 -809 l  1935 -347 l  2170 -586 l  2298 -586 l 
2075 -368 l  2321 0 l  2199 0 l  2005 -300 l  1935 -232 l  1935 0 l  1836 0 l 
p ef
pom
0.000 c 10500 27246 m  6000 27246 l  6000 19246 l  15000 19246 l  15000 27246 l 
10500 27246 l  pc
pum
7888 23637 t
0.222 c 293 0 m  293 -713 l  26 -713 l  26 -808 l  667 -808 l  667 -713 l 
400 -713 l  400 0 l  293 0 l  p ef
1019 -72 m  983 -41 947 -19 913 -6 ct 879 7 843 13 804 13 ct 740 13 690 -3 656 -34 ct 
621 -66 604 -106 604 -155 ct 604 -183 610 -210 623 -233 ct 636 -257 654 -276 675 -290 ct 
696 -305 720 -316 746 -323 ct 766 -328 795 -333 834 -338 ct 914 -347 973 -359 1011 -372 ct 
1012 -386 1012 -394 1012 -398 ct 1012 -438 1002 -467 984 -483 ct 958 -506 921 -517 871 -517 ct 
824 -517 789 -509 767 -492 ct 745 -476 729 -447 718 -406 ct 621 -419 l  630 -460 644 -494 664 -519 ct 
685 -545 714 -565 752 -578 ct 790 -592 835 -599 885 -599 ct 935 -599 976 -593 1007 -582 ct 
1038 -570 1061 -555 1076 -537 ct 1090 -519 1101 -497 1107 -470 ct 1110 -453 1112 -422 1112 -378 ct 
1112 -246 l  1112 -153 1114 -95 1118 -71 ct 1122 -46 1130 -23 1143 0 ct 1039 0 l 
1029 -21 1022 -45 1019 -72 ct p
1011 -294 m  975 -279 921 -267 849 -257 ct 808 -251 779 -244 763 -237 ct 746 -229 733 -219 723 -205 ct 
714 -190 710 -175 710 -157 ct 710 -131 720 -109 740 -91 ct 760 -74 789 -65 828 -65 ct 
866 -65 900 -73 930 -90 ct 959 -107 981 -129 995 -159 ct 1006 -181 1011 -214 1011 -258 ct 
1011 -294 l  p ef
1229 -175 m  1327 -190 l  1332 -151 1348 -121 1373 -100 ct 1398 -79 1433 -69 1478 -69 ct 
1524 -69 1558 -78 1580 -96 ct 1602 -115 1613 -137 1613 -162 ct 1613 -184 1603 -202 1584 -215 ct 
1570 -224 1536 -235 1482 -248 ct 1410 -267 1359 -283 1331 -296 ct 1303 -309 1282 -328 1267 -352 ct 
1253 -375 1245 -402 1245 -430 ct 1245 -456 1251 -481 1263 -503 ct 1275 -525 1291 -544 1312 -558 ct 
1327 -570 1348 -579 1375 -587 ct 1402 -595 1430 -599 1461 -599 ct 1507 -599 1547 -592 1582 -579 ct 
1617 -566 1642 -548 1659 -525 ct 1675 -503 1687 -473 1693 -435 ct 1596 -421 l 
1591 -452 1579 -475 1558 -492 ct 1536 -509 1507 -517 1468 -517 ct 1422 -517 1390 -510 1370 -495 ct 
1351 -480 1341 -462 1341 -442 ct 1341 -429 1345 -417 1353 -407 ct 1361 -396 1374 -388 1391 -381 ct 
1401 -377 1430 -369 1479 -355 ct 1549 -337 1598 -321 1626 -309 ct 1654 -297 1675 -280 1691 -257 ct 
1707 -234 1715 -206 1715 -172 ct 1715 -139 1705 -108 1686 -79 ct 1667 -50 1639 -27 1602 -11 ct 
1566 5 1525 13 1479 13 ct 1403 13 1345 -3 1305 -34 ct 1265 -66 1240 -113 1229 -175 ct 
p ef
1836 0 m  1836 -809 l  1935 -809 l  1935 -347 l  2170 -586 l  2298 -586 l 
2075 -368 l  2321 0 l  2199 0 l  2005 -300 l  1935 -232 l  1935 0 l  1836 0 l 
p ef
2415 -1 m  2415 -809 l  2720 -809 l  2774 -809 2815 -806 2843 -801 ct 2883 -795 2916 -782 2943 -763 ct 
2969 -745 2991 -719 3007 -685 ct 3024 -652 3032 -615 3032 -575 ct 3032 -506 3010 -448 2966 -400 ct 
2923 -353 2844 -329 2729 -329 ct 2522 -329 l  2522 -1 l  2415 -1 l  p
2522 -424 m  2731 -424 l  2800 -424 2849 -437 2878 -463 ct 2907 -489 2922 -525 2922 -572 ct 
2922 -606 2913 -635 2896 -659 ct 2879 -683 2856 -699 2829 -706 ct 2811 -711 2777 -714 2729 -714 ct 
2522 -714 l  2522 -424 l  p ef
3155 0 m  3155 -586 l  3245 -586 l  3245 -497 l  3267 -539 3288 -566 3308 -579 ct 
3327 -592 3348 -599 3371 -599 ct 3405 -599 3439 -588 3473 -567 ct 3439 -475 l 
3415 -489 3391 -496 3366 -496 ct 3345 -496 3325 -490 3308 -477 ct 3291 -464 3278 -446 3271 -423 ct 
3260 -387 3255 -349 3255 -307 ct 3255 0 l  3155 0 l  p ef
3496 -293 m  3496 -402 3527 -482 3587 -534 ct 3637 -577 3699 -599 3771 -599 ct 
3852 -599 3917 -573 3968 -520 ct 4019 -467 4045 -394 4045 -301 ct 4045 -226 4034 -167 4011 -124 ct 
3988 -80 3956 -47 3912 -23 ct 3869 1 3822 13 3771 13 ct 3689 13 3623 -13 3572 -66 ct 
3522 -118 3496 -194 3496 -293 ct p
3598 -293 m  3598 -218 3615 -162 3648 -125 ct 3680 -87 3721 -69 3771 -69 ct 
3820 -69 3861 -87 3894 -125 ct 3927 -162 3943 -220 3943 -296 ct 3943 -369 3927 -424 3894 -461 ct 
3861 -498 3820 -517 3771 -517 ct 3721 -517 3680 -498 3648 -461 ct 3615 -424 3598 -368 3598 -293 ct 
p ef
4097 0 m  4311 -304 l  4113 -586 l  4237 -586 l  4327 -448 l  4344 -422 4358 -400 4368 -383 ct 
4384 -407 4399 -429 4413 -447 ct 4511 -586 l  4630 -586 l  4427 -310 l  4645 0 l 
4523 0 l  4403 -182 l  4371 -231 l  4217 0 l  4097 0 l  p ef
4727 226 m  4716 133 l  4738 139 4757 141 4773 141 ct 4795 141 4812 138 4826 130 ct 
4839 123 4850 113 4858 100 ct 4864 90 4875 65 4889 26 ct 4890 20 4893 12 4897 1 ct 
4675 -586 l  4782 -586 l  4904 -246 l  4920 -203 4934 -158 4946 -111 ct 4958 -156 4971 -201 4987 -244 ct 
5112 -586 l  5212 -586 l  4989 10 l  4965 75 4946 119 4933 143 ct 4916 176 4895 200 4873 215 ct 
4850 230 4823 238 4791 238 ct 4772 238 4751 234 4727 226 ct p ef
pom

pum
5697 2302 t
539 -230 m  626 -208 l  608 -137 575 -83 528 -45 ct 480 -8 423 11 354 11 ct 
283 11 226 -3 182 -32 ct 137 -61 104 -103 80 -157 ct 57 -212 46 -270 46 -333 ct 
46 -401 59 -461 85 -512 ct 111 -563 148 -601 196 -628 ct 245 -654 298 -667 356 -667 ct 
421 -667 476 -651 521 -617 ct 566 -584 597 -537 615 -476 ct 529 -456 l  514 -504 492 -539 463 -560 ct 
434 -582 398 -593 354 -593 ct 303 -593 261 -581 227 -557 ct 193 -533 170 -500 156 -459 ct 
142 -419 135 -377 135 -334 ct 135 -278 143 -229 160 -187 ct 176 -146 201 -115 236 -94 ct 
270 -74 307 -63 347 -63 ct 396 -63 437 -77 471 -105 ct 504 -133 527 -175 539 -230 ct 
p ef
695 -237 m  695 -325 720 -391 769 -433 ct 810 -468 860 -486 918 -486 ct 984 -486 1037 -464 1079 -421 ct 
1120 -379 1141 -320 1141 -244 ct 1141 -183 1132 -135 1113 -100 ct 1095 -65 1068 -37 1033 -18 ct 
998 1 960 11 918 11 ct 852 11 798 -10 757 -53 ct 716 -96 695 -157 695 -237 ct p
778 -237 m  778 -176 792 -131 818 -101 ct 845 -70 878 -55 918 -55 ct 958 -55 992 -70 1018 -101 ct 
1045 -131 1058 -178 1058 -240 ct 1058 -299 1045 -343 1018 -374 ct 991 -404 958 -419 918 -419 ct 
878 -419 845 -404 818 -374 ct 792 -344 778 -298 778 -237 ct p ef
1237 0 m  1237 -475 l  1310 -475 l  1310 -408 l  1345 -460 1395 -486 1461 -486 ct 
1490 -486 1516 -481 1540 -471 ct 1564 -460 1582 -447 1594 -430 ct 1606 -413 1615 -394 1619 -371 ct 
1622 -356 1624 -330 1624 -292 ct 1624 0 l  1543 0 l  1543 -289 l  1543 -322 1540 -346 1534 -363 ct 
1528 -379 1516 -392 1501 -402 ct 1485 -411 1466 -416 1444 -416 ct 1410 -416 1380 -405 1355 -384 ct 
1331 -362 1318 -320 1318 -260 ct 1318 0 l  1237 0 l  p ef
1749 0 m  1749 -475 l  1822 -475 l  1822 -408 l  1857 -460 1907 -486 1973 -486 ct 
2002 -486 2028 -481 2052 -471 ct 2076 -460 2094 -447 2106 -430 ct 2118 -413 2127 -394 2131 -371 ct 
2134 -356 2136 -330 2136 -292 ct 2136 0 l  2055 0 l  2055 -289 l  2055 -322 2052 -346 2046 -363 ct 
2040 -379 2028 -392 2013 -402 ct 1997 -411 1978 -416 1956 -416 ct 1922 -416 1892 -405 1867 -384 ct 
1843 -362 1830 -320 1830 -260 ct 1830 0 l  1749 0 l  p ef
2587 -153 m  2670 -142 l  2657 -94 2633 -56 2597 -29 ct 2562 -2 2516 11 2461 11 ct 
2392 11 2336 -10 2296 -53 ct 2255 -96 2235 -156 2235 -233 ct 2235 -313 2255 -376 2296 -420 ct 
2338 -464 2391 -486 2457 -486 ct 2520 -486 2572 -464 2612 -421 ct 2653 -378 2673 -317 2673 -238 ct 
2673 -234 2673 -226 2672 -217 ct 2318 -217 l  2321 -165 2336 -125 2362 -97 ct 
2389 -69 2422 -55 2462 -55 ct 2491 -55 2516 -63 2537 -78 ct 2558 -94 2575 -119 2587 -153 ct 
p
2322 -283 m  2588 -283 l  2584 -323 2574 -353 2557 -373 ct 2532 -404 2498 -420 2458 -420 ct 
2421 -420 2389 -407 2364 -383 ct 2339 -358 2325 -325 2322 -283 ct p ef
3085 -174 m  3164 -164 l  3155 -109 3133 -66 3098 -35 ct 3062 -4 3018 11 2966 11 ct 
2901 11 2849 -10 2809 -53 ct 2770 -95 2750 -156 2750 -236 ct 2750 -287 2758 -332 2775 -370 ct 
2792 -409 2818 -438 2853 -457 ct 2888 -476 2926 -486 2967 -486 ct 3018 -486 3060 -473 3093 -447 ct 
3126 -421 3147 -384 3156 -336 ct 3078 -323 l  3071 -355 3057 -379 3038 -396 ct 
3019 -412 2997 -420 2970 -420 ct 2929 -420 2896 -405 2871 -376 ct 2845 -347 2833 -301 2833 -238 ct 
2833 -174 2845 -128 2869 -99 ct 2894 -70 2926 -55 2965 -55 ct 2997 -55 3023 -65 3044 -84 ct 
3066 -104 3079 -134 3085 -174 ct p ef
3411 -72 m  3423 -1 l  3400 4 3380 6 3362 6 ct 3333 6 3310 1 3294 -8 ct 3278 -17 3267 -29 3260 -44 ct 
3254 -59 3250 -91 3250 -139 ct 3250 -413 l  3191 -413 l  3191 -476 l  3250 -476 l 
3250 -593 l  3330 -642 l  3330 -476 l  3411 -476 l  3411 -413 l  3330 -413 l 
3330 -135 l  3330 -112 3332 -97 3335 -91 ct 3337 -84 3342 -79 3349 -75 ct 3355 -71 3364 -69 3376 -69 ct 
3385 -69 3397 -70 3411 -72 ct p ef
3490 -563 m  3490 -656 l  3570 -656 l  3570 -563 l  3490 -563 l  p
3490 0 m  3490 -475 l  3570 -475 l  3570 0 l  3490 0 l  p ef
3662 -237 m  3662 -325 3687 -391 3736 -433 ct 3777 -468 3827 -486 3885 -486 ct 
3951 -486 4004 -464 4046 -421 ct 4087 -379 4108 -320 4108 -244 ct 4108 -183 4099 -135 4080 -100 ct 
4062 -65 4035 -37 4000 -18 ct 3965 1 3927 11 3885 11 ct 3819 11 3765 -10 3724 -53 ct 
3683 -96 3662 -157 3662 -237 ct p
3745 -237 m  3745 -176 3759 -131 3785 -101 ct 3812 -70 3845 -55 3885 -55 ct 
3925 -55 3959 -70 3985 -101 ct 4012 -131 4025 -178 4025 -240 ct 4025 -299 4012 -343 3985 -374 ct 
3958 -404 3925 -419 3885 -419 ct 3845 -419 3812 -404 3785 -374 ct 3759 -344 3745 -298 3745 -237 ct 
p ef
4204 0 m  4204 -475 l  4277 -475 l  4277 -408 l  4312 -460 4362 -486 4428 -486 ct 
4457 -486 4483 -481 4507 -471 ct 4531 -460 4549 -447 4561 -430 ct 4573 -413 4582 -394 4586 -371 ct 
4589 -356 4591 -330 4591 -292 ct 4591 0 l  4510 0 l  4510 -289 l  4510 -322 4507 -346 4501 -363 ct 
4495 -379 4483 -392 4468 -402 ct 4452 -411 4433 -416 4411 -416 ct 4377 -416 4347 -405 4322 -384 ct 
4298 -362 4285 -320 4285 -260 ct 4285 0 l  4204 0 l  p ef
4685 -142 m  4765 -154 l  4769 -122 4782 -98 4802 -81 ct 4823 -64 4851 -55 4888 -55 ct 
4925 -55 4953 -63 4970 -78 ct 4988 -93 4997 -111 4997 -131 ct 4997 -149 4989 -163 4974 -174 ct 
4963 -181 4935 -190 4891 -201 ct 4832 -216 4791 -229 4768 -240 ct 4745 -251 4728 -266 4716 -285 ct 
4705 -304 4699 -326 4699 -349 ct 4699 -370 4703 -390 4713 -408 ct 4723 -426 4736 -441 4753 -453 ct 
4765 -462 4782 -470 4804 -476 ct 4826 -483 4849 -486 4874 -486 ct 4911 -486 4944 -481 4972 -470 ct 
5000 -459 5021 -445 5034 -426 ct 5048 -408 5057 -383 5062 -353 ct 4983 -342 l 
4980 -366 4969 -385 4952 -399 ct 4935 -413 4911 -420 4880 -420 ct 4843 -420 4816 -414 4800 -401 ct 
4784 -389 4777 -375 4777 -358 ct 4777 -348 4780 -339 4786 -330 ct 4793 -322 4803 -314 4817 -309 ct 
4825 -306 4849 -299 4888 -288 ct 4946 -273 4985 -260 5008 -251 ct 5030 -241 5048 -227 5061 -208 ct 
5074 -190 5080 -167 5080 -139 ct 5080 -113 5072 -87 5057 -64 ct 5041 -40 5018 -21 4989 -8 ct 
4959 5 4926 11 4888 11 ct 4827 11 4780 -2 4747 -28 ct 4715 -53 4694 -91 4685 -142 ct 
p ef
5507 0 m  5432 0 l  5432 -656 l  5513 -656 l  5513 -422 l  5547 -465 5590 -486 5643 -486 ct 
5672 -486 5700 -480 5726 -468 ct 5752 -457 5774 -440 5790 -419 ct 5807 -397 5821 -372 5830 -341 ct 
5840 -311 5844 -279 5844 -245 ct 5844 -163 5824 -100 5784 -56 ct 5744 -11 5695 11 5639 11 ct 
5583 11 5539 -12 5507 -59 ct 5507 0 l  p
5506 -241 m  5506 -184 5514 -143 5529 -117 ct 5555 -76 5589 -55 5632 -55 ct 
5667 -55 5698 -71 5723 -101 ct 5749 -132 5762 -177 5762 -238 ct 5762 -300 5750 -346 5725 -375 ct 
5700 -405 5671 -420 5636 -420 ct 5601 -420 5570 -404 5544 -374 ct 5519 -343 5506 -299 5506 -241 ct 
p ef
6270 -153 m  6353 -142 l  6340 -94 6316 -56 6280 -29 ct 6245 -2 6199 11 6144 11 ct 
6075 11 6019 -10 5979 -53 ct 5938 -96 5918 -156 5918 -233 ct 5918 -313 5938 -376 5979 -420 ct 
6021 -464 6074 -486 6140 -486 ct 6203 -486 6255 -464 6295 -421 ct 6336 -378 6356 -317 6356 -238 ct 
6356 -234 6356 -226 6355 -217 ct 6001 -217 l  6004 -165 6019 -125 6045 -97 ct 
6072 -69 6105 -55 6145 -55 ct 6174 -55 6199 -63 6220 -78 ct 6241 -94 6258 -119 6270 -153 ct 
p
6005 -283 m  6271 -283 l  6267 -323 6257 -353 6240 -373 ct 6215 -404 6181 -420 6141 -420 ct 
6104 -420 6072 -407 6047 -383 ct 6022 -358 6008 -325 6005 -283 ct p ef
6633 -72 m  6645 -1 l  6622 4 6602 6 6584 6 ct 6555 6 6532 1 6516 -8 ct 6500 -17 6489 -29 6482 -44 ct 
6476 -59 6472 -91 6472 -139 ct 6472 -413 l  6413 -413 l  6413 -476 l  6472 -476 l 
6472 -593 l  6552 -642 l  6552 -476 l  6633 -476 l  6633 -413 l  6552 -413 l 
6552 -135 l  6552 -112 6554 -97 6557 -91 ct 6559 -84 6564 -79 6571 -75 ct 6577 -71 6586 -69 6598 -69 ct 
6607 -69 6619 -70 6633 -72 ct p ef
6799 0 m  6654 -476 l  6737 -476 l  6813 -201 l  6841 -99 l  6842 -104 6850 -137 6865 -197 ct 
6941 -476 l  7024 -476 l  7095 -200 l  7119 -109 l  7146 -201 l  7228 -476 l 
7306 -476 l  7157 0 l  7074 0 l  6998 -285 l  6980 -366 l  6883 0 l  6799 0 l 
p ef
7701 -153 m  7784 -142 l  7771 -94 7747 -56 7711 -29 ct 7676 -2 7630 11 7575 11 ct 
7506 11 7450 -10 7410 -53 ct 7369 -96 7349 -156 7349 -233 ct 7349 -313 7369 -376 7410 -420 ct 
7452 -464 7505 -486 7571 -486 ct 7634 -486 7686 -464 7726 -421 ct 7767 -378 7787 -317 7787 -238 ct 
7787 -234 7787 -226 7786 -217 ct 7432 -217 l  7435 -165 7450 -125 7476 -97 ct 
7503 -69 7536 -55 7576 -55 ct 7605 -55 7630 -63 7651 -78 ct 7672 -94 7689 -119 7701 -153 ct 
p
7436 -283 m  7702 -283 l  7698 -323 7688 -353 7671 -373 ct 7646 -404 7612 -420 7572 -420 ct 
7535 -420 7503 -407 7478 -383 ct 7453 -358 7439 -325 7436 -283 ct p ef
8213 -153 m  8296 -142 l  8283 -94 8259 -56 8223 -29 ct 8188 -2 8142 11 8087 11 ct 
8018 11 7962 -10 7922 -53 ct 7881 -96 7861 -156 7861 -233 ct 7861 -313 7881 -376 7922 -420 ct 
7964 -464 8017 -486 8083 -486 ct 8146 -486 8198 -464 8238 -421 ct 8279 -378 8299 -317 8299 -238 ct 
8299 -234 8299 -226 8298 -217 ct 7944 -217 l  7947 -165 7962 -125 7988 -97 ct 
8015 -69 8048 -55 8088 -55 ct 8117 -55 8142 -63 8163 -78 ct 8184 -94 8201 -119 8213 -153 ct 
p
7948 -283 m  8214 -283 l  8210 -323 8200 -353 8183 -373 ct 8158 -404 8124 -420 8084 -420 ct 
8047 -420 8015 -407 7990 -383 ct 7965 -358 7951 -325 7948 -283 ct p ef
8400 0 m  8400 -475 l  8473 -475 l  8473 -408 l  8508 -460 8558 -486 8624 -486 ct 
8653 -486 8679 -481 8703 -471 ct 8727 -460 8745 -447 8757 -430 ct 8769 -413 8778 -394 8782 -371 ct 
8785 -356 8787 -330 8787 -292 ct 8787 0 l  8706 0 l  8706 -289 l  8706 -322 8703 -346 8697 -363 ct 
8691 -379 8679 -392 8664 -402 ct 8648 -411 8629 -416 8607 -416 ct 8573 -416 8543 -405 8518 -384 ct 
8494 -362 8481 -320 8481 -260 ct 8481 0 l  8400 0 l  p ef
pom
pum
6163 3327 t
238 -1 m  238 -579 l  22 -579 l  22 -656 l  542 -656 l  542 -579 l  325 -579 l 
325 -1 l  238 -1 l  p ef
832 -58 m  802 -33 773 -15 746 -5 ct 718 6 688 11 657 11 ct 604 11 564 -2 536 -27 ct 
508 -53 494 -85 494 -125 ct 494 -148 499 -170 510 -189 ct 521 -208 535 -223 552 -235 ct 
569 -247 588 -256 610 -262 ct 625 -266 649 -270 681 -274 ct 746 -281 794 -291 825 -301 ct 
825 -312 825 -319 825 -322 ct 825 -355 818 -378 803 -392 ct 782 -410 751 -419 711 -419 ct 
673 -419 645 -412 627 -399 ct 609 -386 595 -362 587 -329 ct 508 -339 l  515 -373 527 -400 543 -421 ct 
560 -442 584 -458 615 -469 ct 646 -480 682 -486 722 -486 ct 763 -486 796 -481 821 -471 ct 
847 -462 865 -450 877 -435 ct 889 -421 898 -403 902 -381 ct 905 -367 907 -342 907 -306 ct 
907 -199 l  907 -124 908 -77 912 -57 ct 915 -37 922 -18 932 0 ct 848 0 l  840 -16 834 -36 832 -58 ct 
p
825 -238 m  796 -226 752 -216 693 -208 ct 660 -203 637 -198 623 -192 ct 609 -186 599 -177 591 -166 ct 
584 -154 580 -141 580 -127 ct 580 -106 588 -88 605 -74 ct 621 -59 645 -52 676 -52 ct 
707 -52 735 -59 759 -72 ct 783 -86 801 -105 812 -128 ct 821 -146 825 -173 825 -209 ct 
825 -238 l  p ef
1002 -142 m  1082 -154 l  1086 -122 1099 -98 1119 -81 ct 1140 -64 1168 -55 1205 -55 ct 
1242 -55 1270 -63 1287 -78 ct 1305 -93 1314 -111 1314 -131 ct 1314 -149 1306 -163 1291 -174 ct 
1280 -181 1252 -190 1208 -201 ct 1149 -216 1108 -229 1085 -240 ct 1062 -251 1045 -266 1033 -285 ct 
1022 -304 1016 -326 1016 -349 ct 1016 -370 1020 -390 1030 -408 ct 1040 -426 1053 -441 1070 -453 ct 
1082 -462 1099 -470 1121 -476 ct 1143 -483 1166 -486 1191 -486 ct 1228 -486 1261 -481 1289 -470 ct 
1317 -459 1338 -445 1351 -426 ct 1365 -408 1374 -383 1379 -353 ct 1300 -342 l 
1297 -366 1286 -385 1269 -399 ct 1252 -413 1228 -420 1197 -420 ct 1160 -420 1133 -414 1117 -401 ct 
1101 -389 1094 -375 1094 -358 ct 1094 -348 1097 -339 1103 -330 ct 1110 -322 1120 -314 1134 -309 ct 
1142 -306 1166 -299 1205 -288 ct 1263 -273 1302 -260 1325 -251 ct 1347 -241 1365 -227 1378 -208 ct 
1391 -190 1397 -167 1397 -139 ct 1397 -113 1389 -87 1374 -64 ct 1358 -40 1335 -21 1306 -8 ct 
1276 5 1243 11 1205 11 ct 1144 11 1097 -2 1064 -28 ct 1032 -53 1011 -91 1002 -142 ct 
p ef
1496 0 m  1496 -656 l  1576 -656 l  1576 -282 l  1767 -475 l  1872 -475 l 
1690 -299 l  1890 0 l  1791 0 l  1633 -243 l  1576 -188 l  1576 0 l  1496 0 l 
p ef
2522 -58 m  2492 -33 2463 -15 2436 -5 ct 2408 6 2378 11 2347 11 ct 2294 11 2254 -2 2226 -27 ct 
2198 -53 2184 -85 2184 -125 ct 2184 -148 2189 -170 2200 -189 ct 2211 -208 2225 -223 2242 -235 ct 
2259 -247 2278 -256 2300 -262 ct 2315 -266 2339 -270 2371 -274 ct 2436 -281 2484 -291 2515 -301 ct 
2515 -312 2515 -319 2515 -322 ct 2515 -355 2508 -378 2493 -392 ct 2472 -410 2441 -419 2401 -419 ct 
2363 -419 2335 -412 2317 -399 ct 2299 -386 2285 -362 2277 -329 ct 2198 -339 l 
2205 -373 2217 -400 2233 -421 ct 2250 -442 2274 -458 2305 -469 ct 2336 -480 2372 -486 2412 -486 ct 
2453 -486 2486 -481 2511 -471 ct 2537 -462 2555 -450 2567 -435 ct 2579 -421 2588 -403 2592 -381 ct 
2595 -367 2597 -342 2597 -306 ct 2597 -199 l  2597 -124 2598 -77 2602 -57 ct 
2605 -37 2612 -18 2622 0 ct 2538 0 l  2530 -16 2524 -36 2522 -58 ct p
2515 -238 m  2486 -226 2442 -216 2383 -208 ct 2350 -203 2327 -198 2313 -192 ct 
2299 -186 2289 -177 2281 -166 ct 2274 -154 2270 -141 2270 -127 ct 2270 -106 2278 -88 2295 -74 ct 
2311 -59 2335 -52 2366 -52 ct 2397 -52 2425 -59 2449 -72 ct 2473 -86 2491 -105 2502 -128 ct 
2511 -146 2515 -173 2515 -209 ct 2515 -238 l  p ef
2723 0 m  2723 -475 l  2796 -475 l  2796 -408 l  2831 -460 2881 -486 2947 -486 ct 
2976 -486 3002 -481 3026 -471 ct 3050 -460 3068 -447 3080 -430 ct 3092 -413 3101 -394 3105 -371 ct 
3108 -356 3110 -330 3110 -292 ct 3110 0 l  3029 0 l  3029 -289 l  3029 -322 3026 -346 3020 -363 ct 
3014 -379 3002 -392 2987 -402 ct 2971 -411 2952 -416 2930 -416 ct 2896 -416 2866 -405 2841 -384 ct 
2817 -362 2804 -320 2804 -260 ct 2804 0 l  2723 0 l  p ef
3544 0 m  3544 -60 l  3514 -13 3469 11 3411 11 ct 3373 11 3338 1 3306 -20 ct 
3275 -41 3250 -70 3233 -108 ct 3215 -145 3206 -188 3206 -237 ct 3206 -284 3214 -327 3230 -366 ct 
3246 -405 3270 -434 3301 -455 ct 3333 -475 3368 -486 3407 -486 ct 3436 -486 3462 -480 3484 -468 ct 
3506 -455 3525 -440 3539 -420 ct 3539 -656 l  3619 -656 l  3619 0 l  3544 0 l 
p
3289 -237 m  3289 -176 3302 -131 3328 -100 ct 3353 -70 3384 -55 3419 -55 ct 
3454 -55 3484 -70 3508 -98 ct 3533 -127 3545 -171 3545 -230 ct 3545 -295 3533 -343 3508 -373 ct 
3483 -404 3452 -419 3415 -419 ct 3379 -419 3349 -404 3325 -375 ct 3301 -346 3289 -300 3289 -237 ct 
p ef
4162 -1 m  4162 -579 l  3946 -579 l  3946 -656 l  4466 -656 l  4466 -579 l 
4249 -579 l  4249 -1 l  4162 -1 l  p ef
4757 -58 m  4727 -33 4698 -15 4671 -5 ct 4643 6 4613 11 4582 11 ct 4529 11 4489 -2 4461 -27 ct 
4433 -53 4419 -85 4419 -125 ct 4419 -148 4424 -170 4435 -189 ct 4446 -208 4460 -223 4477 -235 ct 
4494 -247 4513 -256 4535 -262 ct 4550 -266 4574 -270 4606 -274 ct 4671 -281 4719 -291 4750 -301 ct 
4750 -312 4750 -319 4750 -322 ct 4750 -355 4743 -378 4728 -392 ct 4707 -410 4676 -419 4636 -419 ct 
4598 -419 4570 -412 4552 -399 ct 4534 -386 4520 -362 4512 -329 ct 4433 -339 l 
4440 -373 4452 -400 4468 -421 ct 4485 -442 4509 -458 4540 -469 ct 4571 -480 4607 -486 4647 -486 ct 
4688 -486 4721 -481 4746 -471 ct 4772 -462 4790 -450 4802 -435 ct 4814 -421 4823 -403 4827 -381 ct 
4830 -367 4832 -342 4832 -306 ct 4832 -199 l  4832 -124 4833 -77 4837 -57 ct 
4840 -37 4847 -18 4857 0 ct 4773 0 l  4765 -16 4759 -36 4757 -58 ct p
4750 -238 m  4721 -226 4677 -216 4618 -208 ct 4585 -203 4562 -198 4548 -192 ct 
4534 -186 4524 -177 4516 -166 ct 4509 -154 4505 -141 4505 -127 ct 4505 -106 4513 -88 4530 -74 ct 
4546 -59 4570 -52 4601 -52 ct 4632 -52 4660 -59 4684 -72 ct 4708 -86 4726 -105 4737 -128 ct 
4746 -146 4750 -173 4750 -209 ct 4750 -238 l  p ef
4926 -142 m  5006 -154 l  5010 -122 5023 -98 5043 -81 ct 5064 -64 5092 -55 5129 -55 ct 
5166 -55 5194 -63 5211 -78 ct 5229 -93 5238 -111 5238 -131 ct 5238 -149 5230 -163 5215 -174 ct 
5204 -181 5176 -190 5132 -201 ct 5073 -216 5032 -229 5009 -240 ct 4986 -251 4969 -266 4957 -285 ct 
4946 -304 4940 -326 4940 -349 ct 4940 -370 4944 -390 4954 -408 ct 4964 -426 4977 -441 4994 -453 ct 
5006 -462 5023 -470 5045 -476 ct 5067 -483 5090 -486 5115 -486 ct 5152 -486 5185 -481 5213 -470 ct 
5241 -459 5262 -445 5275 -426 ct 5289 -408 5298 -383 5303 -353 ct 5224 -342 l 
5221 -366 5210 -385 5193 -399 ct 5176 -413 5152 -420 5121 -420 ct 5084 -420 5057 -414 5041 -401 ct 
5025 -389 5018 -375 5018 -358 ct 5018 -348 5021 -339 5027 -330 ct 5034 -322 5044 -314 5058 -309 ct 
5066 -306 5090 -299 5129 -288 ct 5187 -273 5226 -260 5249 -251 ct 5271 -241 5289 -227 5302 -208 ct 
5315 -190 5321 -167 5321 -139 ct 5321 -113 5313 -87 5298 -64 ct 5282 -40 5259 -21 5230 -8 ct 
5200 5 5167 11 5129 11 ct 5068 11 5021 -2 4988 -28 ct 4956 -53 4935 -91 4926 -142 ct 
p ef
5420 0 m  5420 -656 l  5500 -656 l  5500 -282 l  5691 -475 l  5796 -475 l 
5614 -299 l  5814 0 l  5715 0 l  5557 -243 l  5500 -188 l  5500 0 l  5420 0 l 
p ef
5892 -1 m  5892 -656 l  6139 -656 l  6183 -656 6216 -654 6239 -650 ct 6271 -645 6298 -635 6320 -620 ct 
6342 -604 6360 -583 6373 -556 ct 6386 -529 6393 -499 6393 -467 ct 6393 -411 6375 -364 6340 -325 ct 
6304 -286 6240 -267 6147 -267 ct 5979 -267 l  5979 -1 l  5892 -1 l  p
5979 -344 m  6148 -344 l  6204 -344 6244 -355 6268 -376 ct 6291 -397 6303 -426 6303 -464 ct 
6303 -491 6296 -515 6282 -534 ct 6269 -554 6250 -567 6228 -573 ct 6213 -577 6186 -579 6147 -579 ct 
5979 -579 l  5979 -344 l  p ef
6495 0 m  6495 -475 l  6567 -475 l  6567 -403 l  6586 -437 6603 -459 6618 -470 ct 
6634 -481 6651 -486 6670 -486 ct 6697 -486 6725 -477 6753 -460 ct 6725 -385 l 
6705 -397 6686 -403 6666 -403 ct 6648 -403 6633 -397 6619 -387 ct 6605 -376 6595 -362 6589 -343 ct 
6580 -314 6575 -283 6575 -249 ct 6575 0 l  6495 0 l  p ef
6769 -237 m  6769 -325 6794 -391 6843 -433 ct 6884 -468 6934 -486 6992 -486 ct 
7058 -486 7111 -464 7153 -421 ct 7194 -379 7215 -320 7215 -244 ct 7215 -183 7206 -135 7187 -100 ct 
7169 -65 7142 -37 7107 -18 ct 7072 1 7034 11 6992 11 ct 6926 11 6872 -10 6831 -53 ct 
6790 -96 6769 -157 6769 -237 ct p
6852 -237 m  6852 -176 6866 -131 6892 -101 ct 6919 -70 6952 -55 6992 -55 ct 
7032 -55 7066 -70 7092 -101 ct 7119 -131 7132 -178 7132 -240 ct 7132 -299 7119 -343 7092 -374 ct 
7065 -404 7032 -419 6992 -419 ct 6952 -419 6919 -404 6892 -374 ct 6866 -344 6852 -298 6852 -237 ct 
p ef
7259 0 m  7432 -247 l  7272 -475 l  7372 -475 l  7445 -364 l  7459 -343 7470 -325 7479 -311 ct 
7492 -330 7504 -348 7515 -363 ct 7595 -475 l  7691 -475 l  7527 -252 l  7704 0 l 
7605 0 l  7507 -148 l  7481 -188 l  7356 0 l  7259 0 l  p ef
7770 183 m  7761 108 l  7779 112 7794 115 7807 115 ct 7825 115 7839 112 7850 106 ct 
7861 100 7870 91 7876 81 ct 7882 73 7890 53 7901 21 ct 7903 16 7905 10 7908 1 ct 
7728 -475 l  7815 -475 l  7914 -200 l  7926 -165 7938 -128 7948 -90 ct 7957 -127 7968 -163 7981 -198 ct 
8083 -475 l  8163 -475 l  7983 8 l  7963 60 7948 96 7937 116 ct 7923 143 7907 162 7888 174 ct 
7870 187 7847 193 7822 193 ct 7806 193 7789 190 7770 183 ct p ef
pom
0.000 c 8725 12246 m  8725 18796 l  8700 18796 l  8675 18796 l  8675 12246 l 
8700 12246 l  8725 12246 l  p ef
8700 19246 m  8888 18684 l  8513 18684 l  8700 19246 l  p ef
pum
9022 14558 t
-89.9 r 0.222 c 60 0 m  60 -556 l  269 -556 l  306 -556 334 -554 354 -551 ct 
381 -546 404 -537 422 -525 ct 441 -512 456 -494 467 -471 ct 478 -448 484 -423 484 -395 ct 
484 -348 469 -308 439 -275 ct 409 -242 354 -226 276 -226 ct 133 -226 l  133 0 l 
60 0 l  p
133 -292 m  277 -292 l  324 -292 358 -300 378 -318 ct 398 -336 408 -361 408 -393 ct 
408 -416 402 -436 390 -453 ct 379 -469 363 -480 344 -485 ct 332 -489 309 -490 275 -490 ct 
133 -490 l  133 -292 l  p ef
830 -50 m  804 -28 780 -13 757 -4 ct 733 5 708 9 682 9 ct 637 9 603 -2 580 -23 ct 
556 -45 544 -73 544 -106 ct 544 -126 549 -144 557 -160 ct 566 -177 578 -190 593 -200 ct 
607 -209 624 -217 642 -222 ct 655 -226 675 -229 702 -232 ct 758 -239 798 -247 824 -256 ct 
824 -265 824 -271 824 -274 ct 824 -301 818 -321 805 -332 ct 788 -348 762 -355 727 -355 ct 
695 -355 672 -350 656 -339 ct 641 -327 630 -307 622 -279 ct 556 -288 l  562 -317 572 -340 586 -357 ct 
600 -375 620 -388 646 -398 ct 672 -407 703 -412 737 -412 ct 772 -412 800 -408 821 -400 ct 
843 -392 858 -382 868 -369 ct 879 -357 886 -342 890 -323 ct 892 -311 893 -290 893 -260 ct 
893 -169 l  893 -105 894 -65 897 -48 ct 900 -32 906 -16 915 0 ct 843 0 l  836 -14 832 -31 830 -50 ct 
p
824 -202 m  799 -192 762 -184 713 -176 ct 685 -172 665 -168 653 -163 ct 642 -158 633 -150 626 -141 ct 
620 -131 617 -120 617 -108 ct 617 -90 624 -75 637 -63 ct 651 -51 671 -45 698 -45 ct 
724 -45 748 -50 768 -62 ct 788 -73 803 -89 813 -109 ct 820 -124 824 -147 824 -177 ct 
824 -202 l  p ef
1262 -148 m  1329 -139 l  1321 -93 1303 -56 1273 -30 ct 1242 -4 1205 9 1161 9 ct 
1106 9 1062 -9 1029 -45 ct 995 -81 978 -133 978 -200 ct 978 -244 986 -282 1000 -314 ct 
1014 -347 1036 -371 1066 -388 ct 1095 -404 1127 -412 1162 -412 ct 1205 -412 1241 -401 1269 -379 ct 
1297 -357 1315 -325 1322 -285 ct 1256 -274 l  1250 -301 1239 -322 1223 -336 ct 
1206 -349 1187 -356 1164 -356 ct 1130 -356 1102 -344 1081 -319 ct 1059 -294 1048 -255 1048 -202 ct 
1048 -148 1059 -109 1079 -84 ct 1100 -59 1127 -47 1161 -47 ct 1187 -47 1210 -55 1228 -72 ct 
1246 -88 1257 -114 1262 -148 ct p ef
1390 0 m  1390 -556 l  1458 -556 l  1458 -239 l  1619 -403 l  1707 -403 l 
1554 -253 l  1723 0 l  1639 0 l  1506 -206 l  1458 -160 l  1458 0 l  1390 0 l 
p ef
2054 -130 m  2124 -121 l  2113 -80 2092 -48 2062 -25 ct 2032 -2 1994 9 1947 9 ct 
1888 9 1842 -9 1807 -45 ct 1773 -82 1755 -133 1755 -198 ct 1755 -266 1773 -319 1808 -356 ct 
1843 -393 1888 -412 1943 -412 ct 1997 -412 2041 -394 2075 -357 ct 2109 -320 2126 -269 2126 -202 ct 
2126 -198 2126 -192 2126 -184 ct 1826 -184 l  1828 -140 1841 -106 1863 -82 ct 
1886 -59 1914 -47 1948 -47 ct 1973 -47 1994 -54 2012 -67 ct 2029 -80 2043 -101 2054 -130 ct 
p
1830 -240 m  2054 -240 l  2051 -274 2043 -300 2029 -317 ct 2007 -343 1979 -356 1944 -356 ct 
1913 -356 1886 -345 1865 -324 ct 1844 -303 1832 -275 1830 -240 ct p ef
2359 -61 m  2369 -1 l  2350 3 2333 5 2317 5 ct 2293 5 2273 1 2260 -7 ct 2246 -15 2237 -25 2231 -38 ct 
2225 -50 2223 -77 2223 -118 ct 2223 -350 l  2173 -350 l  2173 -403 l  2223 -403 l 
2223 -503 l  2290 -544 l  2290 -403 l  2359 -403 l  2359 -350 l  2290 -350 l 
2290 -114 l  2290 -95 2292 -83 2294 -77 ct 2296 -71 2300 -67 2306 -64 ct 2311 -60 2319 -59 2329 -59 ct 
2337 -59 2347 -60 2359 -61 ct p ef
pom
0.000 c 7175 19246 m  7175 12696 l  7200 12696 l  7225 12696 l  7225 19246 l 
7200 19246 l  7175 19246 l  p ef
7200 12246 m  7013 12809 l  7388 12809 l  7200 12246 l  p ef
pum
6878 16934 t
89.9 r 0.222 c 60 0 m  60 -556 l  269 -556 l  306 -556 334 -554 354 -551 ct 
381 -546 404 -537 422 -525 ct 441 -512 456 -494 467 -471 ct 478 -448 484 -423 484 -395 ct 
484 -348 469 -308 439 -275 ct 409 -242 354 -226 276 -226 ct 133 -226 l  133 0 l 
60 0 l  p
133 -292 m  277 -292 l  324 -292 358 -300 378 -318 ct 398 -336 408 -361 408 -393 ct 
408 -416 402 -436 390 -453 ct 379 -469 363 -480 344 -485 ct 332 -489 309 -490 275 -490 ct 
133 -490 l  133 -292 l  p ef
830 -50 m  804 -28 780 -13 757 -4 ct 733 5 708 9 682 9 ct 637 9 603 -2 580 -23 ct 
556 -45 544 -73 544 -106 ct 544 -126 549 -144 557 -160 ct 566 -177 578 -190 593 -200 ct 
607 -209 624 -217 642 -222 ct 655 -226 675 -229 702 -232 ct 758 -239 798 -247 824 -256 ct 
824 -265 824 -271 824 -274 ct 824 -301 818 -321 805 -332 ct 788 -348 762 -355 727 -355 ct 
695 -355 672 -350 656 -339 ct 641 -327 630 -307 622 -279 ct 556 -288 l  562 -317 572 -340 586 -357 ct 
600 -375 620 -388 646 -398 ct 672 -407 703 -412 737 -412 ct 772 -412 800 -408 821 -400 ct 
843 -392 858 -382 868 -369 ct 879 -357 886 -342 890 -323 ct 892 -311 893 -290 893 -260 ct 
893 -169 l  893 -105 894 -65 897 -48 ct 900 -32 906 -16 915 0 ct 843 0 l  836 -14 832 -31 830 -50 ct 
p
824 -202 m  799 -192 762 -184 713 -176 ct 685 -172 665 -168 653 -163 ct 642 -158 633 -150 626 -141 ct 
620 -131 617 -120 617 -108 ct 617 -90 624 -75 637 -63 ct 651 -51 671 -45 698 -45 ct 
724 -45 748 -50 768 -62 ct 788 -73 803 -89 813 -109 ct 820 -124 824 -147 824 -177 ct 
824 -202 l  p ef
1262 -148 m  1329 -139 l  1321 -93 1303 -56 1273 -30 ct 1242 -4 1205 9 1161 9 ct 
1106 9 1062 -9 1029 -45 ct 995 -81 978 -133 978 -200 ct 978 -244 986 -282 1000 -314 ct 
1014 -347 1036 -371 1066 -388 ct 1095 -404 1127 -412 1162 -412 ct 1205 -412 1241 -401 1269 -379 ct 
1297 -357 1315 -325 1322 -285 ct 1256 -274 l  1250 -301 1239 -322 1223 -336 ct 
1206 -349 1187 -356 1164 -356 ct 1130 -356 1102 -344 1081 -319 ct 1059 -294 1048 -255 1048 -202 ct 
1048 -148 1059 -109 1079 -84 ct 1100 -59 1127 -47 1161 -47 ct 1187 -47 1210 -55 1228 -72 ct 
1246 -88 1257 -114 1262 -148 ct p ef
1390 0 m  1390 -556 l  1458 -556 l  1458 -239 l  1619 -403 l  1707 -403 l 
1554 -253 l  1723 0 l  1639 0 l  1506 -206 l  1458 -160 l  1458 0 l  1390 0 l 
p ef
2054 -130 m  2124 -121 l  2113 -80 2092 -48 2062 -25 ct 2032 -2 1994 9 1947 9 ct 
1888 9 1842 -9 1807 -45 ct 1773 -82 1755 -133 1755 -198 ct 1755 -266 1773 -319 1808 -356 ct 
1843 -393 1888 -412 1943 -412 ct 1997 -412 2041 -394 2075 -357 ct 2109 -320 2126 -269 2126 -202 ct 
2126 -198 2126 -192 2126 -184 ct 1826 -184 l  1828 -140 1841 -106 1863 -82 ct 
1886 -59 1914 -47 1948 -47 ct 1973 -47 1994 -54 2012 -67 ct 2029 -80 2043 -101 2054 -130 ct 
p
1830 -240 m  2054 -240 l  2051 -274 2043 -300 2029 -317 ct 2007 -343 1979 -356 1944 -356 ct 
1913 -356 1886 -345 1865 -324 ct 1844 -303 1832 -275 1830 -240 ct p ef
2359 -61 m  2369 -1 l  2350 3 2333 5 2317 5 ct 2293 5 2273 1 2260 -7 ct 2246 -15 2237 -25 2231 -38 ct 
2225 -50 2223 -77 2223 -118 ct 2223 -350 l  2173 -350 l  2173 -403 l  2223 -403 l 
2223 -503 l  2290 -544 l  2290 -403 l  2359 -403 l  2359 -350 l  2290 -350 l 
2290 -114 l  2290 -95 2292 -83 2294 -77 ct 2296 -71 2300 -67 2306 -64 ct 2311 -60 2319 -59 2329 -59 ct 
2337 -59 2347 -60 2359 -61 ct p ef
pom
0.000 c 13744 19246 m  13744 12696 l  13769 12696 l  13794 12696 l  13794 19246 l 
13769 19246 l  13744 19246 l  p ef
13769 12246 m  13582 12809 l  13957 12809 l  13769 12246 l  p ef
pum
13447 16932 t
89.9 r 0.222 c 456 -195 m  530 -177 l  514 -116 487 -70 447 -39 ct 407 -7 358 9 300 9 ct 
240 9 191 -3 154 -28 ct 116 -52 88 -87 68 -134 ct 48 -180 39 -230 39 -283 ct 39 -341 50 -391 72 -434 ct 
94 -477 125 -510 166 -532 ct 207 -555 252 -566 301 -566 ct 356 -566 403 -552 441 -524 ct 
479 -495 505 -455 520 -404 ct 448 -387 l  435 -427 416 -457 392 -475 ct 367 -494 336 -503 299 -503 ct 
257 -503 221 -493 192 -472 ct 164 -452 143 -424 132 -390 ct 120 -355 114 -320 114 -283 ct 
114 -236 121 -194 135 -159 ct 149 -124 170 -98 199 -80 ct 228 -63 260 -54 294 -54 ct 
335 -54 370 -66 398 -90 ct 427 -113 446 -149 456 -195 ct p ef
873 -50 m  847 -28 823 -13 800 -4 ct 776 5 751 9 725 9 ct 680 9 646 -2 623 -23 ct 
599 -45 587 -73 587 -106 ct 587 -126 592 -144 600 -160 ct 609 -177 621 -190 636 -200 ct 
650 -209 667 -217 685 -222 ct 698 -226 718 -229 745 -232 ct 801 -239 841 -247 867 -256 ct 
867 -265 867 -271 867 -274 ct 867 -301 861 -321 848 -332 ct 831 -348 805 -355 770 -355 ct 
738 -355 715 -350 699 -339 ct 684 -327 673 -307 665 -279 ct 599 -288 l  605 -317 615 -340 629 -357 ct 
643 -375 663 -388 689 -398 ct 715 -407 746 -412 780 -412 ct 815 -412 843 -408 864 -400 ct 
886 -392 901 -382 911 -369 ct 922 -357 929 -342 933 -323 ct 935 -311 936 -290 936 -260 ct 
936 -169 l  936 -105 937 -65 940 -48 ct 943 -32 949 -16 958 0 ct 886 0 l  879 -14 875 -31 873 -50 ct 
p
867 -202 m  842 -192 805 -184 756 -176 ct 728 -172 708 -168 696 -163 ct 685 -158 676 -150 669 -141 ct 
663 -131 660 -120 660 -108 ct 660 -90 667 -75 680 -63 ct 694 -51 714 -45 741 -45 ct 
767 -45 791 -50 811 -62 ct 831 -73 846 -89 856 -109 ct 863 -124 867 -147 867 -177 ct 
867 -202 l  p ef
1041 0 m  1041 -403 l  1103 -403 l  1103 -342 l  1118 -370 1133 -389 1146 -398 ct 
1159 -407 1174 -412 1190 -412 ct 1213 -412 1236 -405 1260 -390 ct 1237 -327 l 
1220 -337 1203 -341 1187 -341 ct 1172 -341 1158 -337 1146 -328 ct 1134 -319 1126 -307 1121 -291 ct 
1113 -266 1110 -240 1110 -211 ct 1110 0 l  1041 0 l  p ef
1299 0 m  1299 -403 l  1361 -403 l  1361 -342 l  1376 -370 1391 -389 1404 -398 ct 
1417 -407 1432 -412 1448 -412 ct 1471 -412 1494 -405 1518 -390 ct 1495 -327 l 
1478 -337 1461 -341 1445 -341 ct 1430 -341 1416 -337 1404 -328 ct 1392 -319 1384 -307 1379 -291 ct 
1371 -266 1368 -240 1368 -211 ct 1368 0 l  1299 0 l  p ef
1559 -477 m  1559 -556 l  1627 -556 l  1627 -477 l  1559 -477 l  p
1559 0 m  1559 -403 l  1627 -403 l  1627 0 l  1559 0 l  p ef
2008 -130 m  2078 -121 l  2067 -80 2046 -48 2016 -25 ct 1986 -2 1948 9 1901 9 ct 
1842 9 1796 -9 1761 -45 ct 1727 -82 1709 -133 1709 -198 ct 1709 -266 1727 -319 1762 -356 ct 
1797 -393 1842 -412 1897 -412 ct 1951 -412 1995 -394 2029 -357 ct 2063 -320 2080 -269 2080 -202 ct 
2080 -198 2080 -192 2080 -184 ct 1780 -184 l  1782 -140 1795 -106 1817 -82 ct 
1840 -59 1868 -47 1902 -47 ct 1927 -47 1948 -54 1966 -67 ct 1983 -80 1997 -101 2008 -130 ct 
p
1784 -240 m  2008 -240 l  2005 -274 1997 -300 1983 -317 ct 1961 -343 1933 -356 1898 -356 ct 
1867 -356 1840 -345 1819 -324 ct 1798 -303 1786 -275 1784 -240 ct p ef
2162 0 m  2162 -403 l  2224 -403 l  2224 -342 l  2239 -370 2254 -389 2267 -398 ct 
2280 -407 2295 -412 2311 -412 ct 2334 -412 2357 -405 2381 -390 ct 2358 -327 l 
2341 -337 2324 -341 2308 -341 ct 2293 -341 2279 -337 2267 -328 ct 2255 -319 2247 -307 2242 -291 ct 
2234 -266 2231 -240 2231 -211 ct 2231 0 l  2162 0 l  p ef
pom
gr
gs
0 0 m 18999 0 l 18999 27699 l 0 27699 l 0 0 l eoclip newpath
gr
gr
0 27700 t 
pom
count op_count sub {pop} repeat countdictstack dict_count sub {end} repeat b4_inc_state restore
%%PageTrailer
%%Trailer
%%EOF
