%!PS-Adobe-3.0 EPSF-3.0 
%%BoundingBox: 0 0 607 893
%%Pages: 0
%%Creator: Sun Microsystems, Inc.
%%Title: none
%%CreationDate: none
%%LanguageLevel: 2
%%EndComments
%%BeginProlog
%%BeginResource: procset SDRes-Prolog 1.0 0
/b4_inc_state save def
/dict_count countdictstack def
/op_count count 1 sub def
userdict begin
0 setgray 0 setlinecap 1 setlinewidth 0 setlinejoin 10 setmiterlimit[] 0 setdash newpath
/languagelevel where {pop languagelevel 1 ne {false setstrokeadjust false setoverprint} if} if
/bdef {bind def} bind def
/c {setrgbcolor} bdef
/l {neg lineto} bdef
/rl {neg rlineto} bdef
/lc {setlinecap} bdef
/lj {setlinejoin} bdef
/lw {setlinewidth} bdef
/ml {setmiterlimit} bdef
/ld {setdash} bdef
/m {neg moveto} bdef
/ct {6 2 roll neg 6 2 roll neg 6 2 roll neg curveto} bdef
/r {rotate} bdef
/t {neg translate} bdef
/s {scale} bdef
/sw {show} bdef
/gs {gsave} bdef
/gr {grestore} bdef
/f {findfont dup length dict begin
{1 index /FID ne {def} {pop pop} ifelse} forall /Encoding ISOLatin1Encoding def
currentdict end /NFont exch definefont pop /NFont findfont} bdef
/p {closepath} bdef
/sf {scalefont setfont} bdef
/ef {eofill}bdef
/pc {closepath stroke}bdef
/ps {stroke}bdef
/pum {matrix currentmatrix}bdef
/pom {setmatrix}bdef
/bs {/aString exch def /nXOfs exch def /nWidth exch def currentpoint nXOfs 0 rmoveto pum nWidth aString stringwidth pop div 1 scale aString show pom moveto} bdef
%%EndResource
%%EndProlog
%%BeginSetup
%%EndSetup
%%Page: 1 1
%%BeginPageSetup
%%EndPageSetup
pum
0.02836 0.02834 s 
0 -31500 t
/tm matrix currentmatrix def
gs
0 0 m 21399 0 l 21399 31499 l 0 31499 l 0 0 l eoclip newpath
gs
0 0 m 21399 0 l 21399 31499 l 0 31499 l 0 0 l eoclip newpath
0.402 0.402 0.402 c 4061 10596 m  4061 3505 l  4111 3505 l  4161 3505 l 
4161 10596 l  4111 10596 l  4061 10596 l  p ef
4111 2953 m  3881 3643 l  4341 3643 l  4111 2953 l  p ef
4111 10545 m  12517 10545 l  12517 10595 l  12517 10645 l  4111 10645 l 
4111 10595 l  4111 10545 l  p ef
13069 10595 m  12379 10365 l  12379 10825 l  13069 10595 l  p ef
5414 26035 m  5414 18944 l  5464 18944 l  5514 18944 l  5514 26035 l  5464 26035 l 
5414 26035 l  p ef
5464 18392 m  5234 19082 l  5694 19082 l  5464 18392 l  p ef
5464 25984 m  13870 25984 l  13870 26034 l  13870 26084 l  5464 26084 l 
5464 26034 l  5464 25984 l  p ef
14422 26034 m  13732 25804 l  13732 26264 l  14422 26034 l  p ef
0.003 0.003 0.003 c 5498 26071 m  2704 28637 l  2670 28601 l  2637 28564 l 
5430 25997 l  5464 26034 l  5498 26071 l  p ef
2264 28974 m  2928 28677 l  2617 28338 l  2264 28974 l  p ef
0.800 0.800 1.000 c 4001 27255 m  4001 23287 l  5323 21965 l  10369 21965 l 
10369 25933 l  9047 27255 l  4001 27255 l  p
4001 21965 m  4001 21965 l  p
10370 27256 m  10370 27256 l  p ef
100 lw 1 lj 0.003 0.003 0.003 c 4001 27255 m  4001 23287 l  5323 21965 l  10369 21965 l 
10369 25933 l  9047 27255 l  4001 27255 l  pc
4001 21965 m  4001 21965 l  pc
10370 27256 m  10370 27256 l  pc
0.839 0.839 1.000 c 4001 23287 m  5323 21965 l  10369 21965 l  9047 23287 l 
4001 23287 l  p
4001 21965 m  4001 21965 l  p
10370 27256 m  10370 27256 l  p ef
0.003 0.003 0.003 c 4001 23287 m  5323 21965 l  10369 21965 l  9047 23287 l 
4001 23287 l  pc
4001 21965 m  4001 21965 l  pc
10370 27256 m  10370 27256 l  pc
0.640 0.640 0.800 c 9047 27255 m  9047 23287 l  10369 21965 l  10369 25933 l 
9047 27255 l  p
4001 21965 m  4001 21965 l  p
10370 27256 m  10370 27256 l  p ef
0.003 0.003 0.003 c 9047 27255 m  9047 23287 l  10369 21965 l  10369 25933 l 
9047 27255 l  pc
4001 21965 m  4001 21965 l  pc
10370 27256 m  10370 27256 l  pc
0.800 0.800 1.000 c 6892 10458 m  4252 10458 l  4252 6170 l  9531 6170 l 
9531 10458 l  6892 10458 l  p ef
0 lw 0.003 0.003 0.003 c 6892 10458 m  4252 10458 l  4252 6170 l  9531 6170 l 
9531 10458 l  6892 10458 l  pc
100 lw 9052 13330 m  9052 15370 l  8000 15370 l  10622 16999 l  13245 15370 l 
12193 15370 l  12193 13330 l  9052 13330 l  pc
8000 13330 m  8000 13330 l  pc
13245 17000 m  13245 17000 l  pc
0 lw 15888 5236 m  11138 5236 l  11138 1736 l  20638 1736 l  20638 5236 l 
15888 5236 l  pc
pum
12485 3278 t
0.230 0.226 0.210 c 353 10 m  315 10 280 5 247 -5 ct 213 -15 184 -30 158 -52 ct 
133 -73 113 -99 98 -132 ct 84 -164 76 -202 76 -247 ct 76 -680 l  168 -680 l 
168 -255 l  168 -220 173 -191 182 -167 ct 191 -143 204 -123 220 -108 ct 237 -93 256 -82 279 -75 ct 
301 -68 325 -65 352 -65 ct 379 -65 403 -68 427 -75 ct 450 -83 471 -94 489 -109 ct 
506 -125 520 -145 530 -170 ct 541 -195 546 -225 546 -261 ct 546 -680 l  637 -680 l 
637 -256 l  637 -210 630 -171 615 -138 ct 600 -104 580 -77 554 -55 ct 528 -33 498 -17 463 -6 ct 
429 5 392 10 353 10 ct p ef
1169 -144 m  1169 -119 1165 -98 1155 -79 ct 1146 -59 1132 -43 1114 -30 ct 1096 -17 1074 -7 1047 0 ct 
1021 7 991 10 958 10 ct 927 10 900 8 876 3 ct 851 -2 830 -9 812 -19 ct 794 -30 778 -43 766 -60 ct 
753 -77 744 -98 739 -122 ct 815 -137 l  823 -109 838 -89 861 -76 ct 884 -63 916 -56 958 -56 ct 
976 -56 993 -57 1009 -60 ct 1025 -63 1038 -67 1049 -73 ct 1060 -80 1069 -88 1075 -98 ct 
1082 -109 1085 -122 1085 -137 ct 1085 -153 1081 -166 1074 -176 ct 1066 -186 1056 -195 1043 -201 ct 
1030 -208 1014 -214 995 -219 ct 976 -224 955 -230 933 -236 ct 912 -241 891 -247 871 -254 ct 
850 -261 832 -270 815 -281 ct 798 -292 785 -306 775 -322 ct 764 -338 759 -359 759 -384 ct 
759 -431 776 -468 810 -493 ct 844 -518 894 -530 958 -530 ct 1016 -530 1062 -520 1096 -500 ct 
1130 -479 1151 -447 1160 -402 ct 1082 -392 l  1079 -406 1074 -417 1066 -426 ct 
1058 -436 1049 -443 1038 -449 ct 1027 -454 1015 -458 1001 -461 ct 988 -463 973 -464 958 -464 ct 
919 -464 890 -458 872 -446 ct 853 -435 844 -417 844 -392 ct 844 -378 847 -367 854 -357 ct 
861 -348 871 -341 883 -334 ct 895 -328 910 -323 928 -318 ct 945 -313 964 -308 985 -303 ct 
999 -300 1013 -296 1027 -292 ct 1042 -288 1056 -283 1070 -277 ct 1083 -272 1096 -265 1108 -258 ct 
1120 -250 1131 -241 1140 -230 ct 1149 -220 1156 -207 1161 -193 ct 1167 -179 1169 -163 1169 -144 ct 
p ef
1358 -522 m  1358 -191 l  1358 -165 1360 -144 1364 -127 ct 1368 -110 1374 -96 1382 -86 ct 
1390 -75 1401 -68 1415 -64 ct 1429 -59 1446 -57 1466 -57 ct 1487 -57 1505 -61 1522 -68 ct 
1538 -75 1553 -86 1564 -99 ct 1576 -113 1585 -130 1591 -150 ct 1598 -170 1601 -193 1601 -219 ct 
1601 -522 l  1688 -522 l  1688 -111 l  1688 -100 1688 -89 1688 -77 ct 1688 -65 1689 -53 1689 -42 ct 
1689 -32 1690 -22 1690 -15 ct 1690 -7 1691 -2 1691 0 ct 1609 0 l  1609 -1 1608 -6 1608 -13 ct 
1608 -20 1607 -28 1607 -37 ct 1606 -46 1606 -56 1605 -65 ct 1605 -75 1605 -83 1605 -89 ct 
1604 -89 l  1595 -74 1586 -60 1576 -48 ct 1566 -36 1555 -25 1541 -17 ct 1528 -8 1513 -2 1496 3 ct 
1479 8 1459 10 1437 10 ct 1408 10 1383 6 1362 -1 ct 1341 -8 1324 -19 1310 -33 ct 
1297 -48 1287 -67 1281 -90 ct 1274 -114 1271 -141 1271 -174 ct 1271 -522 l  1358 -522 l 
p ef
1957 10 m  1904 10 1865 -4 1839 -32 ct 1812 -60 1799 -98 1799 -146 ct 1799 -181 1805 -209 1819 -231 ct 
1832 -253 1849 -271 1870 -283 ct 1891 -296 1915 -305 1942 -310 ct 1969 -314 1996 -317 2024 -317 ct 
2141 -317 l  2141 -346 l  2141 -367 2139 -386 2135 -401 ct 2130 -417 2123 -429 2114 -439 ct 
2105 -448 2093 -455 2079 -459 ct 2065 -464 2049 -466 2030 -466 ct 2013 -466 1998 -465 1984 -462 ct 
1971 -460 1959 -455 1949 -449 ct 1939 -443 1931 -434 1925 -424 ct 1919 -413 1915 -399 1913 -383 ct 
1822 -391 l  1825 -411 1831 -430 1840 -448 ct 1849 -465 1862 -480 1879 -492 ct 
1895 -505 1916 -515 1941 -522 ct 1966 -529 1996 -532 2032 -532 ct 2097 -532 2146 -517 2180 -487 ct 
2213 -457 2229 -413 2229 -356 ct 2229 -131 l  2229 -105 2233 -86 2239 -73 ct 
2246 -60 2259 -53 2278 -53 ct 2283 -53 2288 -54 2292 -54 ct 2297 -55 2302 -56 2306 -57 ct 
2306 -3 l  2296 0 2285 2 2274 3 ct 2263 4 2252 5 2239 5 ct 2223 5 2209 3 2197 -2 ct 
2185 -6 2176 -12 2169 -21 ct 2161 -30 2155 -41 2152 -54 ct 2148 -67 2145 -82 2144 -100 ct 
2141 -100 l  2132 -83 2122 -68 2111 -54 ct 2100 -41 2087 -29 2072 -20 ct 2057 -10 2040 -3 2022 2 ct 
2003 7 1981 10 1957 10 ct p
1977 -55 m  2004 -55 2028 -60 2049 -70 ct 2070 -80 2087 -93 2101 -109 ct 2114 -125 2125 -142 2131 -160 ct 
2138 -179 2141 -196 2141 -213 ct 2141 -256 l  2046 -256 l  2025 -256 2005 -255 1986 -252 ct 
1967 -249 1950 -244 1935 -236 ct 1921 -228 1910 -216 1901 -202 ct 1892 -187 1888 -168 1888 -144 ct 
1888 -116 1896 -94 1911 -78 ct 1926 -63 1948 -55 1977 -55 ct p ef
2374 0 m  2374 -716 l  2460 -716 l  2460 0 l  2374 0 l  p ef
3416 -187 m  3416 -159 3410 -132 3399 -108 ct 3388 -84 3371 -63 3348 -46 ct 
3324 -28 3295 -15 3260 -5 ct 3225 5 3183 10 3135 10 ct 3050 10 2984 -5 2937 -34 ct 
2890 -64 2860 -107 2847 -163 ct 2936 -181 l  2941 -163 2948 -147 2957 -132 ct 
2966 -118 2979 -105 2995 -95 ct 3011 -85 3030 -76 3054 -71 ct 3077 -65 3105 -62 3138 -62 ct 
3166 -62 3191 -64 3214 -69 ct 3236 -74 3256 -81 3272 -90 ct 3289 -100 3302 -113 3311 -128 ct 
3320 -143 3324 -161 3324 -183 ct 3324 -205 3319 -223 3309 -237 ct 3299 -251 3285 -262 3267 -271 ct 
3248 -280 3226 -288 3201 -294 ct 3176 -300 3147 -306 3117 -313 ct 3098 -318 3079 -322 3059 -327 ct 
3040 -332 3022 -338 3004 -345 ct 2987 -352 2970 -360 2955 -369 ct 2939 -379 2926 -390 2915 -403 ct 
2904 -416 2895 -431 2888 -448 ct 2882 -466 2879 -485 2879 -508 ct 2879 -540 2885 -568 2898 -591 ct 
2911 -614 2929 -633 2953 -648 ct 2976 -662 3003 -673 3035 -680 ct 3066 -687 3100 -690 3137 -690 ct 
3179 -690 3215 -687 3245 -680 ct 3275 -674 3300 -664 3321 -650 ct 3341 -637 3358 -621 3370 -601 ct 
3382 -582 3392 -559 3400 -534 ct 3309 -518 l  3305 -534 3298 -549 3289 -562 ct 
3281 -574 3270 -585 3256 -594 ct 3242 -603 3225 -609 3206 -614 ct 3186 -618 3163 -620 3136 -620 ct 
3104 -620 3078 -618 3056 -612 ct 3035 -606 3018 -599 3005 -589 ct 2992 -579 2983 -568 2977 -555 ct 
2971 -542 2968 -528 2968 -513 ct 2968 -493 2974 -476 2984 -463 ct 2994 -450 3008 -439 3025 -430 ct 
3042 -422 3062 -414 3085 -409 ct 3108 -403 3132 -397 3158 -391 ct 3179 -386 3200 -381 3221 -376 ct 
3241 -371 3261 -366 3280 -359 ct 3299 -352 3317 -344 3333 -334 ct 3350 -325 3364 -313 3377 -300 ct 
3389 -286 3398 -270 3405 -252 ct 3412 -234 3416 -212 3416 -187 ct p ef
3750 -1 m  3738 31 3726 59 3713 84 ct 3700 109 3686 131 3670 149 ct 3655 167 3637 180 3618 190 ct 
3598 199 3576 204 3551 204 ct 3540 204 3530 204 3521 204 ct 3511 204 3502 203 3491 200 ct 
3491 135 l  3497 136 3504 137 3512 137 ct 3520 137 3526 137 3532 137 ct 3557 137 3581 127 3603 108 ct 
3625 89 3644 59 3660 18 ct 3668 -3 l  3461 -523 l  3554 -523 l  3664 -234 l 
3667 -225 3671 -214 3676 -199 ct 3681 -185 3686 -170 3691 -156 ct 3696 -141 3701 -128 3705 -117 ct 
3708 -105 3711 -98 3711 -95 ct 3712 -98 3715 -105 3718 -116 ct 3722 -126 3726 -138 3731 -151 ct 
3736 -164 3740 -177 3745 -190 ct 3750 -203 3754 -215 3757 -224 ct 3859 -523 l 
3951 -523 l  3750 -1 l  p ef
4412 -144 m  4412 -119 4408 -98 4398 -79 ct 4389 -59 4375 -43 4357 -30 ct 4339 -17 4317 -7 4290 0 ct 
4264 7 4234 10 4201 10 ct 4170 10 4143 8 4119 3 ct 4094 -2 4073 -9 4055 -19 ct 
4037 -30 4021 -43 4009 -60 ct 3996 -77 3987 -98 3982 -122 ct 4058 -137 l  4066 -109 4081 -89 4104 -76 ct 
4127 -63 4159 -56 4201 -56 ct 4219 -56 4236 -57 4252 -60 ct 4268 -63 4281 -67 4292 -73 ct 
4303 -80 4312 -88 4318 -98 ct 4325 -109 4328 -122 4328 -137 ct 4328 -153 4324 -166 4317 -176 ct 
4309 -186 4299 -195 4286 -201 ct 4273 -208 4257 -214 4238 -219 ct 4219 -224 4198 -230 4176 -236 ct 
4155 -241 4134 -247 4114 -254 ct 4093 -261 4075 -270 4058 -281 ct 4041 -292 4028 -306 4018 -322 ct 
4007 -338 4002 -359 4002 -384 ct 4002 -431 4019 -468 4053 -493 ct 4087 -518 4137 -530 4201 -530 ct 
4259 -530 4305 -520 4339 -500 ct 4373 -479 4394 -447 4403 -402 ct 4325 -392 l 
4322 -406 4317 -417 4309 -426 ct 4301 -436 4292 -443 4281 -449 ct 4270 -454 4258 -458 4244 -461 ct 
4231 -463 4216 -464 4201 -464 ct 4162 -464 4133 -458 4115 -446 ct 4096 -435 4087 -417 4087 -392 ct 
4087 -378 4090 -367 4097 -357 ct 4104 -348 4114 -341 4126 -334 ct 4138 -328 4153 -323 4171 -318 ct 
4188 -313 4207 -308 4228 -303 ct 4242 -300 4256 -296 4270 -292 ct 4285 -288 4299 -283 4313 -277 ct 
4326 -272 4339 -265 4351 -258 ct 4363 -250 4374 -241 4383 -230 ct 4392 -220 4399 -207 4404 -193 ct 
4410 -179 4412 -163 4412 -144 ct p ef
4716 -4 m  4703 0 4690 3 4676 5 ct 4662 7 4646 8 4628 8 ct 4559 8 4524 -31 4524 -110 ct 
4524 -459 l  4464 -459 l  4464 -522 l  4528 -522 l  4553 -639 l  4611 -639 l 
4611 -522 l  4708 -522 l  4708 -459 l  4611 -459 l  4611 -129 l  4611 -104 4615 -86 4623 -76 ct 
4632 -66 4646 -61 4666 -61 ct 4674 -61 4683 -62 4690 -63 ct 4698 -64 4707 -66 4716 -68 ct 
4716 -4 l  p ef
4857 -242 m  4857 -215 4860 -190 4866 -167 ct 4871 -144 4880 -124 4892 -108 ct 
4903 -91 4918 -78 4937 -69 ct 4955 -60 4977 -55 5003 -55 ct 5040 -55 5071 -63 5093 -78 ct 
5116 -93 5131 -112 5139 -135 ct 5216 -114 l  5210 -99 5202 -85 5193 -70 ct 5183 -55 5170 -42 5153 -30 ct 
5137 -19 5116 -9 5092 -1 ct 5067 6 5038 10 5003 10 ct 4926 10 4867 -13 4827 -59 ct 
4786 -105 4766 -174 4766 -264 ct 4766 -313 4772 -355 4784 -389 ct 4797 -423 4813 -450 4834 -472 ct 
4856 -493 4880 -508 4909 -518 ct 4937 -527 4967 -532 4999 -532 ct 5043 -532 5080 -525 5109 -511 ct 
5139 -497 5162 -477 5180 -452 ct 5198 -427 5211 -398 5218 -364 ct 5226 -330 5230 -293 5230 -254 ct 
5230 -242 l  4857 -242 l  p
5140 -309 m  5135 -364 5121 -404 5098 -430 ct 5075 -455 5041 -468 4998 -468 ct 
4984 -468 4968 -465 4952 -461 ct 4937 -456 4922 -448 4908 -436 ct 4895 -424 4883 -408 4874 -387 ct 
4865 -367 4859 -341 4858 -309 ct 5140 -309 l  p ef
5646 0 m  5646 -331 l  5646 -357 5644 -378 5641 -395 ct 5637 -412 5632 -426 5625 -436 ct 
5617 -447 5607 -454 5595 -458 ct 5583 -463 5568 -465 5550 -465 ct 5532 -465 5515 -461 5500 -454 ct 
5485 -447 5473 -436 5462 -423 ct 5452 -409 5444 -392 5438 -372 ct 5433 -352 5430 -329 5430 -303 ct 
5430 0 l  5344 0 l  5344 -411 l  5344 -422 5343 -433 5343 -445 ct 5343 -457 5343 -469 5343 -480 ct 
5342 -490 5342 -500 5342 -507 ct 5341 -515 5341 -520 5341 -522 ct 5423 -522 l 
5423 -521 5423 -516 5424 -509 ct 5424 -502 5424 -494 5425 -485 ct 5425 -476 5426 -466 5426 -457 ct 
5426 -447 5426 -439 5426 -433 ct 5428 -433 l  5436 -448 5444 -462 5453 -474 ct 
5462 -486 5473 -497 5485 -505 ct 5497 -514 5511 -520 5526 -525 ct 5542 -530 5560 -532 5580 -532 ct 
5620 -532 5651 -524 5674 -508 ct 5697 -493 5713 -467 5722 -433 ct 5724 -433 l 
5731 -448 5740 -462 5750 -474 ct 5759 -486 5771 -497 5783 -505 ct 5796 -514 5811 -520 5827 -525 ct 
5843 -530 5861 -532 5882 -532 ct 5908 -532 5931 -528 5950 -521 ct 5969 -514 5985 -503 5997 -489 ct 
6009 -474 6018 -455 6024 -431 ct 6030 -408 6033 -380 6033 -348 ct 6033 0 l  5947 0 l 
5947 -331 l  5947 -357 5945 -378 5942 -395 ct 5939 -412 5934 -426 5926 -436 ct 
5918 -447 5909 -454 5896 -458 ct 5884 -463 5869 -465 5852 -465 ct 5833 -465 5817 -461 5802 -455 ct 
5787 -448 5774 -437 5764 -424 ct 5753 -410 5745 -393 5740 -373 ct 5734 -353 5731 -329 5731 -303 ct 
5731 0 l  5646 0 l  p ef
6478 -615 m  6439 -615 6405 -608 6376 -595 ct 6346 -583 6321 -564 6301 -540 ct 
6281 -517 6266 -488 6255 -454 ct 6245 -421 6240 -384 6240 -343 ct 6240 -302 6245 -265 6256 -231 ct 
6268 -197 6283 -167 6304 -143 ct 6325 -119 6350 -100 6380 -86 ct 6410 -73 6444 -66 6482 -66 ct 
6508 -66 6532 -69 6554 -76 ct 6576 -83 6595 -93 6613 -105 ct 6630 -118 6646 -133 6660 -150 ct 
6674 -167 6686 -186 6697 -207 ct 6772 -170 l  6760 -144 6745 -121 6727 -99 ct 
6709 -77 6687 -58 6663 -42 ct 6639 -26 6611 -13 6581 -4 ct 6550 5 6516 10 6478 10 ct 
6423 10 6374 1 6333 -16 ct 6292 -34 6257 -58 6229 -90 ct 6202 -121 6181 -158 6167 -201 ct 
6153 -245 6146 -292 6146 -343 ct 6146 -396 6153 -444 6168 -487 ct 6183 -530 6204 -566 6232 -596 ct 
6260 -626 6295 -649 6336 -666 ct 6377 -682 6424 -690 6477 -690 ct 6549 -690 6610 -676 6659 -648 ct 
6707 -619 6743 -577 6766 -522 ct 6678 -493 l  6672 -509 6663 -524 6652 -539 ct 
6641 -553 6628 -566 6611 -578 ct 6595 -589 6576 -598 6554 -605 ct 6532 -611 6506 -615 6478 -615 ct 
p ef
pom
pum
12811 4379 t
666 -347 m  666 -290 658 -240 641 -197 ct 624 -154 600 -118 571 -89 ct 541 -59 506 -37 466 -22 ct 
425 -7 382 0 335 0 ct 81 0 l  81 -680 l  306 -680 l  358 -680 407 -673 451 -660 ct 
495 -647 533 -627 565 -600 ct 597 -573 622 -538 639 -497 ct 657 -455 666 -405 666 -347 ct 
p
574 -347 m  574 -393 567 -432 554 -465 ct 541 -498 522 -524 498 -545 ct 475 -566 446 -582 413 -591 ct 
380 -601 343 -606 304 -606 ct 173 -606 l  173 -74 l  325 -74 l  360 -74 393 -80 424 -91 ct 
454 -103 480 -120 503 -143 ct 525 -166 542 -194 555 -228 ct 567 -262 574 -302 574 -347 ct 
p ef
844 -242 m  844 -215 847 -190 853 -167 ct 858 -144 867 -124 879 -108 ct 890 -91 905 -78 924 -69 ct 
942 -60 964 -55 990 -55 ct 1027 -55 1058 -63 1080 -78 ct 1103 -93 1118 -112 1126 -135 ct 
1203 -114 l  1197 -99 1189 -85 1180 -70 ct 1170 -55 1157 -42 1140 -30 ct 1124 -19 1103 -9 1079 -1 ct 
1054 6 1025 10 990 10 ct 913 10 854 -13 814 -59 ct 773 -105 753 -174 753 -264 ct 
753 -313 759 -355 771 -389 ct 784 -423 800 -450 821 -472 ct 843 -493 867 -508 896 -518 ct 
924 -527 954 -532 986 -532 ct 1030 -532 1067 -525 1096 -511 ct 1126 -497 1149 -477 1167 -452 ct 
1185 -427 1198 -398 1205 -364 ct 1213 -330 1217 -293 1217 -254 ct 1217 -242 l 
844 -242 l  p
1127 -309 m  1122 -364 1108 -404 1085 -430 ct 1062 -455 1028 -468 985 -468 ct 
971 -468 955 -465 939 -461 ct 924 -456 909 -448 895 -436 ct 882 -424 870 -408 861 -387 ct 
852 -367 846 -341 845 -309 ct 1127 -309 l  p ef
1720 -144 m  1720 -119 1716 -98 1706 -79 ct 1697 -59 1683 -43 1665 -30 ct 1647 -17 1625 -7 1598 0 ct 
1572 7 1542 10 1509 10 ct 1478 10 1451 8 1427 3 ct 1402 -2 1381 -9 1363 -19 ct 
1345 -30 1329 -43 1317 -60 ct 1304 -77 1295 -98 1290 -122 ct 1366 -137 l  1374 -109 1389 -89 1412 -76 ct 
1435 -63 1467 -56 1509 -56 ct 1527 -56 1544 -57 1560 -60 ct 1576 -63 1589 -67 1600 -73 ct 
1611 -80 1620 -88 1626 -98 ct 1633 -109 1636 -122 1636 -137 ct 1636 -153 1632 -166 1625 -176 ct 
1617 -186 1607 -195 1594 -201 ct 1581 -208 1565 -214 1546 -219 ct 1527 -224 1506 -230 1484 -236 ct 
1463 -241 1442 -247 1422 -254 ct 1401 -261 1383 -270 1366 -281 ct 1349 -292 1336 -306 1326 -322 ct 
1315 -338 1310 -359 1310 -384 ct 1310 -431 1327 -468 1361 -493 ct 1395 -518 1445 -530 1509 -530 ct 
1567 -530 1613 -520 1647 -500 ct 1681 -479 1702 -447 1711 -402 ct 1633 -392 l 
1630 -406 1625 -417 1617 -426 ct 1609 -436 1600 -443 1589 -449 ct 1578 -454 1566 -458 1552 -461 ct 
1539 -463 1524 -464 1509 -464 ct 1470 -464 1441 -458 1423 -446 ct 1404 -435 1395 -417 1395 -392 ct 
1395 -378 1398 -367 1405 -357 ct 1412 -348 1422 -341 1434 -334 ct 1446 -328 1461 -323 1479 -318 ct 
1496 -313 1515 -308 1536 -303 ct 1550 -300 1564 -296 1578 -292 ct 1593 -288 1607 -283 1621 -277 ct 
1634 -272 1647 -265 1659 -258 ct 1671 -250 1682 -241 1691 -230 ct 1700 -220 1707 -207 1712 -193 ct 
1718 -179 1720 -163 1720 -144 ct p ef
1823 -633 m  1823 -716 l  1910 -716 l  1910 -633 l  1823 -633 l  p
1823 0 m  1823 -522 l  1910 -522 l  1910 0 l  1823 0 l  p ef
2241 205 m  2211 205 2185 202 2162 196 ct 2139 190 2119 181 2102 170 ct 2086 158 2073 145 2062 129 ct 
2052 113 2045 96 2040 76 ct 2128 64 l  2133 88 2146 106 2166 119 ct 2186 132 2212 139 2244 139 ct 
2263 139 2281 136 2297 131 ct 2313 125 2327 116 2338 104 ct 2350 92 2358 77 2364 57 ct 
2370 38 2374 15 2374 -13 ct 2374 -97 l  2373 -97 l  2366 -84 2358 -71 2349 -59 ct 
2339 -47 2328 -36 2314 -27 ct 2300 -18 2284 -10 2266 -4 ct 2248 1 2228 4 2205 4 ct 
2172 4 2143 -2 2120 -13 ct 2096 -24 2077 -40 2062 -63 ct 2047 -85 2036 -112 2029 -145 ct 
2022 -179 2018 -217 2018 -260 ct 2018 -302 2022 -340 2029 -373 ct 2036 -407 2047 -435 2063 -458 ct 
2078 -482 2098 -500 2123 -512 ct 2148 -525 2179 -531 2214 -531 ct 2251 -531 2283 -522 2311 -505 ct 
2338 -488 2359 -464 2374 -433 ct 2375 -433 l  2375 -441 2375 -450 2375 -460 ct 
2376 -470 2376 -480 2377 -488 ct 2377 -497 2378 -505 2378 -511 ct 2379 -518 2380 -522 2380 -522 ct 
2463 -522 l  2462 -520 2462 -515 2462 -508 ct 2462 -501 2461 -493 2461 -483 ct 
2461 -473 2460 -463 2460 -451 ct 2460 -439 2460 -427 2460 -414 ct 2460 -15 l 
2460 58 2442 113 2406 150 ct 2370 187 2315 205 2241 205 ct p
2374 -261 m  2374 -298 2370 -329 2362 -355 ct 2354 -381 2343 -402 2331 -418 ct 
2318 -435 2303 -447 2286 -454 ct 2270 -462 2253 -466 2236 -466 ct 2213 -466 2194 -462 2178 -454 ct 
2162 -447 2149 -435 2139 -418 ct 2128 -401 2121 -380 2116 -354 ct 2111 -328 2108 -297 2108 -261 ct 
2108 -223 2111 -192 2116 -166 ct 2121 -141 2128 -120 2139 -104 ct 2149 -88 2162 -77 2178 -70 ct 
2193 -64 2212 -60 2234 -60 ct 2252 -60 2268 -64 2285 -71 ct 2302 -79 2316 -90 2330 -107 ct 
2343 -123 2353 -143 2361 -169 ct 2370 -194 2374 -225 2374 -261 ct p ef
2925 0 m  2925 -331 l  2925 -357 2923 -378 2919 -395 ct 2916 -412 2910 -426 2901 -436 ct 
2893 -447 2882 -454 2868 -458 ct 2855 -463 2838 -465 2817 -465 ct 2797 -465 2778 -461 2762 -454 ct 
2745 -447 2731 -436 2719 -423 ct 2708 -409 2698 -392 2692 -372 ct 2686 -352 2682 -329 2682 -303 ct 
2682 0 l  2596 0 l  2596 -411 l  2596 -422 2595 -433 2595 -445 ct 2595 -457 2595 -469 2595 -480 ct 
2594 -490 2594 -500 2594 -507 ct 2593 -515 2593 -520 2593 -522 ct 2675 -522 l 
2675 -521 2675 -516 2676 -509 ct 2676 -502 2676 -494 2677 -485 ct 2677 -476 2678 -466 2678 -457 ct 
2678 -447 2678 -439 2678 -433 ct 2680 -433 l  2688 -448 2697 -462 2707 -474 ct 
2717 -486 2729 -497 2742 -505 ct 2755 -514 2770 -520 2788 -525 ct 2805 -530 2824 -532 2847 -532 ct 
2876 -532 2901 -528 2922 -521 ct 2943 -514 2960 -503 2973 -489 ct 2987 -474 2997 -455 3003 -431 ct 
3009 -408 3012 -380 3012 -348 ct 3012 0 l  2925 0 l  p ef
3967 -187 m  3967 -159 3961 -132 3950 -108 ct 3939 -84 3922 -63 3899 -46 ct 
3875 -28 3846 -15 3811 -5 ct 3776 5 3734 10 3686 10 ct 3601 10 3535 -5 3488 -34 ct 
3441 -64 3411 -107 3398 -163 ct 3487 -181 l  3492 -163 3499 -147 3508 -132 ct 
3517 -118 3530 -105 3546 -95 ct 3562 -85 3581 -76 3605 -71 ct 3628 -65 3656 -62 3689 -62 ct 
3717 -62 3742 -64 3765 -69 ct 3787 -74 3807 -81 3823 -90 ct 3840 -100 3853 -113 3862 -128 ct 
3871 -143 3875 -161 3875 -183 ct 3875 -205 3870 -223 3860 -237 ct 3850 -251 3836 -262 3818 -271 ct 
3799 -280 3777 -288 3752 -294 ct 3727 -300 3698 -306 3668 -313 ct 3649 -318 3630 -322 3610 -327 ct 
3591 -332 3573 -338 3555 -345 ct 3538 -352 3521 -360 3506 -369 ct 3490 -379 3477 -390 3466 -403 ct 
3455 -416 3446 -431 3439 -448 ct 3433 -466 3430 -485 3430 -508 ct 3430 -540 3436 -568 3449 -591 ct 
3462 -614 3480 -633 3504 -648 ct 3527 -662 3554 -673 3586 -680 ct 3617 -687 3651 -690 3688 -690 ct 
3730 -690 3766 -687 3796 -680 ct 3826 -674 3851 -664 3872 -650 ct 3892 -637 3909 -621 3921 -601 ct 
3933 -582 3943 -559 3951 -534 ct 3860 -518 l  3856 -534 3849 -549 3840 -562 ct 
3832 -574 3821 -585 3807 -594 ct 3793 -603 3776 -609 3757 -614 ct 3737 -618 3714 -620 3687 -620 ct 
3655 -620 3629 -618 3607 -612 ct 3586 -606 3569 -599 3556 -589 ct 3543 -579 3534 -568 3528 -555 ct 
3522 -542 3519 -528 3519 -513 ct 3519 -493 3525 -476 3535 -463 ct 3545 -450 3559 -439 3576 -430 ct 
3593 -422 3613 -414 3636 -409 ct 3659 -403 3683 -397 3709 -391 ct 3730 -386 3751 -381 3772 -376 ct 
3792 -371 3812 -366 3831 -359 ct 3850 -352 3868 -344 3884 -334 ct 3901 -325 3915 -313 3928 -300 ct 
3940 -286 3949 -270 3956 -252 ct 3963 -234 3967 -212 3967 -187 ct p ef
4517 -264 m  4517 -224 4514 -188 4507 -154 ct 4501 -121 4490 -92 4475 -68 ct 
4460 -44 4441 -25 4416 -11 ct 4391 2 4361 9 4325 9 ct 4288 9 4255 2 4227 -12 ct 
4199 -26 4178 -49 4163 -82 ct 4160 -82 l  4161 -81 4161 -78 4161 -73 ct 4161 -68 4162 -61 4162 -54 ct 
4162 -46 4162 -37 4162 -28 ct 4162 -18 4162 -9 4162 1 ct 4162 205 l  4076 205 l 
4076 -416 l  4076 -428 4076 -440 4075 -452 ct 4075 -464 4075 -474 4075 -484 ct 
4074 -493 4074 -501 4074 -508 ct 4073 -515 4073 -520 4073 -523 ct 4157 -523 l 
4157 -522 4157 -518 4158 -512 ct 4158 -507 4159 -500 4159 -491 ct 4160 -483 4160 -475 4161 -465 ct 
4161 -456 4161 -447 4161 -439 ct 4163 -439 l  4171 -456 4181 -470 4191 -482 ct 
4201 -493 4213 -503 4226 -511 ct 4239 -518 4254 -524 4270 -527 ct 4286 -530 4305 -532 4325 -532 ct 
4361 -532 4391 -526 4416 -513 ct 4441 -500 4460 -482 4475 -458 ct 4490 -435 4501 -407 4507 -374 ct 
4514 -341 4517 -304 4517 -264 ct p
4426 -262 m  4426 -294 4424 -323 4420 -348 ct 4416 -373 4409 -394 4400 -412 ct 
4391 -429 4378 -442 4362 -451 ct 4346 -460 4327 -465 4303 -465 ct 4284 -465 4265 -462 4248 -457 ct 
4231 -451 4216 -441 4204 -425 ct 4191 -410 4181 -389 4174 -361 ct 4166 -334 4162 -299 4162 -255 ct 
4162 -218 4165 -187 4172 -161 ct 4178 -136 4187 -115 4198 -99 ct 4210 -84 4225 -72 4242 -65 ct 
4259 -58 4279 -55 4302 -55 ct 4326 -55 4346 -60 4362 -69 ct 4378 -78 4391 -92 4400 -110 ct 
4409 -127 4416 -149 4420 -175 ct 4424 -200 4426 -229 4426 -262 ct p ef
4759 10 m  4706 10 4667 -4 4641 -32 ct 4614 -60 4601 -98 4601 -146 ct 4601 -181 4607 -209 4621 -231 ct 
4634 -253 4651 -271 4672 -283 ct 4693 -296 4717 -305 4744 -310 ct 4771 -314 4798 -317 4826 -317 ct 
4943 -317 l  4943 -346 l  4943 -367 4941 -386 4937 -401 ct 4932 -417 4925 -429 4916 -439 ct 
4907 -448 4895 -455 4881 -459 ct 4867 -464 4851 -466 4832 -466 ct 4815 -466 4800 -465 4786 -462 ct 
4773 -460 4761 -455 4751 -449 ct 4741 -443 4733 -434 4727 -424 ct 4721 -413 4717 -399 4715 -383 ct 
4624 -391 l  4627 -411 4633 -430 4642 -448 ct 4651 -465 4664 -480 4681 -492 ct 
4697 -505 4718 -515 4743 -522 ct 4768 -529 4798 -532 4834 -532 ct 4899 -532 4948 -517 4982 -487 ct 
5015 -457 5031 -413 5031 -356 ct 5031 -131 l  5031 -105 5035 -86 5041 -73 ct 
5048 -60 5061 -53 5080 -53 ct 5085 -53 5090 -54 5094 -54 ct 5099 -55 5104 -56 5108 -57 ct 
5108 -3 l  5098 0 5087 2 5076 3 ct 5065 4 5054 5 5041 5 ct 5025 5 5011 3 4999 -2 ct 
4987 -6 4978 -12 4971 -21 ct 4963 -30 4957 -41 4954 -54 ct 4950 -67 4947 -82 4946 -100 ct 
4943 -100 l  4934 -83 4924 -68 4913 -54 ct 4902 -41 4889 -29 4874 -20 ct 4859 -10 4842 -3 4824 2 ct 
4805 7 4783 10 4759 10 ct p
4779 -55 m  4806 -55 4830 -60 4851 -70 ct 4872 -80 4889 -93 4903 -109 ct 4916 -125 4927 -142 4933 -160 ct 
4940 -179 4943 -196 4943 -213 ct 4943 -256 l  4848 -256 l  4827 -256 4807 -255 4788 -252 ct 
4769 -249 4752 -244 4737 -236 ct 4723 -228 4712 -216 4703 -202 ct 4694 -187 4690 -168 4690 -144 ct 
4690 -116 4698 -94 4713 -78 ct 4728 -63 4750 -55 4779 -55 ct p ef
5243 -263 m  5243 -233 5245 -206 5249 -181 ct 5254 -156 5261 -134 5271 -116 ct 
5281 -98 5295 -84 5312 -74 ct 5329 -64 5350 -59 5374 -59 ct 5405 -59 5431 -67 5452 -83 ct 
5473 -99 5485 -124 5490 -158 ct 5578 -158 l  5575 -136 5569 -115 5559 -95 ct 
5549 -74 5536 -57 5520 -41 ct 5503 -26 5483 -13 5459 -4 ct 5435 5 5408 10 5377 10 ct 
5336 10 5301 3 5273 -11 ct 5244 -25 5221 -44 5203 -68 ct 5185 -92 5172 -121 5164 -154 ct 
5156 -187 5152 -223 5152 -261 ct 5152 -297 5155 -328 5161 -354 ct 5166 -381 5175 -405 5185 -425 ct 
5195 -445 5208 -462 5222 -476 ct 5236 -489 5251 -500 5268 -509 ct 5285 -517 5302 -523 5320 -526 ct 
5339 -530 5357 -532 5376 -532 ct 5405 -532 5431 -528 5454 -520 ct 5477 -512 5497 -501 5513 -487 ct 
5530 -473 5543 -456 5553 -437 ct 5564 -418 5571 -398 5575 -376 ct 5486 -369 l 
5481 -398 5470 -421 5452 -438 ct 5433 -455 5407 -464 5373 -464 ct 5349 -464 5328 -460 5311 -452 ct 
5295 -443 5281 -431 5271 -414 ct 5261 -398 5254 -377 5249 -352 ct 5245 -327 5243 -297 5243 -263 ct 
p ef
5738 -242 m  5738 -215 5741 -190 5747 -167 ct 5752 -144 5761 -124 5773 -108 ct 
5784 -91 5799 -78 5818 -69 ct 5836 -60 5858 -55 5884 -55 ct 5921 -55 5952 -63 5974 -78 ct 
5997 -93 6012 -112 6020 -135 ct 6097 -114 l  6091 -99 6083 -85 6074 -70 ct 6064 -55 6051 -42 6034 -30 ct 
6018 -19 5997 -9 5973 -1 ct 5948 6 5919 10 5884 10 ct 5807 10 5748 -13 5708 -59 ct 
5667 -105 5647 -174 5647 -264 ct 5647 -313 5653 -355 5665 -389 ct 5678 -423 5694 -450 5715 -472 ct 
5737 -493 5761 -508 5790 -518 ct 5818 -527 5848 -532 5880 -532 ct 5924 -532 5961 -525 5990 -511 ct 
6020 -497 6043 -477 6061 -452 ct 6079 -427 6092 -398 6099 -364 ct 6107 -330 6111 -293 6111 -254 ct 
6111 -242 l  5738 -242 l  p
6021 -309 m  6016 -364 6002 -404 5979 -430 ct 5956 -455 5922 -468 5879 -468 ct 
5865 -468 5849 -465 5833 -461 ct 5818 -456 5803 -448 5789 -436 ct 5776 -424 5764 -408 5755 -387 ct 
5746 -367 5740 -341 5739 -309 ct 6021 -309 l  p ef
pom
50 lw 0.003 0.003 0.003 c 15803 22362 m  11106 22362 l  11106 18556 l  20500 18556 l 
20500 22362 l  15803 22362 l  pc
pum
11432 20251 t
0.230 0.226 0.210 c 614 -187 m  614 -159 608 -132 597 -108 ct 586 -84 569 -63 546 -46 ct 
522 -28 493 -15 458 -5 ct 423 5 381 10 333 10 ct 248 10 182 -5 135 -34 ct 88 -64 58 -107 45 -163 ct 
134 -181 l  139 -163 146 -147 155 -132 ct 164 -118 177 -105 193 -95 ct 209 -85 228 -76 252 -71 ct 
275 -65 303 -62 336 -62 ct 364 -62 389 -64 412 -69 ct 434 -74 454 -81 470 -90 ct 
487 -100 500 -113 509 -128 ct 518 -143 522 -161 522 -183 ct 522 -205 517 -223 507 -237 ct 
497 -251 483 -262 465 -271 ct 446 -280 424 -288 399 -294 ct 374 -300 345 -306 315 -313 ct 
296 -318 277 -322 257 -327 ct 238 -332 220 -338 202 -345 ct 185 -352 168 -360 153 -369 ct 
137 -379 124 -390 113 -403 ct 102 -416 93 -431 86 -448 ct 80 -466 77 -485 77 -508 ct 
77 -540 83 -568 96 -591 ct 109 -614 127 -633 151 -648 ct 174 -662 201 -673 233 -680 ct 
264 -687 298 -690 335 -690 ct 377 -690 413 -687 443 -680 ct 473 -674 498 -664 519 -650 ct 
539 -637 556 -621 568 -601 ct 580 -582 590 -559 598 -534 ct 507 -518 l  503 -534 496 -549 487 -562 ct 
479 -574 468 -585 454 -594 ct 440 -603 423 -609 404 -614 ct 384 -618 361 -620 334 -620 ct 
302 -620 276 -618 254 -612 ct 233 -606 216 -599 203 -589 ct 190 -579 181 -568 175 -555 ct 
169 -542 166 -528 166 -513 ct 166 -493 172 -476 182 -463 ct 192 -450 206 -439 223 -430 ct 
240 -422 260 -414 283 -409 ct 306 -403 330 -397 356 -391 ct 377 -386 398 -381 419 -376 ct 
439 -371 459 -366 478 -359 ct 497 -352 515 -344 531 -334 ct 548 -325 562 -313 575 -300 ct 
587 -286 596 -270 603 -252 ct 610 -234 614 -212 614 -187 ct p ef
947 -1 m  935 31 923 59 910 84 ct 897 109 883 131 867 149 ct 852 167 834 180 815 190 ct 
795 199 773 204 748 204 ct 737 204 727 204 718 204 ct 708 204 699 203 688 200 ct 
688 135 l  694 136 701 137 709 137 ct 717 137 723 137 729 137 ct 754 137 778 127 800 108 ct 
822 89 841 59 857 18 ct 865 -3 l  658 -523 l  751 -523 l  861 -234 l  864 -225 868 -214 873 -199 ct 
878 -185 883 -170 888 -156 ct 893 -141 898 -128 902 -117 ct 905 -105 908 -98 908 -95 ct 
909 -98 912 -105 915 -116 ct 919 -126 923 -138 928 -151 ct 933 -164 937 -177 942 -190 ct 
947 -203 951 -215 954 -224 ct 1056 -523 l  1148 -523 l  947 -1 l  p ef
1609 -144 m  1609 -119 1605 -98 1595 -79 ct 1586 -59 1572 -43 1554 -30 ct 1536 -17 1514 -7 1487 0 ct 
1461 7 1431 10 1398 10 ct 1367 10 1340 8 1316 3 ct 1291 -2 1270 -9 1252 -19 ct 
1234 -30 1218 -43 1206 -60 ct 1193 -77 1184 -98 1179 -122 ct 1255 -137 l  1263 -109 1278 -89 1301 -76 ct 
1324 -63 1356 -56 1398 -56 ct 1416 -56 1433 -57 1449 -60 ct 1465 -63 1478 -67 1489 -73 ct 
1500 -80 1509 -88 1515 -98 ct 1522 -109 1525 -122 1525 -137 ct 1525 -153 1521 -166 1514 -176 ct 
1506 -186 1496 -195 1483 -201 ct 1470 -208 1454 -214 1435 -219 ct 1416 -224 1395 -230 1373 -236 ct 
1352 -241 1331 -247 1311 -254 ct 1290 -261 1272 -270 1255 -281 ct 1238 -292 1225 -306 1215 -322 ct 
1204 -338 1199 -359 1199 -384 ct 1199 -431 1216 -468 1250 -493 ct 1284 -518 1334 -530 1398 -530 ct 
1456 -530 1502 -520 1536 -500 ct 1570 -479 1591 -447 1600 -402 ct 1522 -392 l 
1519 -406 1514 -417 1506 -426 ct 1498 -436 1489 -443 1478 -449 ct 1467 -454 1455 -458 1441 -461 ct 
1428 -463 1413 -464 1398 -464 ct 1359 -464 1330 -458 1312 -446 ct 1293 -435 1284 -417 1284 -392 ct 
1284 -378 1287 -367 1294 -357 ct 1301 -348 1311 -341 1323 -334 ct 1335 -328 1350 -323 1368 -318 ct 
1385 -313 1404 -308 1425 -303 ct 1439 -300 1453 -296 1467 -292 ct 1482 -288 1496 -283 1510 -277 ct 
1523 -272 1536 -265 1548 -258 ct 1560 -250 1571 -241 1580 -230 ct 1589 -220 1596 -207 1601 -193 ct 
1607 -179 1609 -163 1609 -144 ct p ef
1914 -4 m  1901 0 1888 3 1874 5 ct 1860 7 1844 8 1826 8 ct 1757 8 1722 -31 1722 -110 ct 
1722 -459 l  1662 -459 l  1662 -522 l  1726 -522 l  1751 -639 l  1809 -639 l 
1809 -522 l  1906 -522 l  1906 -459 l  1809 -459 l  1809 -129 l  1809 -104 1813 -86 1821 -76 ct 
1830 -66 1844 -61 1864 -61 ct 1872 -61 1881 -62 1888 -63 ct 1896 -64 1905 -66 1914 -68 ct 
1914 -4 l  p ef
2055 -242 m  2055 -215 2058 -190 2064 -167 ct 2069 -144 2078 -124 2090 -108 ct 
2101 -91 2116 -78 2135 -69 ct 2153 -60 2175 -55 2201 -55 ct 2238 -55 2269 -63 2291 -78 ct 
2314 -93 2329 -112 2337 -135 ct 2414 -114 l  2408 -99 2400 -85 2391 -70 ct 2381 -55 2368 -42 2351 -30 ct 
2335 -19 2314 -9 2290 -1 ct 2265 6 2236 10 2201 10 ct 2124 10 2065 -13 2025 -59 ct 
1984 -105 1964 -174 1964 -264 ct 1964 -313 1970 -355 1982 -389 ct 1995 -423 2011 -450 2032 -472 ct 
2054 -493 2078 -508 2107 -518 ct 2135 -527 2165 -532 2197 -532 ct 2241 -532 2278 -525 2307 -511 ct 
2337 -497 2360 -477 2378 -452 ct 2396 -427 2409 -398 2416 -364 ct 2424 -330 2428 -293 2428 -254 ct 
2428 -242 l  2055 -242 l  p
2338 -309 m  2333 -364 2319 -404 2296 -430 ct 2273 -455 2239 -468 2196 -468 ct 
2182 -468 2166 -465 2150 -461 ct 2135 -456 2120 -448 2106 -436 ct 2093 -424 2081 -408 2072 -387 ct 
2063 -367 2057 -341 2056 -309 ct 2338 -309 l  p ef
2843 0 m  2843 -331 l  2843 -357 2841 -378 2838 -395 ct 2834 -412 2829 -426 2822 -436 ct 
2814 -447 2804 -454 2792 -458 ct 2780 -463 2765 -465 2747 -465 ct 2729 -465 2712 -461 2697 -454 ct 
2682 -447 2670 -436 2659 -423 ct 2649 -409 2641 -392 2635 -372 ct 2630 -352 2627 -329 2627 -303 ct 
2627 0 l  2541 0 l  2541 -411 l  2541 -422 2540 -433 2540 -445 ct 2540 -457 2540 -469 2540 -480 ct 
2539 -490 2539 -500 2539 -507 ct 2538 -515 2538 -520 2538 -522 ct 2620 -522 l 
2620 -521 2620 -516 2621 -509 ct 2621 -502 2621 -494 2622 -485 ct 2622 -476 2623 -466 2623 -457 ct 
2623 -447 2623 -439 2623 -433 ct 2625 -433 l  2633 -448 2641 -462 2650 -474 ct 
2659 -486 2670 -497 2682 -505 ct 2694 -514 2708 -520 2723 -525 ct 2739 -530 2757 -532 2777 -532 ct 
2817 -532 2848 -524 2871 -508 ct 2894 -493 2910 -467 2919 -433 ct 2921 -433 l 
2928 -448 2937 -462 2947 -474 ct 2956 -486 2968 -497 2980 -505 ct 2993 -514 3008 -520 3024 -525 ct 
3040 -530 3058 -532 3079 -532 ct 3105 -532 3128 -528 3147 -521 ct 3166 -514 3182 -503 3194 -489 ct 
3206 -474 3215 -455 3221 -431 ct 3227 -408 3230 -380 3230 -348 ct 3230 0 l  3144 0 l 
3144 -331 l  3144 -357 3142 -378 3139 -395 ct 3136 -412 3131 -426 3123 -436 ct 
3115 -447 3106 -454 3093 -458 ct 3081 -463 3066 -465 3049 -465 ct 3030 -465 3014 -461 2999 -455 ct 
2984 -448 2971 -437 2961 -424 ct 2950 -410 2942 -393 2937 -373 ct 2931 -353 2928 -329 2928 -303 ct 
2928 0 l  2843 0 l  p ef
3676 -615 m  3637 -615 3603 -608 3574 -595 ct 3544 -583 3519 -564 3499 -540 ct 
3479 -517 3464 -488 3453 -454 ct 3443 -421 3438 -384 3438 -343 ct 3438 -302 3443 -265 3454 -231 ct 
3466 -197 3481 -167 3502 -143 ct 3523 -119 3548 -100 3578 -86 ct 3608 -73 3642 -66 3680 -66 ct 
3706 -66 3730 -69 3752 -76 ct 3774 -83 3793 -93 3811 -105 ct 3828 -118 3844 -133 3858 -150 ct 
3872 -167 3884 -186 3895 -207 ct 3970 -170 l  3958 -144 3943 -121 3925 -99 ct 
3907 -77 3885 -58 3861 -42 ct 3837 -26 3809 -13 3779 -4 ct 3748 5 3714 10 3676 10 ct 
3621 10 3572 1 3531 -16 ct 3490 -34 3455 -58 3427 -90 ct 3400 -121 3379 -158 3365 -201 ct 
3351 -245 3344 -292 3344 -343 ct 3344 -396 3351 -444 3366 -487 ct 3381 -530 3402 -566 3430 -596 ct 
3458 -626 3493 -649 3534 -666 ct 3575 -682 3622 -690 3675 -690 ct 3747 -690 3808 -676 3857 -648 ct 
3905 -619 3941 -577 3964 -522 ct 3876 -493 l  3870 -509 3861 -524 3850 -539 ct 
3839 -553 3826 -566 3809 -578 ct 3793 -589 3774 -598 3752 -605 ct 3730 -611 3704 -615 3676 -615 ct 
p ef
4604 -294 m  4604 -87 l  4533 -87 l  4533 -294 l  4328 -294 l  4328 -364 l 
4533 -364 l  4533 -571 l  4604 -571 l  4604 -364 l  4808 -364 l  4808 -294 l 
4604 -294 l  p ef
pom
pum
16563 20251 t
0.003 0.003 0.003 c 620 -196 m  620 -165 615 -137 604 -111 ct 592 -86 575 -65 551 -46 ct 
528 -28 497 -15 460 -5 ct 424 5 380 10 329 10 ct 284 10 244 6 210 -2 ct 175 -10 146 -22 121 -38 ct 
97 -54 77 -73 62 -96 ct 46 -120 35 -147 28 -177 ct 166 -200 l  170 -184 175 -171 183 -158 ct 
190 -145 200 -135 213 -125 ct 227 -116 243 -109 262 -104 ct 282 -99 305 -97 333 -97 ct 
381 -97 418 -104 444 -119 ct 469 -133 482 -156 482 -187 ct 482 -206 477 -221 467 -233 ct 
456 -245 443 -255 425 -263 ct 408 -270 389 -277 367 -282 ct 344 -287 321 -292 297 -297 ct 
278 -302 259 -306 239 -311 ct 220 -316 202 -322 184 -328 ct 167 -335 150 -343 135 -353 ct 
120 -362 107 -373 96 -387 ct 85 -401 76 -417 70 -435 ct 63 -453 60 -475 60 -500 ct 
60 -534 67 -563 81 -587 ct 94 -611 113 -631 137 -646 ct 161 -661 189 -672 222 -679 ct 
256 -686 292 -690 331 -690 ct 375 -690 413 -687 445 -680 ct 477 -673 503 -662 525 -648 ct 
546 -634 563 -616 575 -595 ct 588 -573 597 -548 603 -520 ct 465 -501 l  458 -530 443 -552 421 -567 ct 
400 -582 369 -589 328 -589 ct 303 -589 282 -587 266 -583 ct 249 -578 236 -572 226 -565 ct 
216 -558 209 -549 205 -539 ct 201 -529 199 -519 199 -508 ct 199 -491 203 -478 211 -467 ct 
219 -456 230 -447 245 -440 ct 259 -432 276 -426 296 -421 ct 317 -416 339 -411 363 -406 ct 
384 -402 405 -397 426 -392 ct 447 -387 467 -381 486 -374 ct 505 -368 522 -359 539 -350 ct 
555 -340 570 -328 582 -314 ct 594 -300 603 -284 610 -264 ct 617 -245 620 -222 620 -196 ct 
p ef
1040 -102 m  1066 -102 1089 -106 1109 -113 ct 1128 -121 1145 -131 1159 -143 ct 
1174 -155 1186 -169 1195 -185 ct 1205 -200 1212 -216 1219 -231 ct 1342 -185 l 
1333 -160 1319 -136 1303 -113 ct 1287 -89 1267 -68 1243 -50 ct 1219 -32 1190 -18 1157 -7 ct 
1124 4 1085 10 1040 10 ct 981 10 930 1 887 -16 ct 844 -34 808 -58 780 -90 ct 752 -121 731 -158 717 -201 ct 
703 -245 697 -292 697 -343 ct 697 -396 703 -444 717 -487 ct 731 -530 751 -566 779 -596 ct 
807 -626 842 -649 884 -666 ct 926 -682 976 -690 1033 -690 ct 1078 -690 1116 -685 1150 -676 ct 
1183 -667 1212 -654 1236 -637 ct 1260 -620 1280 -600 1296 -577 ct 1312 -554 1325 -528 1334 -501 ct 
1208 -466 l  1204 -481 1197 -495 1188 -508 ct 1178 -522 1166 -533 1152 -544 ct 
1138 -554 1121 -562 1102 -569 ct 1082 -575 1061 -578 1036 -578 ct 1002 -578 972 -572 947 -561 ct 
923 -550 902 -534 886 -514 ct 870 -493 859 -469 851 -440 ct 844 -411 840 -379 840 -343 ct 
840 -308 844 -275 851 -246 ct 859 -216 871 -191 887 -170 ct 903 -148 923 -132 949 -120 ct 
974 -108 1004 -102 1040 -102 ct p ef
1847 0 m  1551 -524 l  1552 -510 1554 -495 1555 -481 ct 1556 -469 1557 -456 1558 -442 ct 
1559 -428 1559 -414 1559 -401 ct 1559 0 l  1433 0 l  1433 -680 l  1596 -680 l 
1896 -152 l  1895 -166 1893 -180 1892 -195 ct 1891 -207 1890 -221 1889 -237 ct 
1888 -253 1888 -269 1888 -285 ct 1888 -680 l  2014 -680 l  2014 0 l  1847 0 l 
p ef
2699 -196 m  2699 -165 2694 -137 2683 -111 ct 2671 -86 2654 -65 2630 -46 ct 
2607 -28 2576 -15 2539 -5 ct 2503 5 2459 10 2408 10 ct 2363 10 2323 6 2289 -2 ct 
2254 -10 2225 -22 2200 -38 ct 2176 -54 2156 -73 2141 -96 ct 2125 -120 2114 -147 2107 -177 ct 
2245 -200 l  2249 -184 2254 -171 2262 -158 ct 2269 -145 2279 -135 2292 -125 ct 
2306 -116 2322 -109 2341 -104 ct 2361 -99 2384 -97 2412 -97 ct 2460 -97 2497 -104 2523 -119 ct 
2548 -133 2561 -156 2561 -187 ct 2561 -206 2556 -221 2546 -233 ct 2535 -245 2522 -255 2504 -263 ct 
2487 -270 2468 -277 2446 -282 ct 2423 -287 2400 -292 2376 -297 ct 2357 -302 2338 -306 2318 -311 ct 
2299 -316 2281 -322 2263 -328 ct 2246 -335 2229 -343 2214 -353 ct 2199 -362 2186 -373 2175 -387 ct 
2164 -401 2155 -417 2149 -435 ct 2142 -453 2139 -475 2139 -500 ct 2139 -534 2146 -563 2160 -587 ct 
2173 -611 2192 -631 2216 -646 ct 2240 -661 2268 -672 2301 -679 ct 2335 -686 2371 -690 2410 -690 ct 
2454 -690 2492 -687 2524 -680 ct 2556 -673 2582 -662 2604 -648 ct 2625 -634 2642 -616 2654 -595 ct 
2667 -573 2676 -548 2682 -520 ct 2544 -501 l  2537 -530 2522 -552 2500 -567 ct 
2479 -582 2448 -589 2407 -589 ct 2382 -589 2361 -587 2345 -583 ct 2328 -578 2315 -572 2305 -565 ct 
2295 -558 2288 -549 2284 -539 ct 2280 -529 2278 -519 2278 -508 ct 2278 -491 2282 -478 2290 -467 ct 
2298 -456 2309 -447 2324 -440 ct 2338 -432 2355 -426 2375 -421 ct 2396 -416 2418 -411 2442 -406 ct 
2463 -402 2484 -397 2505 -392 ct 2526 -387 2546 -381 2565 -374 ct 2584 -368 2601 -359 2618 -350 ct 
2634 -340 2649 -328 2661 -314 ct 2673 -300 2682 -284 2689 -264 ct 2696 -245 2699 -222 2699 -196 ct 
p ef
2801 0 m  2801 -680 l  2943 -680 l  2943 -110 l  3308 -110 l  3308 0 l 
2801 0 l  p ef
pom
pum
19899 20251 t
pom
pum
12726 21352 t
0.230 0.226 0.210 c 666 -347 m  666 -290 658 -240 641 -197 ct 624 -154 600 -118 571 -89 ct 
541 -59 506 -37 466 -22 ct 425 -7 382 0 335 0 ct 81 0 l  81 -680 l  306 -680 l 
358 -680 407 -673 451 -660 ct 495 -647 533 -627 565 -600 ct 597 -573 622 -538 639 -497 ct 
657 -455 666 -405 666 -347 ct p
574 -347 m  574 -393 567 -432 554 -465 ct 541 -498 522 -524 498 -545 ct 475 -566 446 -582 413 -591 ct 
380 -601 343 -606 304 -606 ct 173 -606 l  173 -74 l  325 -74 l  360 -74 393 -80 424 -91 ct 
454 -103 480 -120 503 -143 ct 525 -166 542 -194 555 -228 ct 567 -262 574 -302 574 -347 ct 
p ef
844 -242 m  844 -215 847 -190 853 -167 ct 858 -144 867 -124 879 -108 ct 890 -91 905 -78 924 -69 ct 
942 -60 964 -55 990 -55 ct 1027 -55 1058 -63 1080 -78 ct 1103 -93 1118 -112 1126 -135 ct 
1203 -114 l  1197 -99 1189 -85 1180 -70 ct 1170 -55 1157 -42 1140 -30 ct 1124 -19 1103 -9 1079 -1 ct 
1054 6 1025 10 990 10 ct 913 10 854 -13 814 -59 ct 773 -105 753 -174 753 -264 ct 
753 -313 759 -355 771 -389 ct 784 -423 800 -450 821 -472 ct 843 -493 867 -508 896 -518 ct 
924 -527 954 -532 986 -532 ct 1030 -532 1067 -525 1096 -511 ct 1126 -497 1149 -477 1167 -452 ct 
1185 -427 1198 -398 1205 -364 ct 1213 -330 1217 -293 1217 -254 ct 1217 -242 l 
844 -242 l  p
1127 -309 m  1122 -364 1108 -404 1085 -430 ct 1062 -455 1028 -468 985 -468 ct 
971 -468 955 -465 939 -461 ct 924 -456 909 -448 895 -436 ct 882 -424 870 -408 861 -387 ct 
852 -367 846 -341 845 -309 ct 1127 -309 l  p ef
1720 -144 m  1720 -119 1716 -98 1706 -79 ct 1697 -59 1683 -43 1665 -30 ct 1647 -17 1625 -7 1598 0 ct 
1572 7 1542 10 1509 10 ct 1478 10 1451 8 1427 3 ct 1402 -2 1381 -9 1363 -19 ct 
1345 -30 1329 -43 1317 -60 ct 1304 -77 1295 -98 1290 -122 ct 1366 -137 l  1374 -109 1389 -89 1412 -76 ct 
1435 -63 1467 -56 1509 -56 ct 1527 -56 1544 -57 1560 -60 ct 1576 -63 1589 -67 1600 -73 ct 
1611 -80 1620 -88 1626 -98 ct 1633 -109 1636 -122 1636 -137 ct 1636 -153 1632 -166 1625 -176 ct 
1617 -186 1607 -195 1594 -201 ct 1581 -208 1565 -214 1546 -219 ct 1527 -224 1506 -230 1484 -236 ct 
1463 -241 1442 -247 1422 -254 ct 1401 -261 1383 -270 1366 -281 ct 1349 -292 1336 -306 1326 -322 ct 
1315 -338 1310 -359 1310 -384 ct 1310 -431 1327 -468 1361 -493 ct 1395 -518 1445 -530 1509 -530 ct 
1567 -530 1613 -520 1647 -500 ct 1681 -479 1702 -447 1711 -402 ct 1633 -392 l 
1630 -406 1625 -417 1617 -426 ct 1609 -436 1600 -443 1589 -449 ct 1578 -454 1566 -458 1552 -461 ct 
1539 -463 1524 -464 1509 -464 ct 1470 -464 1441 -458 1423 -446 ct 1404 -435 1395 -417 1395 -392 ct 
1395 -378 1398 -367 1405 -357 ct 1412 -348 1422 -341 1434 -334 ct 1446 -328 1461 -323 1479 -318 ct 
1496 -313 1515 -308 1536 -303 ct 1550 -300 1564 -296 1578 -292 ct 1593 -288 1607 -283 1621 -277 ct 
1634 -272 1647 -265 1659 -258 ct 1671 -250 1682 -241 1691 -230 ct 1700 -220 1707 -207 1712 -193 ct 
1718 -179 1720 -163 1720 -144 ct p ef
1823 -633 m  1823 -716 l  1910 -716 l  1910 -633 l  1823 -633 l  p
1823 0 m  1823 -522 l  1910 -522 l  1910 0 l  1823 0 l  p ef
2241 205 m  2211 205 2185 202 2162 196 ct 2139 190 2119 181 2102 170 ct 2086 158 2073 145 2062 129 ct 
2052 113 2045 96 2040 76 ct 2128 64 l  2133 88 2146 106 2166 119 ct 2186 132 2212 139 2244 139 ct 
2263 139 2281 136 2297 131 ct 2313 125 2327 116 2338 104 ct 2350 92 2358 77 2364 57 ct 
2370 38 2374 15 2374 -13 ct 2374 -97 l  2373 -97 l  2366 -84 2358 -71 2349 -59 ct 
2339 -47 2328 -36 2314 -27 ct 2300 -18 2284 -10 2266 -4 ct 2248 1 2228 4 2205 4 ct 
2172 4 2143 -2 2120 -13 ct 2096 -24 2077 -40 2062 -63 ct 2047 -85 2036 -112 2029 -145 ct 
2022 -179 2018 -217 2018 -260 ct 2018 -302 2022 -340 2029 -373 ct 2036 -407 2047 -435 2063 -458 ct 
2078 -482 2098 -500 2123 -512 ct 2148 -525 2179 -531 2214 -531 ct 2251 -531 2283 -522 2311 -505 ct 
2338 -488 2359 -464 2374 -433 ct 2375 -433 l  2375 -441 2375 -450 2375 -460 ct 
2376 -470 2376 -480 2377 -488 ct 2377 -497 2378 -505 2378 -511 ct 2379 -518 2380 -522 2380 -522 ct 
2463 -522 l  2462 -520 2462 -515 2462 -508 ct 2462 -501 2461 -493 2461 -483 ct 
2461 -473 2460 -463 2460 -451 ct 2460 -439 2460 -427 2460 -414 ct 2460 -15 l 
2460 58 2442 113 2406 150 ct 2370 187 2315 205 2241 205 ct p
2374 -261 m  2374 -298 2370 -329 2362 -355 ct 2354 -381 2343 -402 2331 -418 ct 
2318 -435 2303 -447 2286 -454 ct 2270 -462 2253 -466 2236 -466 ct 2213 -466 2194 -462 2178 -454 ct 
2162 -447 2149 -435 2139 -418 ct 2128 -401 2121 -380 2116 -354 ct 2111 -328 2108 -297 2108 -261 ct 
2108 -223 2111 -192 2116 -166 ct 2121 -141 2128 -120 2139 -104 ct 2149 -88 2162 -77 2178 -70 ct 
2193 -64 2212 -60 2234 -60 ct 2252 -60 2268 -64 2285 -71 ct 2302 -79 2316 -90 2330 -107 ct 
2343 -123 2353 -143 2361 -169 ct 2370 -194 2374 -225 2374 -261 ct p ef
2925 0 m  2925 -331 l  2925 -357 2923 -378 2919 -395 ct 2916 -412 2910 -426 2901 -436 ct 
2893 -447 2882 -454 2868 -458 ct 2855 -463 2838 -465 2817 -465 ct 2797 -465 2778 -461 2762 -454 ct 
2745 -447 2731 -436 2719 -423 ct 2708 -409 2698 -392 2692 -372 ct 2686 -352 2682 -329 2682 -303 ct 
2682 0 l  2596 0 l  2596 -411 l  2596 -422 2595 -433 2595 -445 ct 2595 -457 2595 -469 2595 -480 ct 
2594 -490 2594 -500 2594 -507 ct 2593 -515 2593 -520 2593 -522 ct 2675 -522 l 
2675 -521 2675 -516 2676 -509 ct 2676 -502 2676 -494 2677 -485 ct 2677 -476 2678 -466 2678 -457 ct 
2678 -447 2678 -439 2678 -433 ct 2680 -433 l  2688 -448 2697 -462 2707 -474 ct 
2717 -486 2729 -497 2742 -505 ct 2755 -514 2770 -520 2788 -525 ct 2805 -530 2824 -532 2847 -532 ct 
2876 -532 2901 -528 2922 -521 ct 2943 -514 2960 -503 2973 -489 ct 2987 -474 2997 -455 3003 -431 ct 
3009 -408 3012 -380 3012 -348 ct 3012 0 l  2925 0 l  p ef
3967 -187 m  3967 -159 3961 -132 3950 -108 ct 3939 -84 3922 -63 3899 -46 ct 
3875 -28 3846 -15 3811 -5 ct 3776 5 3734 10 3686 10 ct 3601 10 3535 -5 3488 -34 ct 
3441 -64 3411 -107 3398 -163 ct 3487 -181 l  3492 -163 3499 -147 3508 -132 ct 
3517 -118 3530 -105 3546 -95 ct 3562 -85 3581 -76 3605 -71 ct 3628 -65 3656 -62 3689 -62 ct 
3717 -62 3742 -64 3765 -69 ct 3787 -74 3807 -81 3823 -90 ct 3840 -100 3853 -113 3862 -128 ct 
3871 -143 3875 -161 3875 -183 ct 3875 -205 3870 -223 3860 -237 ct 3850 -251 3836 -262 3818 -271 ct 
3799 -280 3777 -288 3752 -294 ct 3727 -300 3698 -306 3668 -313 ct 3649 -318 3630 -322 3610 -327 ct 
3591 -332 3573 -338 3555 -345 ct 3538 -352 3521 -360 3506 -369 ct 3490 -379 3477 -390 3466 -403 ct 
3455 -416 3446 -431 3439 -448 ct 3433 -466 3430 -485 3430 -508 ct 3430 -540 3436 -568 3449 -591 ct 
3462 -614 3480 -633 3504 -648 ct 3527 -662 3554 -673 3586 -680 ct 3617 -687 3651 -690 3688 -690 ct 
3730 -690 3766 -687 3796 -680 ct 3826 -674 3851 -664 3872 -650 ct 3892 -637 3909 -621 3921 -601 ct 
3933 -582 3943 -559 3951 -534 ct 3860 -518 l  3856 -534 3849 -549 3840 -562 ct 
3832 -574 3821 -585 3807 -594 ct 3793 -603 3776 -609 3757 -614 ct 3737 -618 3714 -620 3687 -620 ct 
3655 -620 3629 -618 3607 -612 ct 3586 -606 3569 -599 3556 -589 ct 3543 -579 3534 -568 3528 -555 ct 
3522 -542 3519 -528 3519 -513 ct 3519 -493 3525 -476 3535 -463 ct 3545 -450 3559 -439 3576 -430 ct 
3593 -422 3613 -414 3636 -409 ct 3659 -403 3683 -397 3709 -391 ct 3730 -386 3751 -381 3772 -376 ct 
3792 -371 3812 -366 3831 -359 ct 3850 -352 3868 -344 3884 -334 ct 3901 -325 3915 -313 3928 -300 ct 
3940 -286 3949 -270 3956 -252 ct 3963 -234 3967 -212 3967 -187 ct p ef
4517 -264 m  4517 -224 4514 -188 4507 -154 ct 4501 -121 4490 -92 4475 -68 ct 
4460 -44 4441 -25 4416 -11 ct 4391 2 4361 9 4325 9 ct 4288 9 4255 2 4227 -12 ct 
4199 -26 4178 -49 4163 -82 ct 4160 -82 l  4161 -81 4161 -78 4161 -73 ct 4161 -68 4162 -61 4162 -54 ct 
4162 -46 4162 -37 4162 -28 ct 4162 -18 4162 -9 4162 1 ct 4162 205 l  4076 205 l 
4076 -416 l  4076 -428 4076 -440 4075 -452 ct 4075 -464 4075 -474 4075 -484 ct 
4074 -493 4074 -501 4074 -508 ct 4073 -515 4073 -520 4073 -523 ct 4157 -523 l 
4157 -522 4157 -518 4158 -512 ct 4158 -507 4159 -500 4159 -491 ct 4160 -483 4160 -475 4161 -465 ct 
4161 -456 4161 -447 4161 -439 ct 4163 -439 l  4171 -456 4181 -470 4191 -482 ct 
4201 -493 4213 -503 4226 -511 ct 4239 -518 4254 -524 4270 -527 ct 4286 -530 4305 -532 4325 -532 ct 
4361 -532 4391 -526 4416 -513 ct 4441 -500 4460 -482 4475 -458 ct 4490 -435 4501 -407 4507 -374 ct 
4514 -341 4517 -304 4517 -264 ct p
4426 -262 m  4426 -294 4424 -323 4420 -348 ct 4416 -373 4409 -394 4400 -412 ct 
4391 -429 4378 -442 4362 -451 ct 4346 -460 4327 -465 4303 -465 ct 4284 -465 4265 -462 4248 -457 ct 
4231 -451 4216 -441 4204 -425 ct 4191 -410 4181 -389 4174 -361 ct 4166 -334 4162 -299 4162 -255 ct 
4162 -218 4165 -187 4172 -161 ct 4178 -136 4187 -115 4198 -99 ct 4210 -84 4225 -72 4242 -65 ct 
4259 -58 4279 -55 4302 -55 ct 4326 -55 4346 -60 4362 -69 ct 4378 -78 4391 -92 4400 -110 ct 
4409 -127 4416 -149 4420 -175 ct 4424 -200 4426 -229 4426 -262 ct p ef
4759 10 m  4706 10 4667 -4 4641 -32 ct 4614 -60 4601 -98 4601 -146 ct 4601 -181 4607 -209 4621 -231 ct 
4634 -253 4651 -271 4672 -283 ct 4693 -296 4717 -305 4744 -310 ct 4771 -314 4798 -317 4826 -317 ct 
4943 -317 l  4943 -346 l  4943 -367 4941 -386 4937 -401 ct 4932 -417 4925 -429 4916 -439 ct 
4907 -448 4895 -455 4881 -459 ct 4867 -464 4851 -466 4832 -466 ct 4815 -466 4800 -465 4786 -462 ct 
4773 -460 4761 -455 4751 -449 ct 4741 -443 4733 -434 4727 -424 ct 4721 -413 4717 -399 4715 -383 ct 
4624 -391 l  4627 -411 4633 -430 4642 -448 ct 4651 -465 4664 -480 4681 -492 ct 
4697 -505 4718 -515 4743 -522 ct 4768 -529 4798 -532 4834 -532 ct 4899 -532 4948 -517 4982 -487 ct 
5015 -457 5031 -413 5031 -356 ct 5031 -131 l  5031 -105 5035 -86 5041 -73 ct 
5048 -60 5061 -53 5080 -53 ct 5085 -53 5090 -54 5094 -54 ct 5099 -55 5104 -56 5108 -57 ct 
5108 -3 l  5098 0 5087 2 5076 3 ct 5065 4 5054 5 5041 5 ct 5025 5 5011 3 4999 -2 ct 
4987 -6 4978 -12 4971 -21 ct 4963 -30 4957 -41 4954 -54 ct 4950 -67 4947 -82 4946 -100 ct 
4943 -100 l  4934 -83 4924 -68 4913 -54 ct 4902 -41 4889 -29 4874 -20 ct 4859 -10 4842 -3 4824 2 ct 
4805 7 4783 10 4759 10 ct p
4779 -55 m  4806 -55 4830 -60 4851 -70 ct 4872 -80 4889 -93 4903 -109 ct 4916 -125 4927 -142 4933 -160 ct 
4940 -179 4943 -196 4943 -213 ct 4943 -256 l  4848 -256 l  4827 -256 4807 -255 4788 -252 ct 
4769 -249 4752 -244 4737 -236 ct 4723 -228 4712 -216 4703 -202 ct 4694 -187 4690 -168 4690 -144 ct 
4690 -116 4698 -94 4713 -78 ct 4728 -63 4750 -55 4779 -55 ct p ef
5243 -263 m  5243 -233 5245 -206 5249 -181 ct 5254 -156 5261 -134 5271 -116 ct 
5281 -98 5295 -84 5312 -74 ct 5329 -64 5350 -59 5374 -59 ct 5405 -59 5431 -67 5452 -83 ct 
5473 -99 5485 -124 5490 -158 ct 5578 -158 l  5575 -136 5569 -115 5559 -95 ct 
5549 -74 5536 -57 5520 -41 ct 5503 -26 5483 -13 5459 -4 ct 5435 5 5408 10 5377 10 ct 
5336 10 5301 3 5273 -11 ct 5244 -25 5221 -44 5203 -68 ct 5185 -92 5172 -121 5164 -154 ct 
5156 -187 5152 -223 5152 -261 ct 5152 -297 5155 -328 5161 -354 ct 5166 -381 5175 -405 5185 -425 ct 
5195 -445 5208 -462 5222 -476 ct 5236 -489 5251 -500 5268 -509 ct 5285 -517 5302 -523 5320 -526 ct 
5339 -530 5357 -532 5376 -532 ct 5405 -532 5431 -528 5454 -520 ct 5477 -512 5497 -501 5513 -487 ct 
5530 -473 5543 -456 5553 -437 ct 5564 -418 5571 -398 5575 -376 ct 5486 -369 l 
5481 -398 5470 -421 5452 -438 ct 5433 -455 5407 -464 5373 -464 ct 5349 -464 5328 -460 5311 -452 ct 
5295 -443 5281 -431 5271 -414 ct 5261 -398 5254 -377 5249 -352 ct 5245 -327 5243 -297 5243 -263 ct 
p ef
5738 -242 m  5738 -215 5741 -190 5747 -167 ct 5752 -144 5761 -124 5773 -108 ct 
5784 -91 5799 -78 5818 -69 ct 5836 -60 5858 -55 5884 -55 ct 5921 -55 5952 -63 5974 -78 ct 
5997 -93 6012 -112 6020 -135 ct 6097 -114 l  6091 -99 6083 -85 6074 -70 ct 6064 -55 6051 -42 6034 -30 ct 
6018 -19 5997 -9 5973 -1 ct 5948 6 5919 10 5884 10 ct 5807 10 5748 -13 5708 -59 ct 
5667 -105 5647 -174 5647 -264 ct 5647 -313 5653 -355 5665 -389 ct 5678 -423 5694 -450 5715 -472 ct 
5737 -493 5761 -508 5790 -518 ct 5818 -527 5848 -532 5880 -532 ct 5924 -532 5961 -525 5990 -511 ct 
6020 -497 6043 -477 6061 -452 ct 6079 -427 6092 -398 6099 -364 ct 6107 -330 6111 -293 6111 -254 ct 
6111 -242 l  5738 -242 l  p
6021 -309 m  6016 -364 6002 -404 5979 -430 ct 5956 -455 5922 -468 5879 -468 ct 
5865 -468 5849 -465 5833 -461 ct 5818 -456 5803 -448 5789 -436 ct 5776 -424 5764 -408 5755 -387 ct 
5746 -367 5740 -341 5739 -309 ct 6021 -309 l  p ef
pom

pum
388 2402 t
0.402 0.402 0.402 c 620 -196 m  620 -165 615 -137 604 -111 ct 592 -86 575 -65 551 -46 ct 
528 -28 497 -15 460 -5 ct 424 5 380 10 329 10 ct 284 10 244 6 210 -2 ct 175 -10 146 -22 121 -38 ct 
97 -54 77 -73 62 -96 ct 46 -120 35 -147 28 -177 ct 166 -200 l  170 -184 175 -171 183 -158 ct 
190 -145 200 -135 213 -125 ct 227 -116 243 -109 262 -104 ct 282 -99 305 -97 333 -97 ct 
381 -97 418 -104 444 -119 ct 469 -133 482 -156 482 -187 ct 482 -206 477 -221 467 -233 ct 
456 -245 443 -255 425 -263 ct 408 -270 389 -277 367 -282 ct 344 -287 321 -292 297 -297 ct 
278 -302 259 -306 239 -311 ct 220 -316 202 -322 184 -328 ct 167 -335 150 -343 135 -353 ct 
120 -362 107 -373 96 -387 ct 85 -401 76 -417 70 -435 ct 63 -453 60 -475 60 -500 ct 
60 -534 67 -563 81 -587 ct 94 -611 113 -631 137 -646 ct 161 -661 189 -672 222 -679 ct 
256 -686 292 -690 331 -690 ct 375 -690 413 -687 445 -680 ct 477 -673 503 -662 525 -648 ct 
546 -634 563 -616 575 -595 ct 588 -573 597 -548 603 -520 ct 465 -501 l  458 -530 443 -552 421 -567 ct 
400 -582 369 -589 328 -589 ct 303 -589 282 -587 266 -583 ct 249 -578 236 -572 226 -565 ct 
216 -558 209 -549 205 -539 ct 201 -529 199 -519 199 -508 ct 199 -491 203 -478 211 -467 ct 
219 -456 230 -447 245 -440 ct 259 -432 276 -426 296 -421 ct 317 -416 339 -411 363 -406 ct 
384 -402 405 -397 426 -392 ct 447 -387 467 -381 486 -374 ct 505 -368 522 -359 539 -350 ct 
555 -340 570 -328 582 -314 ct 594 -300 603 -284 610 -264 ct 617 -245 620 -222 620 -196 ct 
p ef
1221 -261 m  1221 -222 1215 -185 1204 -152 ct 1193 -119 1177 -90 1154 -66 ct 
1132 -42 1105 -23 1071 -10 ct 1038 3 1000 10 956 10 ct 913 10 876 3 843 -10 ct 
811 -23 783 -42 761 -65 ct 739 -89 723 -118 711 -151 ct 700 -184 695 -221 695 -261 ct 
695 -300 700 -336 711 -369 ct 722 -402 738 -431 760 -455 ct 782 -479 809 -498 842 -512 ct 
875 -525 914 -532 958 -532 ct 1005 -532 1045 -525 1079 -512 ct 1112 -498 1139 -479 1160 -455 ct 
1181 -431 1196 -403 1206 -370 ct 1216 -337 1221 -301 1221 -261 ct p
1079 -261 m  1079 -324 1069 -369 1049 -397 ct 1028 -425 999 -439 960 -439 ct 
921 -439 890 -425 869 -396 ct 848 -368 837 -323 837 -261 ct 837 -230 840 -203 845 -181 ct 
851 -158 859 -140 869 -125 ct 880 -111 892 -100 906 -93 ct 921 -86 937 -83 954 -83 ct 
974 -83 992 -86 1007 -93 ct 1023 -100 1036 -111 1047 -125 ct 1057 -140 1065 -158 1071 -181 ct 
1076 -203 1079 -230 1079 -261 ct p ef
1485 -430 m  1485 1 l  1350 1 l  1350 -430 l  1274 -430 l  1274 -522 l 
1350 -522 l  1350 -577 l  1350 -596 1353 -615 1357 -632 ct 1362 -649 1370 -663 1382 -676 ct 
1394 -688 1409 -698 1429 -705 ct 1448 -712 1473 -716 1502 -716 ct 1518 -716 1533 -715 1548 -714 ct 
1563 -712 1576 -710 1588 -708 ct 1588 -621 l  1582 -622 1576 -623 1568 -624 ct 
1561 -625 1555 -625 1548 -625 ct 1536 -625 1525 -624 1517 -621 ct 1509 -619 1503 -615 1498 -610 ct 
1493 -605 1490 -598 1488 -590 ct 1486 -582 1485 -573 1485 -563 ct 1485 -522 l 
1588 -522 l  1588 -430 l  1485 -430 l  p ef
1791 9 m  1751 8 1720 -2 1698 -24 ct 1677 -46 1666 -79 1666 -123 ct 1666 -431 l 
1600 -431 l  1600 -523 l  1673 -523 l  1715 -646 l  1800 -646 l  1800 -523 l 
1899 -523 l  1899 -431 l  1800 -431 l  1800 -160 l  1800 -134 1805 -115 1815 -103 ct 
1824 -91 1839 -85 1860 -85 ct 1868 -85 1876 -86 1882 -87 ct 1889 -88 1897 -90 1905 -92 ct 
1905 -8 l  1888 -2 1871 2 1852 4 ct 1833 7 1813 8 1791 9 ct p ef
2551 0 m  2408 0 l  2325 -319 l  2323 -329 2320 -340 2317 -352 ct 2315 -365 2312 -376 2310 -387 ct 
2302 -426 l  2300 -413 2297 -400 2294 -387 ct 2291 -376 2289 -365 2286 -352 ct 
2283 -339 2280 -328 2277 -318 ct 2193 0 l  2050 0 l  1915 -523 l  2042 -523 l 
2109 -215 l  2110 -207 2113 -197 2115 -186 ct 2117 -175 2119 -165 2121 -156 ct 
2123 -145 2126 -134 2128 -123 ct 2131 -135 2133 -147 2135 -159 ct 2137 -169 2139 -179 2141 -189 ct 
2144 -200 2146 -208 2147 -215 ct 2229 -523 l  2374 -523 l  2454 -215 l  2457 -207 2459 -198 2461 -187 ct 
2463 -176 2466 -166 2467 -157 ct 2470 -146 2472 -135 2474 -123 ct 2477 -135 2479 -146 2481 -157 ct 
2483 -166 2485 -176 2488 -187 ct 2490 -198 2492 -207 2494 -215 ct 2563 -523 l 
2688 -523 l  2551 0 l  p ef
2874 10 m  2849 10 2826 7 2806 0 ct 2787 -7 2770 -18 2756 -31 ct 2742 -44 2731 -61 2724 -81 ct 
2717 -100 2713 -123 2713 -148 ct 2713 -179 2718 -205 2729 -226 ct 2740 -247 2755 -264 2773 -277 ct 
2792 -291 2814 -300 2839 -306 ct 2864 -312 2891 -315 2919 -315 ct 3031 -315 l 
3031 -342 l  3031 -361 3030 -377 3026 -390 ct 3023 -403 3018 -413 3012 -422 ct 
3005 -430 2997 -435 2988 -439 ct 2978 -442 2967 -444 2955 -444 ct 2944 -444 2934 -443 2925 -441 ct 
2916 -439 2908 -435 2902 -429 ct 2896 -424 2890 -417 2886 -408 ct 2882 -399 2880 -387 2878 -373 ct 
2737 -373 l  2740 -397 2748 -418 2758 -437 ct 2768 -457 2782 -473 2801 -487 ct 
2819 -502 2841 -513 2868 -520 ct 2894 -528 2925 -532 2961 -532 ct 2993 -532 3022 -528 3048 -520 ct 
3073 -512 3095 -500 3112 -484 ct 3130 -468 3144 -448 3153 -425 ct 3162 -402 3167 -375 3167 -344 ct 
3167 -154 l  3167 -142 3167 -131 3169 -121 ct 3170 -112 3172 -104 3175 -97 ct 
3178 -90 3182 -85 3188 -82 ct 3194 -79 3201 -77 3210 -77 ct 3220 -77 3230 -78 3240 -80 ct 
3240 -6 l  3232 -4 3224 -3 3218 -1 ct 3212 1 3205 2 3199 3 ct 3192 4 3185 5 3178 5 ct 
3171 6 3163 6 3153 6 ct 3119 6 3094 -2 3077 -19 ct 3061 -36 3051 -60 3048 -93 ct 
3045 -93 l  3027 -60 3004 -35 2976 -17 ct 2948 1 2914 10 2874 10 ct p
3031 -241 m  2962 -241 l  2947 -241 2934 -240 2921 -238 ct 2908 -236 2896 -232 2886 -227 ct 
2877 -221 2869 -213 2863 -202 ct 2857 -192 2854 -177 2854 -159 ct 2854 -134 2860 -115 2871 -103 ct 
2883 -91 2898 -85 2917 -85 ct 2934 -85 2950 -88 2964 -96 ct 2978 -103 2990 -113 3000 -125 ct 
3010 -137 3018 -151 3023 -166 ct 3029 -182 3031 -198 3031 -214 ct 3031 -241 l 
p ef
3303 0 m  3303 -400 l  3303 -411 3303 -423 3303 -435 ct 3303 -448 3302 -460 3302 -471 ct 
3301 -483 3301 -493 3301 -502 ct 3300 -511 3300 -518 3299 -522 ct 3428 -522 l 
3429 -518 3430 -512 3430 -502 ct 3431 -493 3432 -482 3432 -471 ct 3433 -460 3433 -449 3434 -438 ct 
3434 -426 3435 -418 3435 -411 ct 3437 -411 l  3443 -430 3450 -447 3457 -462 ct 
3464 -477 3472 -489 3481 -500 ct 3490 -510 3501 -518 3514 -524 ct 3527 -530 3543 -532 3562 -532 ct 
3570 -532 3578 -532 3585 -530 ct 3593 -529 3599 -527 3604 -525 ct 3604 -412 l 
3595 -414 3586 -415 3577 -417 ct 3568 -418 3558 -419 3546 -419 ct 3512 -419 3486 -405 3467 -378 ct 
3448 -351 3439 -310 3439 -256 ct 3439 0 l  3303 0 l  p ef
3903 10 m  3865 10 3831 4 3801 -7 ct 3771 -18 3745 -35 3724 -57 ct 3703 -80 3687 -108 3675 -143 ct 
3664 -177 3659 -217 3659 -263 ct 3659 -313 3665 -355 3679 -389 ct 3692 -423 3710 -451 3733 -472 ct 
3755 -493 3781 -508 3811 -517 ct 3841 -527 3872 -531 3905 -531 ct 3946 -531 3981 -524 4010 -510 ct 
4039 -496 4063 -476 4082 -450 ct 4100 -424 4114 -394 4123 -358 ct 4131 -322 4136 -282 4136 -239 ct 
4136 -235 l  3801 -235 l  3801 -213 3803 -193 3807 -174 ct 3811 -155 3817 -139 3826 -125 ct 
3834 -111 3845 -101 3859 -93 ct 3873 -85 3890 -81 3909 -81 ct 3933 -81 3953 -86 3968 -96 ct 
3983 -106 3994 -122 4000 -143 ct 4128 -132 l  4122 -117 4114 -101 4104 -85 ct 
4093 -68 4079 -53 4062 -39 ct 4045 -25 4023 -13 3997 -4 ct 3971 5 3940 10 3903 10 ct 
p
3903 -446 m  3889 -446 3876 -444 3864 -439 ct 3852 -434 3841 -427 3833 -417 ct 
3824 -407 3817 -394 3811 -378 ct 3806 -362 3803 -342 3802 -320 ct 4004 -320 l 
4002 -362 3992 -393 3974 -414 ct 3956 -436 3933 -446 3903 -446 ct p ef
pom

pum
856 18436 t
620 -196 m  620 -165 615 -137 604 -111 ct 592 -86 575 -65 551 -46 ct 528 -28 497 -15 460 -5 ct 
424 5 380 10 329 10 ct 284 10 244 6 210 -2 ct 175 -10 146 -22 121 -38 ct 97 -54 77 -73 62 -96 ct 
46 -120 35 -147 28 -177 ct 166 -200 l  170 -184 175 -171 183 -158 ct 190 -145 200 -135 213 -125 ct 
227 -116 243 -109 262 -104 ct 282 -99 305 -97 333 -97 ct 381 -97 418 -104 444 -119 ct 
469 -133 482 -156 482 -187 ct 482 -206 477 -221 467 -233 ct 456 -245 443 -255 425 -263 ct 
408 -270 389 -277 367 -282 ct 344 -287 321 -292 297 -297 ct 278 -302 259 -306 239 -311 ct 
220 -316 202 -322 184 -328 ct 167 -335 150 -343 135 -353 ct 120 -362 107 -373 96 -387 ct 
85 -401 76 -417 70 -435 ct 63 -453 60 -475 60 -500 ct 60 -534 67 -563 81 -587 ct 
94 -611 113 -631 137 -646 ct 161 -661 189 -672 222 -679 ct 256 -686 292 -690 331 -690 ct 
375 -690 413 -687 445 -680 ct 477 -673 503 -662 525 -648 ct 546 -634 563 -616 575 -595 ct 
588 -573 597 -548 603 -520 ct 465 -501 l  458 -530 443 -552 421 -567 ct 400 -582 369 -589 328 -589 ct 
303 -589 282 -587 266 -583 ct 249 -578 236 -572 226 -565 ct 216 -558 209 -549 205 -539 ct 
201 -529 199 -519 199 -508 ct 199 -491 203 -478 211 -467 ct 219 -456 230 -447 245 -440 ct 
259 -432 276 -426 296 -421 ct 317 -416 339 -411 363 -406 ct 384 -402 405 -397 426 -392 ct 
447 -387 467 -381 486 -374 ct 505 -368 522 -359 539 -350 ct 555 -340 570 -328 582 -314 ct 
594 -300 603 -284 610 -264 ct 617 -245 620 -222 620 -196 ct p ef
1221 -261 m  1221 -222 1215 -185 1204 -152 ct 1193 -119 1177 -90 1154 -66 ct 
1132 -42 1105 -23 1071 -10 ct 1038 3 1000 10 956 10 ct 913 10 876 3 843 -10 ct 
811 -23 783 -42 761 -65 ct 739 -89 723 -118 711 -151 ct 700 -184 695 -221 695 -261 ct 
695 -300 700 -336 711 -369 ct 722 -402 738 -431 760 -455 ct 782 -479 809 -498 842 -512 ct 
875 -525 914 -532 958 -532 ct 1005 -532 1045 -525 1079 -512 ct 1112 -498 1139 -479 1160 -455 ct 
1181 -431 1196 -403 1206 -370 ct 1216 -337 1221 -301 1221 -261 ct p
1079 -261 m  1079 -324 1069 -369 1049 -397 ct 1028 -425 999 -439 960 -439 ct 
921 -439 890 -425 869 -396 ct 848 -368 837 -323 837 -261 ct 837 -230 840 -203 845 -181 ct 
851 -158 859 -140 869 -125 ct 880 -111 892 -100 906 -93 ct 921 -86 937 -83 954 -83 ct 
974 -83 992 -86 1007 -93 ct 1023 -100 1036 -111 1047 -125 ct 1057 -140 1065 -158 1071 -181 ct 
1076 -203 1079 -230 1079 -261 ct p ef
1485 -430 m  1485 1 l  1350 1 l  1350 -430 l  1274 -430 l  1274 -522 l 
1350 -522 l  1350 -577 l  1350 -596 1353 -615 1357 -632 ct 1362 -649 1370 -663 1382 -676 ct 
1394 -688 1409 -698 1429 -705 ct 1448 -712 1473 -716 1502 -716 ct 1518 -716 1533 -715 1548 -714 ct 
1563 -712 1576 -710 1588 -708 ct 1588 -621 l  1582 -622 1576 -623 1568 -624 ct 
1561 -625 1555 -625 1548 -625 ct 1536 -625 1525 -624 1517 -621 ct 1509 -619 1503 -615 1498 -610 ct 
1493 -605 1490 -598 1488 -590 ct 1486 -582 1485 -573 1485 -563 ct 1485 -522 l 
1588 -522 l  1588 -430 l  1485 -430 l  p ef
1791 9 m  1751 8 1720 -2 1698 -24 ct 1677 -46 1666 -79 1666 -123 ct 1666 -431 l 
1600 -431 l  1600 -523 l  1673 -523 l  1715 -646 l  1800 -646 l  1800 -523 l 
1899 -523 l  1899 -431 l  1800 -431 l  1800 -160 l  1800 -134 1805 -115 1815 -103 ct 
1824 -91 1839 -85 1860 -85 ct 1868 -85 1876 -86 1882 -87 ct 1889 -88 1897 -90 1905 -92 ct 
1905 -8 l  1888 -2 1871 2 1852 4 ct 1833 7 1813 8 1791 9 ct p ef
2551 0 m  2408 0 l  2325 -319 l  2323 -329 2320 -340 2317 -352 ct 2315 -365 2312 -376 2310 -387 ct 
2302 -426 l  2300 -413 2297 -400 2294 -387 ct 2291 -376 2289 -365 2286 -352 ct 
2283 -339 2280 -328 2277 -318 ct 2193 0 l  2050 0 l  1915 -523 l  2042 -523 l 
2109 -215 l  2110 -207 2113 -197 2115 -186 ct 2117 -175 2119 -165 2121 -156 ct 
2123 -145 2126 -134 2128 -123 ct 2131 -135 2133 -147 2135 -159 ct 2137 -169 2139 -179 2141 -189 ct 
2144 -200 2146 -208 2147 -215 ct 2229 -523 l  2374 -523 l  2454 -215 l  2457 -207 2459 -198 2461 -187 ct 
2463 -176 2466 -166 2467 -157 ct 2470 -146 2472 -135 2474 -123 ct 2477 -135 2479 -146 2481 -157 ct 
2483 -166 2485 -176 2488 -187 ct 2490 -198 2492 -207 2494 -215 ct 2563 -523 l 
2688 -523 l  2551 0 l  p ef
2874 10 m  2849 10 2826 7 2806 0 ct 2787 -7 2770 -18 2756 -31 ct 2742 -44 2731 -61 2724 -81 ct 
2717 -100 2713 -123 2713 -148 ct 2713 -179 2718 -205 2729 -226 ct 2740 -247 2755 -264 2773 -277 ct 
2792 -291 2814 -300 2839 -306 ct 2864 -312 2891 -315 2919 -315 ct 3031 -315 l 
3031 -342 l  3031 -361 3030 -377 3026 -390 ct 3023 -403 3018 -413 3012 -422 ct 
3005 -430 2997 -435 2988 -439 ct 2978 -442 2967 -444 2955 -444 ct 2944 -444 2934 -443 2925 -441 ct 
2916 -439 2908 -435 2902 -429 ct 2896 -424 2890 -417 2886 -408 ct 2882 -399 2880 -387 2878 -373 ct 
2737 -373 l  2740 -397 2748 -418 2758 -437 ct 2768 -457 2782 -473 2801 -487 ct 
2819 -502 2841 -513 2868 -520 ct 2894 -528 2925 -532 2961 -532 ct 2993 -532 3022 -528 3048 -520 ct 
3073 -512 3095 -500 3112 -484 ct 3130 -468 3144 -448 3153 -425 ct 3162 -402 3167 -375 3167 -344 ct 
3167 -154 l  3167 -142 3167 -131 3169 -121 ct 3170 -112 3172 -104 3175 -97 ct 
3178 -90 3182 -85 3188 -82 ct 3194 -79 3201 -77 3210 -77 ct 3220 -77 3230 -78 3240 -80 ct 
3240 -6 l  3232 -4 3224 -3 3218 -1 ct 3212 1 3205 2 3199 3 ct 3192 4 3185 5 3178 5 ct 
3171 6 3163 6 3153 6 ct 3119 6 3094 -2 3077 -19 ct 3061 -36 3051 -60 3048 -93 ct 
3045 -93 l  3027 -60 3004 -35 2976 -17 ct 2948 1 2914 10 2874 10 ct p
3031 -241 m  2962 -241 l  2947 -241 2934 -240 2921 -238 ct 2908 -236 2896 -232 2886 -227 ct 
2877 -221 2869 -213 2863 -202 ct 2857 -192 2854 -177 2854 -159 ct 2854 -134 2860 -115 2871 -103 ct 
2883 -91 2898 -85 2917 -85 ct 2934 -85 2950 -88 2964 -96 ct 2978 -103 2990 -113 3000 -125 ct 
3010 -137 3018 -151 3023 -166 ct 3029 -182 3031 -198 3031 -214 ct 3031 -241 l 
p ef
3303 0 m  3303 -400 l  3303 -411 3303 -423 3303 -435 ct 3303 -448 3302 -460 3302 -471 ct 
3301 -483 3301 -493 3301 -502 ct 3300 -511 3300 -518 3299 -522 ct 3428 -522 l 
3429 -518 3430 -512 3430 -502 ct 3431 -493 3432 -482 3432 -471 ct 3433 -460 3433 -449 3434 -438 ct 
3434 -426 3435 -418 3435 -411 ct 3437 -411 l  3443 -430 3450 -447 3457 -462 ct 
3464 -477 3472 -489 3481 -500 ct 3490 -510 3501 -518 3514 -524 ct 3527 -530 3543 -532 3562 -532 ct 
3570 -532 3578 -532 3585 -530 ct 3593 -529 3599 -527 3604 -525 ct 3604 -412 l 
3595 -414 3586 -415 3577 -417 ct 3568 -418 3558 -419 3546 -419 ct 3512 -419 3486 -405 3467 -378 ct 
3448 -351 3439 -310 3439 -256 ct 3439 0 l  3303 0 l  p ef
3903 10 m  3865 10 3831 4 3801 -7 ct 3771 -18 3745 -35 3724 -57 ct 3703 -80 3687 -108 3675 -143 ct 
3664 -177 3659 -217 3659 -263 ct 3659 -313 3665 -355 3679 -389 ct 3692 -423 3710 -451 3733 -472 ct 
3755 -493 3781 -508 3811 -517 ct 3841 -527 3872 -531 3905 -531 ct 3946 -531 3981 -524 4010 -510 ct 
4039 -496 4063 -476 4082 -450 ct 4100 -424 4114 -394 4123 -358 ct 4131 -322 4136 -282 4136 -239 ct 
4136 -235 l  3801 -235 l  3801 -213 3803 -193 3807 -174 ct 3811 -155 3817 -139 3826 -125 ct 
3834 -111 3845 -101 3859 -93 ct 3873 -85 3890 -81 3909 -81 ct 3933 -81 3953 -86 3968 -96 ct 
3983 -106 3994 -122 4000 -143 ct 4128 -132 l  4122 -117 4114 -101 4104 -85 ct 
4093 -68 4079 -53 4062 -39 ct 4045 -25 4023 -13 3997 -4 ct 3971 5 3940 10 3903 10 ct 
p
3903 -446 m  3889 -446 3876 -444 3864 -439 ct 3852 -434 3841 -427 3833 -417 ct 
3824 -407 3817 -394 3811 -378 ct 3806 -362 3803 -342 3802 -320 ct 4004 -320 l 
4002 -362 3992 -393 3974 -414 ct 3956 -436 3933 -446 3903 -446 ct p ef
pom

pum
10336 11744 t
505 0 m  505 -291 l  208 -291 l  208 0 l  66 0 l  66 -680 l  208 -680 l 
208 -409 l  505 -409 l  505 -680 l  647 -680 l  647 0 l  505 0 l  p ef
901 10 m  876 10 853 7 833 0 ct 814 -7 797 -18 783 -31 ct 769 -44 758 -61 751 -81 ct 
744 -100 740 -123 740 -148 ct 740 -179 745 -205 756 -226 ct 767 -247 782 -264 800 -277 ct 
819 -291 841 -300 866 -306 ct 891 -312 918 -315 946 -315 ct 1058 -315 l  1058 -342 l 
1058 -361 1057 -377 1053 -390 ct 1050 -403 1045 -413 1039 -422 ct 1032 -430 1024 -435 1015 -439 ct 
1005 -442 994 -444 982 -444 ct 971 -444 961 -443 952 -441 ct 943 -439 935 -435 929 -429 ct 
923 -424 917 -417 913 -408 ct 909 -399 907 -387 905 -373 ct 764 -373 l  767 -397 775 -418 785 -437 ct 
795 -457 809 -473 828 -487 ct 846 -502 868 -513 895 -520 ct 921 -528 952 -532 988 -532 ct 
1020 -532 1049 -528 1075 -520 ct 1100 -512 1122 -500 1139 -484 ct 1157 -468 1171 -448 1180 -425 ct 
1189 -402 1194 -375 1194 -344 ct 1194 -154 l  1194 -142 1194 -131 1196 -121 ct 
1197 -112 1199 -104 1202 -97 ct 1205 -90 1209 -85 1215 -82 ct 1221 -79 1228 -77 1237 -77 ct 
1247 -77 1257 -78 1267 -80 ct 1267 -6 l  1259 -4 1251 -3 1245 -1 ct 1239 1 1232 2 1226 3 ct 
1219 4 1212 5 1205 5 ct 1198 6 1190 6 1180 6 ct 1146 6 1121 -2 1104 -19 ct 1088 -36 1078 -60 1075 -93 ct 
1072 -93 l  1054 -60 1031 -35 1003 -17 ct 975 1 941 10 901 10 ct p
1058 -241 m  989 -241 l  974 -241 961 -240 948 -238 ct 935 -236 923 -232 913 -227 ct 
904 -221 896 -213 890 -202 ct 884 -192 881 -177 881 -159 ct 881 -134 887 -115 898 -103 ct 
910 -91 925 -85 944 -85 ct 961 -85 977 -88 991 -96 ct 1005 -103 1017 -113 1027 -125 ct 
1037 -137 1045 -151 1050 -166 ct 1056 -182 1058 -198 1058 -214 ct 1058 -241 l 
p ef
1331 0 m  1331 -400 l  1331 -411 1331 -423 1331 -435 ct 1331 -448 1330 -460 1330 -471 ct 
1329 -483 1329 -493 1329 -502 ct 1328 -511 1328 -518 1327 -522 ct 1456 -522 l 
1457 -518 1458 -512 1458 -502 ct 1459 -493 1460 -482 1460 -471 ct 1461 -460 1461 -449 1462 -438 ct 
1462 -426 1463 -418 1463 -411 ct 1465 -411 l  1471 -430 1478 -447 1485 -462 ct 
1492 -477 1500 -489 1509 -500 ct 1518 -510 1529 -518 1542 -524 ct 1555 -530 1571 -532 1590 -532 ct 
1598 -532 1606 -532 1613 -530 ct 1621 -529 1627 -527 1632 -525 ct 1632 -412 l 
1623 -414 1614 -415 1605 -417 ct 1596 -418 1586 -419 1574 -419 ct 1540 -419 1514 -405 1495 -378 ct 
1476 -351 1467 -310 1467 -256 ct 1467 0 l  1331 0 l  p ef
2054 0 m  2054 -2 2053 -7 2052 -13 ct 2051 -20 2050 -27 2050 -36 ct 2049 -44 2048 -53 2048 -61 ct 
2047 -70 2047 -78 2047 -85 ct 2045 -85 l  2029 -51 2007 -27 1979 -12 ct 1951 3 1917 10 1878 10 ct 
1845 10 1817 3 1793 -10 ct 1769 -24 1749 -43 1734 -67 ct 1718 -91 1706 -119 1699 -152 ct 
1691 -185 1688 -221 1688 -260 ct 1688 -300 1691 -336 1699 -369 ct 1707 -403 1719 -431 1736 -455 ct 
1752 -479 1773 -498 1798 -511 ct 1823 -525 1853 -532 1888 -532 ct 1905 -532 1922 -530 1937 -526 ct 
1953 -523 1968 -517 1981 -510 ct 1995 -502 2007 -493 2018 -481 ct 2029 -470 2038 -456 2046 -439 ct 
2047 -439 l  2047 -443 2047 -447 2047 -454 ct 2047 -460 2046 -467 2046 -475 ct 
2046 -483 2046 -492 2046 -500 ct 2046 -509 2046 -517 2046 -525 ct 2046 -716 l 
2182 -716 l  2182 -114 l  2182 -88 2182 -65 2183 -46 ct 2184 -26 2185 -11 2185 0 ct 
2054 0 l  p
2048 -264 m  2048 -298 2045 -327 2038 -349 ct 2032 -372 2023 -390 2013 -403 ct 
2002 -417 1991 -426 1977 -431 ct 1964 -437 1950 -439 1936 -439 ct 1919 -439 1904 -436 1890 -429 ct 
1877 -423 1866 -412 1857 -397 ct 1847 -383 1841 -364 1836 -342 ct 1831 -319 1829 -292 1829 -260 ct 
1829 -142 1864 -83 1935 -83 ct 1949 -83 1963 -86 1976 -91 ct 1990 -97 2002 -107 2012 -121 ct 
2023 -135 2031 -153 2038 -177 ct 2045 -200 2048 -229 2048 -264 ct p ef
2881 0 m  2738 0 l  2655 -319 l  2653 -329 2650 -340 2647 -352 ct 2645 -365 2642 -376 2640 -387 ct 
2632 -426 l  2630 -413 2627 -400 2624 -387 ct 2621 -376 2619 -365 2616 -352 ct 
2613 -339 2610 -328 2607 -318 ct 2523 0 l  2380 0 l  2245 -523 l  2372 -523 l 
2439 -215 l  2440 -207 2443 -197 2445 -186 ct 2447 -175 2449 -165 2451 -156 ct 
2453 -145 2456 -134 2458 -123 ct 2461 -135 2463 -147 2465 -159 ct 2467 -169 2469 -179 2471 -189 ct 
2474 -200 2476 -208 2477 -215 ct 2559 -523 l  2704 -523 l  2784 -215 l  2787 -207 2789 -198 2791 -187 ct 
2793 -176 2796 -166 2797 -157 ct 2800 -146 2802 -135 2804 -123 ct 2807 -135 2809 -146 2811 -157 ct 
2813 -166 2815 -176 2818 -187 ct 2820 -198 2822 -207 2824 -215 ct 2893 -523 l 
3018 -523 l  2881 0 l  p ef
3204 10 m  3179 10 3156 7 3136 0 ct 3117 -7 3100 -18 3086 -31 ct 3072 -44 3061 -61 3054 -81 ct 
3047 -100 3043 -123 3043 -148 ct 3043 -179 3048 -205 3059 -226 ct 3070 -247 3085 -264 3103 -277 ct 
3122 -291 3144 -300 3169 -306 ct 3194 -312 3221 -315 3249 -315 ct 3361 -315 l 
3361 -342 l  3361 -361 3360 -377 3356 -390 ct 3353 -403 3348 -413 3342 -422 ct 
3335 -430 3327 -435 3318 -439 ct 3308 -442 3297 -444 3285 -444 ct 3274 -444 3264 -443 3255 -441 ct 
3246 -439 3238 -435 3232 -429 ct 3226 -424 3220 -417 3216 -408 ct 3212 -399 3210 -387 3208 -373 ct 
3067 -373 l  3070 -397 3078 -418 3088 -437 ct 3098 -457 3112 -473 3131 -487 ct 
3149 -502 3171 -513 3198 -520 ct 3224 -528 3255 -532 3291 -532 ct 3323 -532 3352 -528 3378 -520 ct 
3403 -512 3425 -500 3442 -484 ct 3460 -468 3474 -448 3483 -425 ct 3492 -402 3497 -375 3497 -344 ct 
3497 -154 l  3497 -142 3497 -131 3499 -121 ct 3500 -112 3502 -104 3505 -97 ct 
3508 -90 3512 -85 3518 -82 ct 3524 -79 3531 -77 3540 -77 ct 3550 -77 3560 -78 3570 -80 ct 
3570 -6 l  3562 -4 3554 -3 3548 -1 ct 3542 1 3535 2 3529 3 ct 3522 4 3515 5 3508 5 ct 
3501 6 3493 6 3483 6 ct 3449 6 3424 -2 3407 -19 ct 3391 -36 3381 -60 3378 -93 ct 
3375 -93 l  3357 -60 3334 -35 3306 -17 ct 3278 1 3244 10 3204 10 ct p
3361 -241 m  3292 -241 l  3277 -241 3264 -240 3251 -238 ct 3238 -236 3226 -232 3216 -227 ct 
3207 -221 3199 -213 3193 -202 ct 3187 -192 3184 -177 3184 -159 ct 3184 -134 3190 -115 3201 -103 ct 
3213 -91 3228 -85 3247 -85 ct 3264 -85 3280 -88 3294 -96 ct 3308 -103 3320 -113 3330 -125 ct 
3340 -137 3348 -151 3353 -166 ct 3359 -182 3361 -198 3361 -214 ct 3361 -241 l 
p ef
3633 0 m  3633 -400 l  3633 -411 3633 -423 3633 -435 ct 3633 -448 3632 -460 3632 -471 ct 
3631 -483 3631 -493 3631 -502 ct 3630 -511 3630 -518 3629 -522 ct 3758 -522 l 
3759 -518 3760 -512 3760 -502 ct 3761 -493 3762 -482 3762 -471 ct 3763 -460 3763 -449 3764 -438 ct 
3764 -426 3765 -418 3765 -411 ct 3767 -411 l  3773 -430 3780 -447 3787 -462 ct 
3794 -477 3802 -489 3811 -500 ct 3820 -510 3831 -518 3844 -524 ct 3857 -530 3873 -532 3892 -532 ct 
3900 -532 3908 -532 3915 -530 ct 3923 -529 3929 -527 3934 -525 ct 3934 -412 l 
3925 -414 3916 -415 3907 -417 ct 3898 -418 3888 -419 3876 -419 ct 3842 -419 3816 -405 3797 -378 ct 
3778 -351 3769 -310 3769 -256 ct 3769 0 l  3633 0 l  p ef
4233 10 m  4195 10 4161 4 4131 -7 ct 4101 -18 4075 -35 4054 -57 ct 4033 -80 4017 -108 4005 -143 ct 
3994 -177 3989 -217 3989 -263 ct 3989 -313 3995 -355 4009 -389 ct 4022 -423 4040 -451 4063 -472 ct 
4085 -493 4111 -508 4141 -517 ct 4171 -527 4202 -531 4235 -531 ct 4276 -531 4311 -524 4340 -510 ct 
4369 -496 4393 -476 4412 -450 ct 4430 -424 4444 -394 4453 -358 ct 4461 -322 4466 -282 4466 -239 ct 
4466 -235 l  4131 -235 l  4131 -213 4133 -193 4137 -174 ct 4141 -155 4147 -139 4156 -125 ct 
4164 -111 4175 -101 4189 -93 ct 4203 -85 4220 -81 4239 -81 ct 4263 -81 4283 -86 4298 -96 ct 
4313 -106 4324 -122 4330 -143 ct 4458 -132 l  4452 -117 4444 -101 4434 -85 ct 
4423 -68 4409 -53 4392 -39 ct 4375 -25 4353 -13 4327 -4 ct 4301 5 4270 10 4233 10 ct 
p
4233 -446 m  4219 -446 4206 -444 4194 -439 ct 4182 -434 4171 -427 4163 -417 ct 
4154 -407 4147 -394 4141 -378 ct 4136 -362 4133 -342 4132 -320 ct 4334 -320 l 
4332 -362 4322 -393 4304 -414 ct 4286 -436 4263 -446 4233 -446 ct p ef
pom

pum
11356 27132 t
505 0 m  505 -291 l  208 -291 l  208 0 l  66 0 l  66 -680 l  208 -680 l 
208 -409 l  505 -409 l  505 -680 l  647 -680 l  647 0 l  505 0 l  p ef
901 10 m  876 10 853 7 833 0 ct 814 -7 797 -18 783 -31 ct 769 -44 758 -61 751 -81 ct 
744 -100 740 -123 740 -148 ct 740 -179 745 -205 756 -226 ct 767 -247 782 -264 800 -277 ct 
819 -291 841 -300 866 -306 ct 891 -312 918 -315 946 -315 ct 1058 -315 l  1058 -342 l 
1058 -361 1057 -377 1053 -390 ct 1050 -403 1045 -413 1039 -422 ct 1032 -430 1024 -435 1015 -439 ct 
1005 -442 994 -444 982 -444 ct 971 -444 961 -443 952 -441 ct 943 -439 935 -435 929 -429 ct 
923 -424 917 -417 913 -408 ct 909 -399 907 -387 905 -373 ct 764 -373 l  767 -397 775 -418 785 -437 ct 
795 -457 809 -473 828 -487 ct 846 -502 868 -513 895 -520 ct 921 -528 952 -532 988 -532 ct 
1020 -532 1049 -528 1075 -520 ct 1100 -512 1122 -500 1139 -484 ct 1157 -468 1171 -448 1180 -425 ct 
1189 -402 1194 -375 1194 -344 ct 1194 -154 l  1194 -142 1194 -131 1196 -121 ct 
1197 -112 1199 -104 1202 -97 ct 1205 -90 1209 -85 1215 -82 ct 1221 -79 1228 -77 1237 -77 ct 
1247 -77 1257 -78 1267 -80 ct 1267 -6 l  1259 -4 1251 -3 1245 -1 ct 1239 1 1232 2 1226 3 ct 
1219 4 1212 5 1205 5 ct 1198 6 1190 6 1180 6 ct 1146 6 1121 -2 1104 -19 ct 1088 -36 1078 -60 1075 -93 ct 
1072 -93 l  1054 -60 1031 -35 1003 -17 ct 975 1 941 10 901 10 ct p
1058 -241 m  989 -241 l  974 -241 961 -240 948 -238 ct 935 -236 923 -232 913 -227 ct 
904 -221 896 -213 890 -202 ct 884 -192 881 -177 881 -159 ct 881 -134 887 -115 898 -103 ct 
910 -91 925 -85 944 -85 ct 961 -85 977 -88 991 -96 ct 1005 -103 1017 -113 1027 -125 ct 
1037 -137 1045 -151 1050 -166 ct 1056 -182 1058 -198 1058 -214 ct 1058 -241 l 
p ef
1331 0 m  1331 -400 l  1331 -411 1331 -423 1331 -435 ct 1331 -448 1330 -460 1330 -471 ct 
1329 -483 1329 -493 1329 -502 ct 1328 -511 1328 -518 1327 -522 ct 1456 -522 l 
1457 -518 1458 -512 1458 -502 ct 1459 -493 1460 -482 1460 -471 ct 1461 -460 1461 -449 1462 -438 ct 
1462 -426 1463 -418 1463 -411 ct 1465 -411 l  1471 -430 1478 -447 1485 -462 ct 
1492 -477 1500 -489 1509 -500 ct 1518 -510 1529 -518 1542 -524 ct 1555 -530 1571 -532 1590 -532 ct 
1598 -532 1606 -532 1613 -530 ct 1621 -529 1627 -527 1632 -525 ct 1632 -412 l 
1623 -414 1614 -415 1605 -417 ct 1596 -418 1586 -419 1574 -419 ct 1540 -419 1514 -405 1495 -378 ct 
1476 -351 1467 -310 1467 -256 ct 1467 0 l  1331 0 l  p ef
2054 0 m  2054 -2 2053 -7 2052 -13 ct 2051 -20 2050 -27 2050 -36 ct 2049 -44 2048 -53 2048 -61 ct 
2047 -70 2047 -78 2047 -85 ct 2045 -85 l  2029 -51 2007 -27 1979 -12 ct 1951 3 1917 10 1878 10 ct 
1845 10 1817 3 1793 -10 ct 1769 -24 1749 -43 1734 -67 ct 1718 -91 1706 -119 1699 -152 ct 
1691 -185 1688 -221 1688 -260 ct 1688 -300 1691 -336 1699 -369 ct 1707 -403 1719 -431 1736 -455 ct 
1752 -479 1773 -498 1798 -511 ct 1823 -525 1853 -532 1888 -532 ct 1905 -532 1922 -530 1937 -526 ct 
1953 -523 1968 -517 1981 -510 ct 1995 -502 2007 -493 2018 -481 ct 2029 -470 2038 -456 2046 -439 ct 
2047 -439 l  2047 -443 2047 -447 2047 -454 ct 2047 -460 2046 -467 2046 -475 ct 
2046 -483 2046 -492 2046 -500 ct 2046 -509 2046 -517 2046 -525 ct 2046 -716 l 
2182 -716 l  2182 -114 l  2182 -88 2182 -65 2183 -46 ct 2184 -26 2185 -11 2185 0 ct 
2054 0 l  p
2048 -264 m  2048 -298 2045 -327 2038 -349 ct 2032 -372 2023 -390 2013 -403 ct 
2002 -417 1991 -426 1977 -431 ct 1964 -437 1950 -439 1936 -439 ct 1919 -439 1904 -436 1890 -429 ct 
1877 -423 1866 -412 1857 -397 ct 1847 -383 1841 -364 1836 -342 ct 1831 -319 1829 -292 1829 -260 ct 
1829 -142 1864 -83 1935 -83 ct 1949 -83 1963 -86 1976 -91 ct 1990 -97 2002 -107 2012 -121 ct 
2023 -135 2031 -153 2038 -177 ct 2045 -200 2048 -229 2048 -264 ct p ef
2881 0 m  2738 0 l  2655 -319 l  2653 -329 2650 -340 2647 -352 ct 2645 -365 2642 -376 2640 -387 ct 
2632 -426 l  2630 -413 2627 -400 2624 -387 ct 2621 -376 2619 -365 2616 -352 ct 
2613 -339 2610 -328 2607 -318 ct 2523 0 l  2380 0 l  2245 -523 l  2372 -523 l 
2439 -215 l  2440 -207 2443 -197 2445 -186 ct 2447 -175 2449 -165 2451 -156 ct 
2453 -145 2456 -134 2458 -123 ct 2461 -135 2463 -147 2465 -159 ct 2467 -169 2469 -179 2471 -189 ct 
2474 -200 2476 -208 2477 -215 ct 2559 -523 l  2704 -523 l  2784 -215 l  2787 -207 2789 -198 2791 -187 ct 
2793 -176 2796 -166 2797 -157 ct 2800 -146 2802 -135 2804 -123 ct 2807 -135 2809 -146 2811 -157 ct 
2813 -166 2815 -176 2818 -187 ct 2820 -198 2822 -207 2824 -215 ct 2893 -523 l 
3018 -523 l  2881 0 l  p ef
3204 10 m  3179 10 3156 7 3136 0 ct 3117 -7 3100 -18 3086 -31 ct 3072 -44 3061 -61 3054 -81 ct 
3047 -100 3043 -123 3043 -148 ct 3043 -179 3048 -205 3059 -226 ct 3070 -247 3085 -264 3103 -277 ct 
3122 -291 3144 -300 3169 -306 ct 3194 -312 3221 -315 3249 -315 ct 3361 -315 l 
3361 -342 l  3361 -361 3360 -377 3356 -390 ct 3353 -403 3348 -413 3342 -422 ct 
3335 -430 3327 -435 3318 -439 ct 3308 -442 3297 -444 3285 -444 ct 3274 -444 3264 -443 3255 -441 ct 
3246 -439 3238 -435 3232 -429 ct 3226 -424 3220 -417 3216 -408 ct 3212 -399 3210 -387 3208 -373 ct 
3067 -373 l  3070 -397 3078 -418 3088 -437 ct 3098 -457 3112 -473 3131 -487 ct 
3149 -502 3171 -513 3198 -520 ct 3224 -528 3255 -532 3291 -532 ct 3323 -532 3352 -528 3378 -520 ct 
3403 -512 3425 -500 3442 -484 ct 3460 -468 3474 -448 3483 -425 ct 3492 -402 3497 -375 3497 -344 ct 
3497 -154 l  3497 -142 3497 -131 3499 -121 ct 3500 -112 3502 -104 3505 -97 ct 
3508 -90 3512 -85 3518 -82 ct 3524 -79 3531 -77 3540 -77 ct 3550 -77 3560 -78 3570 -80 ct 
3570 -6 l  3562 -4 3554 -3 3548 -1 ct 3542 1 3535 2 3529 3 ct 3522 4 3515 5 3508 5 ct 
3501 6 3493 6 3483 6 ct 3449 6 3424 -2 3407 -19 ct 3391 -36 3381 -60 3378 -93 ct 
3375 -93 l  3357 -60 3334 -35 3306 -17 ct 3278 1 3244 10 3204 10 ct p
3361 -241 m  3292 -241 l  3277 -241 3264 -240 3251 -238 ct 3238 -236 3226 -232 3216 -227 ct 
3207 -221 3199 -213 3193 -202 ct 3187 -192 3184 -177 3184 -159 ct 3184 -134 3190 -115 3201 -103 ct 
3213 -91 3228 -85 3247 -85 ct 3264 -85 3280 -88 3294 -96 ct 3308 -103 3320 -113 3330 -125 ct 
3340 -137 3348 -151 3353 -166 ct 3359 -182 3361 -198 3361 -214 ct 3361 -241 l 
p ef
3633 0 m  3633 -400 l  3633 -411 3633 -423 3633 -435 ct 3633 -448 3632 -460 3632 -471 ct 
3631 -483 3631 -493 3631 -502 ct 3630 -511 3630 -518 3629 -522 ct 3758 -522 l 
3759 -518 3760 -512 3760 -502 ct 3761 -493 3762 -482 3762 -471 ct 3763 -460 3763 -449 3764 -438 ct 
3764 -426 3765 -418 3765 -411 ct 3767 -411 l  3773 -430 3780 -447 3787 -462 ct 
3794 -477 3802 -489 3811 -500 ct 3820 -510 3831 -518 3844 -524 ct 3857 -530 3873 -532 3892 -532 ct 
3900 -532 3908 -532 3915 -530 ct 3923 -529 3929 -527 3934 -525 ct 3934 -412 l 
3925 -414 3916 -415 3907 -417 ct 3898 -418 3888 -419 3876 -419 ct 3842 -419 3816 -405 3797 -378 ct 
3778 -351 3769 -310 3769 -256 ct 3769 0 l  3633 0 l  p ef
4233 10 m  4195 10 4161 4 4131 -7 ct 4101 -18 4075 -35 4054 -57 ct 4033 -80 4017 -108 4005 -143 ct 
3994 -177 3989 -217 3989 -263 ct 3989 -313 3995 -355 4009 -389 ct 4022 -423 4040 -451 4063 -472 ct 
4085 -493 4111 -508 4141 -517 ct 4171 -527 4202 -531 4235 -531 ct 4276 -531 4311 -524 4340 -510 ct 
4369 -496 4393 -476 4412 -450 ct 4430 -424 4444 -394 4453 -358 ct 4461 -322 4466 -282 4466 -239 ct 
4466 -235 l  4131 -235 l  4131 -213 4133 -193 4137 -174 ct 4141 -155 4147 -139 4156 -125 ct 
4164 -111 4175 -101 4189 -93 ct 4203 -85 4220 -81 4239 -81 ct 4263 -81 4283 -86 4298 -96 ct 
4313 -106 4324 -122 4330 -143 ct 4458 -132 l  4452 -117 4444 -101 4434 -85 ct 
4423 -68 4409 -53 4392 -39 ct 4375 -25 4353 -13 4327 -4 ct 4301 5 4270 10 4233 10 ct 
p
4233 -446 m  4219 -446 4206 -444 4194 -439 ct 4182 -434 4171 -427 4163 -417 ct 
4154 -407 4147 -394 4141 -378 ct 4136 -362 4133 -342 4132 -320 ct 4334 -320 l 
4332 -362 4322 -393 4304 -414 ct 4286 -436 4263 -446 4233 -446 ct p ef
pom

pum
1724 30166 t
0.003 0.003 0.003 c 480 0 m  184 -524 l  185 -510 187 -495 188 -481 ct 189 -469 190 -456 191 -442 ct 
192 -428 192 -414 192 -401 ct 192 0 l  66 0 l  66 -680 l  229 -680 l  529 -152 l 
528 -166 526 -180 525 -195 ct 524 -207 523 -221 522 -237 ct 521 -253 521 -269 521 -285 ct 
521 -680 l  647 -680 l  647 0 l  480 0 l  p ef
994 10 m  956 10 922 4 892 -7 ct 862 -18 836 -35 815 -57 ct 794 -80 778 -108 766 -143 ct 
755 -177 750 -217 750 -263 ct 750 -313 756 -355 770 -389 ct 783 -423 801 -451 824 -472 ct 
846 -493 872 -508 902 -517 ct 932 -527 963 -531 996 -531 ct 1037 -531 1072 -524 1101 -510 ct 
1130 -496 1154 -476 1173 -450 ct 1191 -424 1205 -394 1214 -358 ct 1222 -322 1227 -282 1227 -239 ct 
1227 -235 l  892 -235 l  892 -213 894 -193 898 -174 ct 902 -155 908 -139 917 -125 ct 
925 -111 936 -101 950 -93 ct 964 -85 981 -81 1000 -81 ct 1024 -81 1044 -86 1059 -96 ct 
1074 -106 1085 -122 1091 -143 ct 1219 -132 l  1213 -117 1205 -101 1195 -85 ct 
1184 -68 1170 -53 1153 -39 ct 1136 -25 1114 -13 1088 -4 ct 1062 5 1031 10 994 10 ct 
p
994 -446 m  980 -446 967 -444 955 -439 ct 943 -434 932 -427 924 -417 ct 915 -407 908 -394 902 -378 ct 
897 -362 894 -342 893 -320 ct 1095 -320 l  1093 -362 1083 -393 1065 -414 ct 
1047 -436 1024 -446 994 -446 ct p ef
1465 9 m  1425 8 1394 -2 1372 -24 ct 1351 -46 1340 -79 1340 -123 ct 1340 -431 l 
1274 -431 l  1274 -523 l  1347 -523 l  1389 -646 l  1474 -646 l  1474 -523 l 
1573 -523 l  1573 -431 l  1474 -431 l  1474 -160 l  1474 -134 1479 -115 1489 -103 ct 
1498 -91 1513 -85 1534 -85 ct 1542 -85 1550 -86 1556 -87 ct 1563 -88 1571 -90 1579 -92 ct 
1579 -8 l  1562 -2 1545 2 1526 4 ct 1507 7 1487 8 1465 9 ct p ef
2225 0 m  2082 0 l  1999 -319 l  1997 -329 1994 -340 1991 -352 ct 1989 -365 1986 -376 1984 -387 ct 
1976 -426 l  1974 -413 1971 -400 1968 -387 ct 1965 -376 1963 -365 1960 -352 ct 
1957 -339 1954 -328 1951 -318 ct 1867 0 l  1724 0 l  1589 -523 l  1716 -523 l 
1783 -215 l  1784 -207 1787 -197 1789 -186 ct 1791 -175 1793 -165 1795 -156 ct 
1797 -145 1800 -134 1802 -123 ct 1805 -135 1807 -147 1809 -159 ct 1811 -169 1813 -179 1815 -189 ct 
1818 -200 1820 -208 1821 -215 ct 1903 -523 l  2048 -523 l  2128 -215 l  2131 -207 2133 -198 2135 -187 ct 
2137 -176 2140 -166 2141 -157 ct 2144 -146 2146 -135 2148 -123 ct 2151 -135 2153 -146 2155 -157 ct 
2157 -166 2159 -176 2162 -187 ct 2164 -198 2166 -207 2168 -215 ct 2237 -523 l 
2362 -523 l  2225 0 l  p ef
2923 -261 m  2923 -222 2917 -185 2906 -152 ct 2895 -119 2879 -90 2856 -66 ct 
2834 -42 2807 -23 2773 -10 ct 2740 3 2702 10 2658 10 ct 2615 10 2578 3 2545 -10 ct 
2513 -23 2485 -42 2463 -65 ct 2441 -89 2425 -118 2413 -151 ct 2402 -184 2397 -221 2397 -261 ct 
2397 -300 2402 -336 2413 -369 ct 2424 -402 2440 -431 2462 -455 ct 2484 -479 2511 -498 2544 -512 ct 
2577 -525 2616 -532 2660 -532 ct 2707 -532 2747 -525 2781 -512 ct 2814 -498 2841 -479 2862 -455 ct 
2883 -431 2898 -403 2908 -370 ct 2918 -337 2923 -301 2923 -261 ct p
2781 -261 m  2781 -324 2771 -369 2751 -397 ct 2730 -425 2701 -439 2662 -439 ct 
2623 -439 2592 -425 2571 -396 ct 2550 -368 2539 -323 2539 -261 ct 2539 -230 2542 -203 2547 -181 ct 
2553 -158 2561 -140 2571 -125 ct 2582 -111 2594 -100 2608 -93 ct 2623 -86 2639 -83 2656 -83 ct 
2676 -83 2694 -86 2709 -93 ct 2725 -100 2738 -111 2749 -125 ct 2759 -140 2767 -158 2773 -181 ct 
2778 -203 2781 -230 2781 -261 ct p ef
3028 0 m  3028 -400 l  3028 -411 3028 -423 3028 -435 ct 3028 -448 3027 -460 3027 -471 ct 
3026 -483 3026 -493 3026 -502 ct 3025 -511 3025 -518 3024 -522 ct 3153 -522 l 
3154 -518 3155 -512 3155 -502 ct 3156 -493 3157 -482 3157 -471 ct 3158 -460 3158 -449 3159 -438 ct 
3159 -426 3160 -418 3160 -411 ct 3162 -411 l  3168 -430 3175 -447 3182 -462 ct 
3189 -477 3197 -489 3206 -500 ct 3215 -510 3226 -518 3239 -524 ct 3252 -530 3268 -532 3287 -532 ct 
3295 -532 3303 -532 3310 -530 ct 3318 -529 3324 -527 3329 -525 ct 3329 -412 l 
3320 -414 3311 -415 3302 -417 ct 3293 -418 3283 -419 3271 -419 ct 3237 -419 3211 -405 3192 -378 ct 
3173 -351 3164 -310 3164 -256 ct 3164 0 l  3028 0 l  p ef
3746 0 m  3607 -236 l  3549 -196 l  3549 0 l  3413 0 l  3413 -716 l  3549 -716 l 
3549 -306 l  3735 -522 l  3880 -522 l  3697 -318 l  3894 0 l  3746 0 l 
p ef
pom
0 lw 10688 31000 m  238 31000 l  238 254 l  21138 254 l  21138 31000 l 
10688 31000 l  pc
gr
gs
0 0 m 21399 0 l 21399 31499 l 0 31499 l 0 0 l eoclip newpath
gr
gr
0 31500 t 
pom
count op_count sub {pop} repeat countdictstack dict_count sub {end} repeat b4_inc_state restore
%%PageTrailer
%%Trailer
%%EOF
