%!PS-Adobe-3.0 EPSF-3.0 
%%BoundingBox: 0 0 595 595
%%Pages: 0
%%Creator: Sun Microsystems, Inc.
%%Title: none
%%CreationDate: none
%%LanguageLevel: 2
%%EndComments
%%BeginProlog
%%BeginResource: procset SDRes-Prolog 1.0 0
/b4_inc_state save def
/dict_count countdictstack def
/op_count count 1 sub def
userdict begin
0 setgray 0 setlinecap 1 setlinewidth 0 setlinejoin 10 setmiterlimit[] 0 setdash newpath
/languagelevel where {pop languagelevel 1 ne {false setstrokeadjust false setoverprint} if} if
/bdef {bind def} bind def
/c {setgray} bdef
/l {neg lineto} bdef
/rl {neg rlineto} bdef
/lc {setlinecap} bdef
/lj {setlinejoin} bdef
/lw {setlinewidth} bdef
/ml {setmiterlimit} bdef
/ld {setdash} bdef
/m {neg moveto} bdef
/ct {6 2 roll neg 6 2 roll neg 6 2 roll neg curveto} bdef
/r {rotate} bdef
/t {neg translate} bdef
/s {scale} bdef
/sw {show} bdef
/gs {gsave} bdef
/gr {grestore} bdef
/f {findfont dup length dict begin
{1 index /FID ne {def} {pop pop} ifelse} forall /Encoding ISOLatin1Encoding def
currentdict end /NFont exch definefont pop /NFont findfont} bdef
/p {closepath} bdef
/sf {scalefont setfont} bdef
/ef {eofill}bdef
/pc {closepath stroke}bdef
/ps {stroke}bdef
/pum {matrix currentmatrix}bdef
/pom {setmatrix}bdef
/bs {/aString exch def /nXOfs exch def /nWidth exch def currentpoint nXOfs 0 rmoveto pum nWidth aString stringwidth pop div 1 scale aString show pom moveto} bdef
%%EndResource
%%EndProlog
%%BeginSetup
%%EndSetup
%%Page: 1 1
%%BeginPageSetup
%%EndPageSetup
pum
0.02833 0.02833 s 
0 -21000 t
/tm matrix currentmatrix def
gs
0 0 m 20999 0 l 20999 20999 l 0 20999 l 0 0 l eoclip newpath
gs
0 0 m 20999 0 l 20999 20999 l 0 20999 l 0 0 l eoclip newpath
0 lw 1 lj 0.000 c 8040 2500 m  11182 2500 13581 4773 13581 7750 ct 13581 10727 11182 13000 8040 13000 ct 
4898 13000 2499 10727 2499 7750 ct 2499 4773 4898 2500 8040 2500 ct pc
2499 2500 m  2499 2500 l  pc
13583 13001 m  13583 13001 l  pc
13249 3999 m  16792 3999 19499 6220 19499 9128 ct 19499 12036 16792 14257 13249 14257 ct 
9706 14257 7000 12036 7000 9128 ct 7000 6220 9706 3999 13249 3999 ct pc
7000 3999 m  7000 3999 l  pc
19501 14259 m  19501 14259 l  pc
9707 7000 m  12944 7000 15416 9273 15416 12250 ct 15416 15227 12944 17500 9707 17500 ct 
6470 17500 3999 15227 3999 12250 ct 3999 9273 6470 7000 9707 7000 ct pc
3999 7000 m  3999 7000 l  pc
15417 17501 m  15417 17501 l  pc

pum
15750 9391 t
0.222 c 323 0 m  242 0 l  4 -583 l  87 -583 l  248 -173 l  252 -160 256 -148 261 -136 ct 
265 -123 268 -112 272 -103 ct 276 -91 279 -80 283 -70 ct 286 -80 290 -90 294 -102 ct 
297 -111 301 -122 305 -134 ct 309 -147 313 -159 318 -173 ct 478 -583 l  561 -583 l 
323 0 l  p ef
1027 0 m  1027 -270 l  711 -270 l  711 0 l  632 0 l  632 -583 l  711 -583 l 
711 -336 l  1027 -336 l  1027 -583 l  1106 -583 l  1106 0 l  1027 0 l 
p ef
1744 -298 m  1744 -249 1737 -206 1722 -169 ct 1708 -132 1688 -101 1662 -76 ct 
1637 -51 1607 -32 1572 -19 ct 1538 -6 1500 0 1460 0 ct 1242 0 l  1242 -583 l 
1435 -583 l  1480 -583 1522 -577 1559 -566 ct 1597 -555 1630 -538 1657 -515 ct 
1685 -491 1706 -462 1721 -426 ct 1736 -390 1744 -347 1744 -298 ct p
1665 -298 m  1665 -337 1659 -371 1648 -399 ct 1636 -427 1621 -450 1600 -468 ct 
1580 -485 1555 -499 1527 -507 ct 1499 -515 1467 -520 1434 -520 ct 1321 -520 l 
1321 -63 l  1451 -63 l  1482 -63 1510 -68 1536 -78 ct 1562 -88 1585 -103 1604 -122 ct 
1623 -142 1638 -166 1649 -196 ct 1659 -225 1665 -259 1665 -298 ct p ef
1851 0 m  1851 -583 l  1930 -583 l  1930 -65 l  2225 -65 l  2225 0 l  1851 0 l 
p ef
pom

pum
1250 2252 t
532 -168 m  532 -142 527 -118 517 -96 ct 508 -74 493 -56 473 -40 ct 452 -25 426 -13 395 -5 ct 
363 4 326 8 282 8 ct 243 8 209 5 180 -2 ct 150 -9 125 -19 104 -33 ct 83 -46 66 -63 53 -83 ct 
40 -103 30 -126 24 -152 ct 142 -172 l  146 -159 150 -147 157 -136 ct 163 -125 172 -116 183 -108 ct 
194 -100 208 -94 225 -90 ct 241 -86 262 -83 285 -83 ct 327 -83 358 -90 380 -102 ct 
402 -115 413 -134 413 -161 ct 413 -177 409 -190 400 -201 ct 391 -211 379 -219 365 -226 ct 
350 -232 333 -238 314 -242 ct 295 -247 275 -251 255 -255 ct 238 -259 222 -263 205 -267 ct 
189 -271 173 -276 158 -282 ct 143 -288 129 -295 116 -303 ct 103 -311 92 -321 82 -332 ct 
73 -344 65 -358 60 -374 ct 54 -389 52 -408 52 -429 ct 52 -458 57 -483 69 -503 ct 
81 -524 97 -541 117 -554 ct 138 -567 162 -577 191 -583 ct 219 -589 250 -592 284 -592 ct 
322 -592 354 -589 382 -583 ct 409 -577 431 -568 450 -556 ct 468 -544 483 -529 493 -510 ct 
504 -492 512 -470 517 -446 ct 398 -430 l  392 -455 380 -474 361 -486 ct 343 -499 316 -506 281 -506 ct 
260 -506 242 -504 228 -500 ct 213 -496 202 -491 194 -485 ct 185 -478 179 -471 176 -463 ct 
172 -454 170 -445 170 -436 ct 170 -422 174 -410 181 -401 ct 188 -391 197 -384 210 -377 ct 
222 -371 237 -366 254 -362 ct 271 -357 290 -353 311 -349 ct 329 -345 347 -341 365 -336 ct 
383 -332 400 -327 416 -321 ct 433 -316 448 -309 462 -300 ct 476 -292 488 -282 499 -270 ct 
509 -258 517 -244 523 -227 ct 529 -210 532 -191 532 -168 ct p ef
1047 -224 m  1047 -190 1043 -159 1033 -131 ct 1024 -102 1009 -78 990 -57 ct 
971 -37 947 -21 919 -9 ct 891 2 858 8 820 8 ct 783 8 751 2 723 -9 ct 696 -20 672 -36 653 -57 ct 
634 -77 620 -101 611 -130 ct 601 -158 596 -190 596 -224 ct 596 -258 601 -289 610 -317 ct 
619 -345 633 -370 652 -390 ct 671 -411 694 -427 723 -439 ct 751 -450 784 -456 822 -456 ct 
863 -456 897 -450 925 -439 ct 954 -427 977 -411 995 -390 ct 1013 -370 1026 -346 1035 -317 ct 
1043 -289 1047 -258 1047 -224 ct p
926 -224 m  926 -278 917 -316 900 -340 ct 882 -364 857 -376 824 -376 ct 790 -376 764 -364 745 -340 ct 
727 -316 718 -277 718 -224 ct 718 -198 721 -175 725 -155 ct 730 -136 737 -120 746 -108 ct 
755 -95 765 -86 778 -80 ct 790 -74 804 -71 819 -71 ct 836 -71 851 -74 864 -80 ct 
878 -86 889 -95 898 -108 ct 907 -120 914 -136 919 -155 ct 923 -175 926 -198 926 -224 ct 
p ef
1276 -369 m  1276 0 l  1160 0 l  1160 -369 l  1094 -369 l  1094 -448 l 
1160 -448 l  1160 -494 l  1160 -512 1162 -527 1166 -542 ct 1170 -556 1177 -569 1187 -580 ct 
1197 -590 1210 -599 1227 -605 ct 1244 -611 1265 -614 1290 -614 ct 1303 -614 1316 -613 1329 -612 ct 
1342 -611 1354 -609 1364 -607 ct 1364 -532 l  1359 -534 1353 -534 1347 -535 ct 
1341 -536 1335 -536 1330 -536 ct 1319 -536 1310 -535 1303 -533 ct 1296 -531 1291 -527 1287 -523 ct 
1283 -519 1280 -513 1278 -506 ct 1276 -499 1276 -492 1276 -483 ct 1276 -448 l 
1364 -448 l  1364 -369 l  1276 -369 l  p ef
1537 8 m  1503 7 1476 -2 1458 -20 ct 1439 -39 1430 -67 1430 -105 ct 1430 -369 l 
1373 -369 l  1373 -448 l  1436 -448 l  1472 -553 l  1545 -553 l  1545 -448 l 
1630 -448 l  1630 -369 l  1545 -369 l  1545 -136 l  1545 -115 1549 -99 1557 -88 ct 
1566 -78 1578 -73 1596 -73 ct 1603 -73 1609 -73 1615 -74 ct 1621 -76 1628 -77 1635 -79 ct 
1635 -7 l  1620 -2 1605 2 1589 4 ct 1573 6 1556 7 1537 8 ct p ef
2190 0 m  2067 0 l  1996 -273 l  1994 -282 1992 -291 1989 -302 ct 1987 -312 1985 -322 1983 -332 ct 
1977 -365 l  1974 -354 1972 -343 1969 -332 ct 1967 -322 1965 -312 1962 -302 ct 
1960 -291 1957 -281 1955 -272 ct 1883 0 l  1760 0 l  1645 -448 l  1754 -448 l 
1810 -184 l  1812 -177 1814 -169 1816 -159 ct 1818 -150 1819 -142 1821 -134 ct 
1823 -124 1825 -115 1827 -105 ct 1829 -116 1831 -126 1833 -136 ct 1835 -145 1837 -153 1838 -162 ct 
1840 -171 1842 -178 1843 -184 ct 1914 -448 l  2038 -448 l  2107 -184 l  2109 -177 2111 -169 2113 -160 ct 
2115 -151 2116 -142 2118 -134 ct 2120 -125 2122 -115 2124 -105 ct 2126 -115 2128 -125 2130 -134 ct 
2132 -142 2134 -151 2135 -160 ct 2137 -169 2139 -177 2141 -184 ct 2200 -448 l 
2307 -448 l  2190 0 l  p ef
2470 8 m  2448 8 2429 5 2412 -1 ct 2395 -7 2380 -16 2369 -27 ct 2357 -39 2348 -53 2341 -70 ct 
2335 -87 2332 -106 2332 -127 ct 2332 -154 2336 -176 2346 -195 ct 2355 -213 2368 -227 2384 -239 ct 
2400 -250 2418 -258 2440 -263 ct 2461 -268 2484 -271 2508 -271 ct 2605 -271 l 
2605 -294 l  2605 -310 2603 -324 2600 -335 ct 2598 -346 2593 -355 2588 -362 ct 
2582 -369 2575 -374 2567 -377 ct 2559 -380 2550 -381 2539 -381 ct 2530 -381 2521 -380 2514 -378 ct 
2506 -376 2499 -373 2494 -369 ct 2488 -364 2484 -358 2481 -350 ct 2477 -342 2475 -333 2473 -321 ct 
2352 -321 l  2355 -341 2361 -359 2370 -375 ct 2379 -392 2391 -406 2407 -418 ct 
2422 -430 2442 -440 2464 -446 ct 2487 -453 2514 -456 2544 -456 ct 2572 -456 2597 -453 2619 -446 ct 
2641 -439 2659 -429 2674 -415 ct 2689 -401 2701 -385 2709 -365 ct 2717 -345 2721 -322 2721 -296 ct 
2721 -133 l  2721 -122 2721 -113 2722 -105 ct 2723 -96 2725 -89 2728 -84 ct 
2730 -78 2734 -74 2739 -71 ct 2744 -68 2750 -66 2758 -66 ct 2767 -66 2775 -67 2783 -69 ct 
2783 -6 l  2777 -4 2770 -3 2765 -2 ct 2759 0 2754 1 2748 2 ct 2743 3 2737 3 2731 4 ct 
2725 4 2717 5 2709 5 ct 2680 5 2658 -2 2644 -17 ct 2630 -31 2622 -52 2619 -80 ct 
2617 -80 l  2601 -52 2582 -31 2557 -15 ct 2533 0 2504 8 2470 8 ct p
2605 -207 m  2545 -207 l  2533 -207 2521 -206 2510 -205 ct 2499 -203 2489 -200 2480 -195 ct 
2472 -190 2465 -183 2460 -174 ct 2455 -165 2453 -152 2453 -137 ct 2453 -115 2458 -99 2468 -89 ct 
2477 -78 2490 -73 2507 -73 ct 2522 -73 2535 -76 2547 -83 ct 2559 -89 2570 -97 2578 -108 ct 
2587 -118 2593 -130 2598 -143 ct 2602 -157 2605 -170 2605 -184 ct 2605 -207 l 
p ef
2836 0 m  2836 -343 l  2836 -352 2836 -362 2836 -373 ct 2836 -384 2836 -394 2835 -404 ct 
2835 -414 2834 -423 2834 -431 ct 2834 -438 2833 -444 2833 -448 ct 2944 -448 l 
2944 -444 2945 -439 2945 -431 ct 2946 -422 2946 -413 2947 -404 ct 2948 -394 2948 -385 2948 -375 ct 
2949 -365 2949 -358 2949 -352 ct 2951 -352 l  2957 -368 2962 -383 2968 -396 ct 
2974 -408 2981 -419 2989 -428 ct 2996 -437 3006 -444 3017 -449 ct 3028 -454 3042 -456 3058 -456 ct 
3065 -456 3072 -456 3078 -454 ct 3085 -453 3090 -452 3094 -450 ct 3094 -353 l 
3086 -354 3079 -356 3071 -357 ct 3064 -358 3055 -359 3044 -359 ct 3015 -359 2993 -347 2977 -324 ct 
2960 -300 2952 -266 2952 -220 ct 2952 0 l  2836 0 l  p ef
3349 8 m  3317 8 3288 3 3262 -6 ct 3237 -16 3215 -30 3196 -50 ct 3178 -69 3164 -94 3155 -123 ct 
3145 -152 3140 -187 3140 -226 ct 3140 -269 3146 -305 3157 -334 ct 3169 -363 3184 -387 3204 -405 ct 
3223 -423 3245 -436 3271 -444 ct 3296 -452 3323 -456 3351 -456 ct 3386 -456 3416 -450 3441 -438 ct 
3466 -426 3487 -408 3503 -386 ct 3519 -364 3531 -338 3538 -307 ct 3545 -276 3549 -243 3549 -205 ct 
3549 -202 l  3262 -202 l  3262 -183 3264 -166 3267 -150 ct 3270 -133 3276 -119 3283 -108 ct 
3291 -96 3300 -87 3312 -80 ct 3324 -73 3338 -70 3355 -70 ct 3376 -70 3392 -74 3405 -83 ct 
3418 -92 3427 -105 3433 -123 ct 3543 -114 l  3538 -101 3531 -88 3522 -73 ct 
3513 -59 3501 -46 3486 -34 ct 3471 -22 3452 -12 3430 -4 ct 3408 4 3381 8 3349 8 ct 
p
3349 -383 m  3338 -383 3326 -381 3316 -377 ct 3306 -373 3297 -367 3289 -358 ct 
3282 -349 3275 -338 3271 -324 ct 3266 -311 3263 -294 3263 -275 ct 3437 -275 l 
3434 -311 3426 -338 3411 -356 ct 3395 -374 3375 -383 3349 -383 ct p ef
pom

pum
7250 15891 t
447 0 m  136 -497 l  136 -483 137 -470 138 -456 ct 138 -445 139 -433 139 -421 ct 
140 -408 140 -397 140 -387 ct 140 0 l  69 0 l  69 -583 l  161 -583 l  476 -83 l 
476 -97 475 -110 474 -124 ct 473 -135 473 -148 472 -162 ct 472 -175 471 -188 471 -201 ct 
471 -583 l  543 -583 l  543 0 l  447 0 l  p ef
1136 -161 m  1136 -137 1131 -114 1122 -93 ct 1112 -73 1098 -55 1078 -40 ct 1058 -25 1033 -13 1003 -5 ct 
973 4 937 8 895 8 ct 823 8 766 -5 726 -30 ct 685 -55 659 -92 648 -140 ct 725 -155 l 
729 -140 735 -126 743 -114 ct 751 -102 762 -91 775 -82 ct 789 -73 806 -66 826 -61 ct 
846 -56 870 -54 898 -54 ct 922 -54 943 -56 963 -60 ct 982 -64 999 -70 1013 -78 ct 
1027 -86 1038 -97 1046 -110 ct 1054 -123 1058 -139 1058 -157 ct 1058 -176 1054 -192 1045 -203 ct 
1036 -215 1024 -225 1008 -233 ct 993 -241 974 -247 952 -252 ct 930 -258 906 -263 880 -269 ct 
863 -273 847 -277 831 -281 ct 814 -285 799 -290 783 -296 ct 768 -302 754 -309 741 -317 ct 
728 -325 716 -335 707 -346 ct 697 -357 690 -370 684 -385 ct 679 -400 676 -417 676 -436 ct 
676 -464 681 -487 693 -507 ct 704 -527 719 -543 739 -556 ct 759 -568 782 -578 809 -583 ct 
836 -589 866 -592 897 -592 ct 933 -592 964 -589 990 -584 ct 1015 -578 1037 -569 1055 -558 ct 
1072 -547 1086 -533 1097 -516 ct 1108 -499 1116 -480 1122 -458 ct 1045 -444 l 
1041 -458 1035 -471 1028 -482 ct 1021 -493 1011 -502 999 -510 ct 987 -517 973 -523 956 -527 ct 
939 -530 919 -532 896 -532 ct 869 -532 846 -530 828 -525 ct 810 -520 795 -514 784 -506 ct 
773 -497 765 -488 760 -476 ct 755 -465 753 -453 753 -440 ct 753 -423 757 -408 766 -397 ct 
774 -386 786 -377 801 -369 ct 816 -362 833 -356 853 -351 ct 872 -346 893 -341 915 -336 ct 
933 -332 951 -328 969 -323 ct 987 -319 1004 -314 1020 -308 ct 1036 -302 1051 -295 1066 -287 ct 
1080 -279 1092 -269 1103 -258 ct 1113 -246 1121 -232 1127 -217 ct 1133 -201 1136 -182 1136 -161 ct 
p ef
1216 0 m  1216 -53 l  1230 -85 1247 -113 1267 -138 ct 1287 -163 1309 -185 1331 -205 ct 
1353 -225 1375 -244 1397 -261 ct 1419 -278 1439 -295 1457 -312 ct 1474 -329 1489 -347 1500 -366 ct 
1510 -385 1516 -406 1516 -430 ct 1516 -446 1513 -461 1508 -473 ct 1503 -486 1496 -497 1487 -505 ct 
1478 -514 1466 -520 1453 -524 ct 1440 -529 1426 -531 1410 -531 ct 1395 -531 1381 -529 1368 -525 ct 
1354 -520 1343 -514 1333 -506 ct 1322 -498 1314 -487 1308 -475 ct 1301 -463 1297 -449 1295 -432 ct 
1219 -439 l  1221 -460 1227 -480 1236 -498 ct 1245 -517 1258 -533 1274 -547 ct 
1290 -561 1309 -572 1332 -580 ct 1354 -588 1380 -592 1410 -592 ct 1439 -592 1464 -589 1487 -582 ct 
1510 -575 1529 -565 1544 -551 ct 1560 -537 1572 -521 1580 -501 ct 1588 -481 1592 -458 1592 -432 ct 
1592 -413 1589 -394 1582 -376 ct 1575 -359 1565 -342 1554 -326 ct 1542 -310 1528 -294 1513 -279 ct 
1498 -265 1481 -250 1465 -236 ct 1448 -222 1431 -207 1414 -194 ct 1397 -180 1381 -166 1366 -151 ct 
1351 -137 1337 -123 1325 -109 ct 1313 -94 1304 -79 1297 -63 ct 1601 -63 l  1601 0 l 
1216 0 l  p ef
pom

pum
8250 9891 t
526 -161 m  526 -137 521 -114 512 -93 ct 502 -73 488 -55 468 -40 ct 448 -25 423 -13 393 -5 ct 
363 4 327 8 285 8 ct 213 8 156 -5 116 -30 ct 75 -55 49 -92 38 -140 ct 115 -155 l 
119 -140 125 -126 133 -114 ct 141 -102 152 -91 165 -82 ct 179 -73 196 -66 216 -61 ct 
236 -56 260 -54 288 -54 ct 312 -54 333 -56 353 -60 ct 372 -64 389 -70 403 -78 ct 
417 -86 428 -97 436 -110 ct 444 -123 448 -139 448 -157 ct 448 -176 444 -192 435 -203 ct 
426 -215 414 -225 398 -233 ct 383 -241 364 -247 342 -252 ct 320 -258 296 -263 270 -269 ct 
253 -273 237 -277 221 -281 ct 204 -285 189 -290 173 -296 ct 158 -302 144 -309 131 -317 ct 
118 -325 106 -335 97 -346 ct 87 -357 80 -370 74 -385 ct 69 -400 66 -417 66 -436 ct 
66 -464 71 -487 83 -507 ct 94 -527 109 -543 129 -556 ct 149 -568 172 -578 199 -583 ct 
226 -589 256 -592 287 -592 ct 323 -592 354 -589 380 -584 ct 405 -578 427 -569 445 -558 ct 
462 -547 476 -533 487 -516 ct 498 -499 506 -480 512 -458 ct 435 -444 l  431 -458 425 -471 418 -482 ct 
411 -493 401 -502 389 -510 ct 377 -517 363 -523 346 -527 ct 329 -530 309 -532 286 -532 ct 
259 -532 236 -530 218 -525 ct 200 -520 185 -514 174 -506 ct 163 -497 155 -488 150 -476 ct 
145 -465 143 -453 143 -440 ct 143 -423 147 -408 156 -397 ct 164 -386 176 -377 191 -369 ct 
206 -362 223 -356 243 -351 ct 262 -346 283 -341 305 -336 ct 323 -332 341 -328 359 -323 ct 
377 -319 394 -314 410 -308 ct 426 -302 441 -295 456 -287 ct 470 -279 482 -269 493 -258 ct 
503 -246 511 -232 517 -217 ct 523 -201 526 -182 526 -161 ct p ef
891 -527 m  857 -527 828 -522 803 -511 ct 777 -500 756 -484 739 -464 ct 721 -443 708 -419 699 -390 ct 
691 -361 686 -330 686 -294 ct 686 -259 691 -227 701 -198 ct 710 -169 724 -144 741 -123 ct 
759 -102 781 -86 807 -74 ct 833 -63 862 -57 894 -57 ct 916 -57 937 -60 956 -66 ct 
974 -72 991 -80 1006 -91 ct 1021 -102 1035 -114 1046 -129 ct 1058 -144 1069 -160 1078 -178 ct 
1142 -146 l  1132 -124 1119 -104 1104 -85 ct 1088 -66 1070 -50 1049 -36 ct 1028 -22 1005 -12 978 -4 ct 
952 4 923 8 890 8 ct 843 8 802 0 766 -15 ct 731 -30 701 -51 677 -77 ct 654 -104 636 -136 624 -173 ct 
612 -210 606 -251 606 -294 ct 606 -340 612 -381 625 -418 ct 637 -454 656 -486 680 -512 ct 
704 -537 734 -557 769 -571 ct 804 -585 845 -592 890 -592 ct 952 -592 1004 -580 1045 -556 ct 
1087 -531 1117 -495 1137 -448 ct 1062 -423 l  1057 -437 1049 -450 1040 -462 ct 
1030 -475 1019 -486 1005 -496 ct 991 -505 974 -513 955 -519 ct 936 -525 915 -527 891 -527 ct 
p ef
1620 0 m  1309 -497 l  1309 -483 1310 -470 1311 -456 ct 1311 -445 1312 -433 1312 -421 ct 
1313 -408 1313 -397 1313 -387 ct 1313 0 l  1242 0 l  1242 -583 l  1334 -583 l 
1649 -83 l  1649 -97 1648 -110 1647 -124 ct 1646 -135 1646 -148 1645 -162 ct 
1645 -175 1644 -188 1644 -201 ct 1644 -583 l  1716 -583 l  1716 0 l  1620 0 l 
p ef
2308 -161 m  2308 -137 2303 -114 2294 -93 ct 2284 -73 2270 -55 2250 -40 ct 2230 -25 2205 -13 2175 -5 ct 
2145 4 2109 8 2067 8 ct 1995 8 1938 -5 1898 -30 ct 1857 -55 1831 -92 1820 -140 ct 
1897 -155 l  1901 -140 1907 -126 1915 -114 ct 1923 -102 1934 -91 1947 -82 ct 
1961 -73 1978 -66 1998 -61 ct 2018 -56 2042 -54 2070 -54 ct 2094 -54 2115 -56 2135 -60 ct 
2154 -64 2171 -70 2185 -78 ct 2199 -86 2210 -97 2218 -110 ct 2226 -123 2230 -139 2230 -157 ct 
2230 -176 2226 -192 2217 -203 ct 2208 -215 2196 -225 2180 -233 ct 2165 -241 2146 -247 2124 -252 ct 
2102 -258 2078 -263 2052 -269 ct 2035 -273 2019 -277 2003 -281 ct 1986 -285 1971 -290 1955 -296 ct 
1940 -302 1926 -309 1913 -317 ct 1900 -325 1888 -335 1879 -346 ct 1869 -357 1862 -370 1856 -385 ct 
1851 -400 1848 -417 1848 -436 ct 1848 -464 1853 -487 1865 -507 ct 1876 -527 1891 -543 1911 -556 ct 
1931 -568 1954 -578 1981 -583 ct 2008 -589 2038 -592 2069 -592 ct 2105 -592 2136 -589 2162 -584 ct 
2187 -578 2209 -569 2227 -558 ct 2244 -547 2258 -533 2269 -516 ct 2280 -499 2288 -480 2294 -458 ct 
2217 -444 l  2213 -458 2207 -471 2200 -482 ct 2193 -493 2183 -502 2171 -510 ct 
2159 -517 2145 -523 2128 -527 ct 2111 -530 2091 -532 2068 -532 ct 2041 -532 2018 -530 2000 -525 ct 
1982 -520 1967 -514 1956 -506 ct 1945 -497 1937 -488 1932 -476 ct 1927 -465 1925 -453 1925 -440 ct 
1925 -423 1929 -408 1938 -397 ct 1946 -386 1958 -377 1973 -369 ct 1988 -362 2005 -356 2025 -351 ct 
2044 -346 2065 -341 2087 -336 ct 2105 -332 2123 -328 2141 -323 ct 2159 -319 2176 -314 2192 -308 ct 
2208 -302 2223 -295 2238 -287 ct 2252 -279 2264 -269 2275 -258 ct 2285 -246 2293 -232 2299 -217 ct 
2305 -201 2308 -182 2308 -161 ct p ef
2414 0 m  2414 -583 l  2493 -583 l  2493 -65 l  2788 -65 l  2788 0 l  2414 0 l 
p ef
pom

pum
4750 5891 t
328 -527 m  294 -527 265 -522 240 -511 ct 214 -500 193 -484 176 -464 ct 158 -443 145 -419 136 -390 ct 
128 -361 123 -330 123 -294 ct 123 -259 128 -227 138 -198 ct 147 -169 161 -144 178 -123 ct 
196 -102 218 -86 244 -74 ct 270 -63 299 -57 331 -57 ct 353 -57 374 -60 393 -66 ct 
411 -72 428 -80 443 -91 ct 458 -102 472 -114 483 -129 ct 495 -144 506 -160 515 -178 ct 
579 -146 l  569 -124 556 -104 541 -85 ct 525 -66 507 -50 486 -36 ct 465 -22 442 -12 415 -4 ct 
389 4 360 8 327 8 ct 280 8 239 0 203 -15 ct 168 -30 138 -51 114 -77 ct 91 -104 73 -136 61 -173 ct 
49 -210 43 -251 43 -294 ct 43 -340 49 -381 62 -418 ct 74 -454 93 -486 117 -512 ct 
141 -537 171 -557 206 -571 ct 241 -585 282 -592 327 -592 ct 389 -592 441 -580 482 -556 ct 
524 -531 554 -495 574 -448 ct 499 -423 l  494 -437 486 -450 477 -462 ct 467 -475 456 -486 442 -496 ct 
428 -505 411 -513 392 -519 ct 373 -525 352 -527 328 -527 ct p ef
888 -251 m  888 -74 l  827 -74 l  827 -251 l  651 -251 l  651 -311 l  827 -311 l 
827 -489 l  888 -489 l  888 -311 l  1063 -311 l  1063 -251 l  888 -251 l 
p ef
1383 -251 m  1383 -74 l  1322 -74 l  1322 -251 l  1146 -251 l  1146 -311 l 
1322 -311 l  1322 -489 l  1383 -489 l  1383 -311 l  1558 -311 l  1558 -251 l 
1383 -251 l  p ef
pom

pum
9250 6391 t
526 -161 m  526 -137 521 -114 512 -93 ct 502 -73 488 -55 468 -40 ct 448 -25 423 -13 393 -5 ct 
363 4 327 8 285 8 ct 213 8 156 -5 116 -30 ct 75 -55 49 -92 38 -140 ct 115 -155 l 
119 -140 125 -126 133 -114 ct 141 -102 152 -91 165 -82 ct 179 -73 196 -66 216 -61 ct 
236 -56 260 -54 288 -54 ct 312 -54 333 -56 353 -60 ct 372 -64 389 -70 403 -78 ct 
417 -86 428 -97 436 -110 ct 444 -123 448 -139 448 -157 ct 448 -176 444 -192 435 -203 ct 
426 -215 414 -225 398 -233 ct 383 -241 364 -247 342 -252 ct 320 -258 296 -263 270 -269 ct 
253 -273 237 -277 221 -281 ct 204 -285 189 -290 173 -296 ct 158 -302 144 -309 131 -317 ct 
118 -325 106 -335 97 -346 ct 87 -357 80 -370 74 -385 ct 69 -400 66 -417 66 -436 ct 
66 -464 71 -487 83 -507 ct 94 -527 109 -543 129 -556 ct 149 -568 172 -578 199 -583 ct 
226 -589 256 -592 287 -592 ct 323 -592 354 -589 380 -584 ct 405 -578 427 -569 445 -558 ct 
462 -547 476 -533 487 -516 ct 498 -499 506 -480 512 -458 ct 435 -444 l  431 -458 425 -471 418 -482 ct 
411 -493 401 -502 389 -510 ct 377 -517 363 -523 346 -527 ct 329 -530 309 -532 286 -532 ct 
259 -532 236 -530 218 -525 ct 200 -520 185 -514 174 -506 ct 163 -497 155 -488 150 -476 ct 
145 -465 143 -453 143 -440 ct 143 -423 147 -408 156 -397 ct 164 -386 176 -377 191 -369 ct 
206 -362 223 -356 243 -351 ct 262 -346 283 -341 305 -336 ct 323 -332 341 -328 359 -323 ct 
377 -319 394 -314 410 -308 ct 426 -302 441 -295 456 -287 ct 470 -279 482 -269 493 -258 ct 
503 -246 511 -232 517 -217 ct 523 -201 526 -182 526 -161 ct p ef
813 -1 m  802 26 792 51 781 72 ct 770 94 758 112 744 128 ct 731 143 716 155 699 163 ct 
683 171 664 175 642 175 ct 633 175 624 175 616 175 ct 608 175 600 174 591 171 ct 
591 115 l  596 117 602 117 608 117 ct 615 117 621 117 625 117 ct 647 117 668 109 686 93 ct 
705 77 721 51 735 15 ct 742 -2 l  565 -448 l  644 -448 l  739 -200 l  742 -193 745 -183 749 -171 ct 
754 -158 758 -146 762 -133 ct 766 -121 770 -110 774 -100 ct 777 -90 779 -84 779 -81 ct 
780 -84 782 -90 785 -99 ct 788 -108 792 -118 796 -129 ct 800 -140 804 -151 808 -163 ct 
812 -174 816 -184 819 -192 ct 906 -448 l  985 -448 l  813 -1 l  p ef
1379 -124 m  1379 -103 1375 -84 1367 -68 ct 1359 -52 1347 -38 1331 -27 ct 1316 -15 1297 -7 1274 -1 ct 
1252 5 1226 8 1197 8 ct 1171 8 1148 6 1127 2 ct 1106 -2 1088 -8 1072 -17 ct 1057 -26 1044 -38 1033 -52 ct 
1022 -67 1015 -84 1010 -105 ct 1075 -118 l  1082 -94 1095 -77 1115 -65 ct 1134 -54 1162 -49 1197 -49 ct 
1213 -49 1228 -50 1241 -52 ct 1255 -54 1266 -58 1276 -63 ct 1286 -69 1293 -76 1298 -85 ct 
1304 -94 1307 -105 1307 -118 ct 1307 -132 1303 -143 1297 -152 ct 1291 -160 1282 -167 1271 -173 ct 
1259 -179 1246 -184 1229 -188 ct 1213 -193 1196 -197 1176 -203 ct 1158 -207 1141 -213 1123 -218 ct 
1105 -224 1089 -232 1075 -241 ct 1061 -251 1049 -263 1041 -277 ct 1032 -291 1027 -308 1027 -330 ct 
1027 -370 1042 -402 1071 -423 ct 1100 -444 1142 -455 1198 -455 ct 1248 -455 1287 -446 1316 -429 ct 
1345 -412 1363 -384 1371 -345 ct 1304 -337 l  1302 -349 1297 -358 1290 -366 ct 
1284 -374 1276 -380 1266 -385 ct 1257 -390 1246 -394 1235 -396 ct 1223 -398 1211 -399 1198 -399 ct 
1165 -399 1140 -394 1124 -383 ct 1108 -373 1100 -358 1100 -337 ct 1100 -325 1103 -315 1109 -307 ct 
1115 -299 1123 -293 1133 -287 ct 1144 -282 1157 -277 1172 -273 ct 1187 -269 1203 -265 1221 -261 ct 
1233 -258 1245 -254 1257 -251 ct 1270 -247 1282 -243 1293 -238 ct 1305 -234 1316 -228 1327 -221 ct 
1337 -215 1346 -207 1354 -198 ct 1361 -189 1368 -178 1372 -166 ct 1377 -154 1379 -140 1379 -124 ct 
p ef
1639 -3 m  1628 0 1616 2 1605 4 ct 1593 6 1579 7 1564 7 ct 1504 7 1475 -27 1475 -94 ct 
1475 -393 l  1423 -393 l  1423 -447 l  1477 -447 l  1499 -548 l  1549 -548 l 
1549 -447 l  1632 -447 l  1632 -393 l  1549 -393 l  1549 -110 l  1549 -89 1552 -74 1560 -65 ct 
1567 -57 1579 -52 1596 -52 ct 1603 -52 1610 -53 1617 -54 ct 1624 -55 1631 -56 1639 -58 ct 
1639 -3 l  p ef
1761 -208 m  1761 -185 1764 -163 1768 -143 ct 1773 -124 1781 -107 1791 -93 ct 
1801 -78 1814 -67 1829 -60 ct 1845 -52 1864 -48 1886 -48 ct 1918 -48 1944 -54 1964 -67 ct 
1983 -80 1996 -97 2003 -116 ct 2068 -98 l  2064 -85 2057 -73 2049 -60 ct 2040 -48 2029 -37 2015 -27 ct 
2001 -16 1983 -8 1962 -2 ct 1941 5 1916 8 1886 8 ct 1820 8 1769 -12 1735 -51 ct 
1700 -91 1683 -149 1683 -227 ct 1683 -269 1688 -304 1699 -333 ct 1709 -363 1724 -386 1742 -404 ct 
1760 -423 1781 -436 1805 -444 ct 1830 -452 1856 -456 1883 -456 ct 1921 -456 1952 -450 1977 -438 ct 
2002 -426 2023 -409 2038 -388 ct 2053 -366 2064 -341 2071 -312 ct 2077 -283 2080 -252 2080 -218 ct 
2080 -208 l  1761 -208 l  p
2004 -265 m  1999 -312 1987 -347 1968 -368 ct 1948 -390 1919 -401 1882 -401 ct 
1870 -401 1856 -399 1843 -395 ct 1829 -391 1817 -384 1805 -374 ct 1793 -363 1784 -350 1776 -332 ct 
1768 -314 1763 -292 1762 -265 ct 2004 -265 l  p ef
2435 0 m  2435 -284 l  2435 -306 2433 -324 2430 -338 ct 2428 -353 2423 -365 2417 -374 ct 
2410 -383 2402 -389 2391 -393 ct 2381 -397 2368 -398 2353 -398 ct 2337 -398 2323 -395 2310 -389 ct 
2297 -383 2287 -374 2278 -362 ct 2269 -351 2262 -336 2257 -319 ct 2252 -302 2250 -282 2250 -259 ct 
2250 0 l  2176 0 l  2176 -352 l  2176 -362 2176 -371 2176 -382 ct 2175 -392 2175 -402 2175 -411 ct 
2175 -420 2174 -428 2174 -435 ct 2174 -442 2174 -446 2173 -448 ct 2244 -448 l 
2244 -446 2244 -443 2244 -437 ct 2245 -430 2245 -424 2245 -416 ct 2246 -408 2246 -400 2246 -392 ct 
2247 -384 2247 -377 2247 -371 ct 2248 -371 l  2255 -384 2262 -396 2270 -406 ct 
2277 -417 2286 -426 2297 -433 ct 2307 -440 2319 -446 2332 -450 ct 2346 -454 2361 -456 2379 -456 ct 
2413 -456 2440 -449 2459 -436 ct 2479 -422 2493 -401 2500 -371 ct 2502 -371 l 
2508 -384 2516 -396 2524 -406 ct 2532 -417 2542 -426 2553 -433 ct 2564 -440 2576 -446 2590 -450 ct 
2604 -454 2620 -456 2637 -456 ct 2660 -456 2679 -453 2696 -447 ct 2712 -441 2726 -431 2736 -419 ct 
2747 -406 2754 -390 2759 -370 ct 2764 -350 2767 -326 2767 -298 ct 2767 0 l  2693 0 l 
2693 -284 l  2693 -306 2692 -324 2689 -338 ct 2686 -353 2682 -365 2675 -374 ct 
2669 -383 2660 -389 2650 -393 ct 2639 -397 2626 -398 2611 -398 ct 2596 -398 2581 -396 2569 -390 ct 
2556 -384 2545 -375 2536 -363 ct 2527 -352 2520 -337 2515 -320 ct 2511 -302 2508 -282 2508 -259 ct 
2508 0 l  2435 0 l  p ef
3152 -527 m  3118 -527 3089 -522 3064 -511 ct 3038 -500 3017 -484 3000 -464 ct 
2982 -443 2969 -419 2960 -390 ct 2952 -361 2947 -330 2947 -294 ct 2947 -259 2952 -227 2962 -198 ct 
2971 -169 2985 -144 3002 -123 ct 3020 -102 3042 -86 3068 -74 ct 3094 -63 3123 -57 3155 -57 ct 
3177 -57 3198 -60 3217 -66 ct 3235 -72 3252 -80 3267 -91 ct 3282 -102 3296 -114 3307 -129 ct 
3319 -144 3330 -160 3339 -178 ct 3403 -146 l  3393 -124 3380 -104 3365 -85 ct 
3349 -66 3331 -50 3310 -36 ct 3289 -22 3266 -12 3239 -4 ct 3213 4 3184 8 3151 8 ct 
3104 8 3063 0 3027 -15 ct 2992 -30 2962 -51 2938 -77 ct 2915 -104 2897 -136 2885 -173 ct 
2873 -210 2867 -251 2867 -294 ct 2867 -340 2873 -381 2886 -418 ct 2898 -454 2917 -486 2941 -512 ct 
2965 -537 2995 -557 3030 -571 ct 3065 -585 3106 -592 3151 -592 ct 3213 -592 3265 -580 3306 -556 ct 
3348 -531 3378 -495 3398 -448 ct 3323 -423 l  3318 -437 3310 -450 3301 -462 ct 
3291 -475 3280 -486 3266 -496 ct 3252 -505 3235 -513 3216 -519 ct 3197 -525 3176 -527 3152 -527 ct 
p ef
pom

pum
2250 17891 t
412 0 m  158 -449 l  159 -437 160 -425 161 -413 ct 162 -402 163 -391 164 -379 ct 
165 -366 165 -355 165 -344 ct 165 0 l  57 0 l  57 -583 l  196 -583 l  454 -130 l 
452 -142 451 -154 450 -167 ct 449 -178 448 -190 447 -203 ct 447 -217 446 -230 446 -244 ct 
446 -583 l  555 -583 l  555 0 l  412 0 l  p ef
852 8 m  820 8 791 3 765 -6 ct 740 -16 718 -30 699 -50 ct 681 -69 667 -94 658 -123 ct 
648 -152 643 -187 643 -226 ct 643 -269 649 -305 660 -334 ct 672 -363 687 -387 707 -405 ct 
726 -423 748 -436 774 -444 ct 799 -452 826 -456 854 -456 ct 889 -456 919 -450 944 -438 ct 
969 -426 990 -408 1006 -386 ct 1022 -364 1034 -338 1041 -307 ct 1048 -276 1052 -243 1052 -205 ct 
1052 -202 l  765 -202 l  765 -183 767 -166 770 -150 ct 773 -133 779 -119 786 -108 ct 
794 -96 803 -87 815 -80 ct 827 -73 841 -70 858 -70 ct 879 -70 895 -74 908 -83 ct 
921 -92 930 -105 936 -123 ct 1046 -114 l  1041 -101 1034 -88 1025 -73 ct 1016 -59 1004 -46 989 -34 ct 
974 -22 955 -12 933 -4 ct 911 4 884 8 852 8 ct p
852 -383 m  841 -383 829 -381 819 -377 ct 809 -373 800 -367 792 -358 ct 785 -349 778 -338 774 -324 ct 
769 -311 766 -294 766 -275 ct 940 -275 l  937 -311 929 -338 914 -356 ct 898 -374 878 -383 852 -383 ct 
p ef
1254 8 m  1220 7 1193 -2 1175 -20 ct 1156 -39 1147 -67 1147 -105 ct 1147 -369 l 
1090 -369 l  1090 -448 l  1153 -448 l  1189 -553 l  1262 -553 l  1262 -448 l 
1347 -448 l  1347 -369 l  1262 -369 l  1262 -136 l  1262 -115 1266 -99 1274 -88 ct 
1283 -78 1295 -73 1313 -73 ct 1320 -73 1326 -73 1332 -74 ct 1338 -76 1345 -77 1352 -79 ct 
1352 -7 l  1337 -2 1322 2 1306 4 ct 1290 6 1273 7 1254 8 ct p ef
1906 0 m  1783 0 l  1712 -273 l  1710 -282 1708 -291 1705 -302 ct 1703 -312 1701 -322 1699 -332 ct 
1693 -365 l  1690 -354 1688 -343 1685 -332 ct 1683 -322 1681 -312 1678 -302 ct 
1676 -291 1673 -281 1671 -272 ct 1599 0 l  1476 0 l  1361 -448 l  1470 -448 l 
1526 -184 l  1528 -177 1530 -169 1532 -159 ct 1534 -150 1535 -142 1537 -134 ct 
1539 -124 1541 -115 1543 -105 ct 1545 -116 1547 -126 1549 -136 ct 1551 -145 1553 -153 1554 -162 ct 
1556 -171 1558 -178 1559 -184 ct 1630 -448 l  1754 -448 l  1823 -184 l  1825 -177 1827 -169 1829 -160 ct 
1831 -151 1832 -142 1834 -134 ct 1836 -125 1838 -115 1840 -105 ct 1842 -115 1844 -125 1846 -134 ct 
1848 -142 1850 -151 1851 -160 ct 1853 -169 1855 -177 1857 -184 ct 1916 -448 l 
2023 -448 l  1906 0 l  p ef
2508 -224 m  2508 -190 2504 -159 2494 -131 ct 2485 -102 2470 -78 2451 -57 ct 
2432 -37 2408 -21 2380 -9 ct 2352 2 2319 8 2281 8 ct 2244 8 2212 2 2184 -9 ct 2157 -20 2133 -36 2114 -57 ct 
2095 -77 2081 -101 2072 -130 ct 2062 -158 2057 -190 2057 -224 ct 2057 -258 2062 -289 2071 -317 ct 
2080 -345 2094 -370 2113 -390 ct 2132 -411 2155 -427 2184 -439 ct 2212 -450 2245 -456 2283 -456 ct 
2324 -456 2358 -450 2386 -439 ct 2415 -427 2438 -411 2456 -390 ct 2474 -370 2487 -346 2496 -317 ct 
2504 -289 2508 -258 2508 -224 ct p
2387 -224 m  2387 -278 2378 -316 2361 -340 ct 2343 -364 2318 -376 2285 -376 ct 
2251 -376 2225 -364 2206 -340 ct 2188 -316 2179 -277 2179 -224 ct 2179 -198 2182 -175 2186 -155 ct 
2191 -136 2198 -120 2207 -108 ct 2216 -95 2226 -86 2239 -80 ct 2251 -74 2265 -71 2280 -71 ct 
2297 -71 2312 -74 2325 -80 ct 2339 -86 2350 -95 2359 -108 ct 2368 -120 2375 -136 2380 -155 ct 
2384 -175 2387 -198 2387 -224 ct p ef
2599 0 m  2599 -343 l  2599 -352 2599 -362 2599 -373 ct 2599 -384 2599 -394 2598 -404 ct 
2598 -414 2597 -423 2597 -431 ct 2597 -438 2596 -444 2596 -448 ct 2707 -448 l 
2707 -444 2708 -439 2708 -431 ct 2709 -422 2709 -413 2710 -404 ct 2711 -394 2711 -385 2711 -375 ct 
2712 -365 2712 -358 2712 -352 ct 2714 -352 l  2720 -368 2725 -383 2731 -396 ct 
2737 -408 2744 -419 2752 -428 ct 2759 -437 2769 -444 2780 -449 ct 2791 -454 2805 -456 2821 -456 ct 
2828 -456 2835 -456 2841 -454 ct 2848 -453 2853 -452 2857 -450 ct 2857 -353 l 
2849 -354 2842 -356 2834 -357 ct 2827 -358 2818 -359 2807 -359 ct 2778 -359 2756 -347 2740 -324 ct 
2723 -300 2715 -266 2715 -220 ct 2715 0 l  2599 0 l  p ef
3215 0 m  3095 -203 l  3045 -168 l  3045 0 l  2929 0 l  2929 -614 l  3045 -614 l 
3045 -262 l  3205 -448 l  3330 -448 l  3173 -273 l  3342 0 l  3215 0 l 
p ef
pom

pum
15250 3391 t
433 0 m  433 -250 l  179 -250 l  179 0 l  57 0 l  57 -583 l  179 -583 l 
179 -351 l  433 -351 l  433 -583 l  555 -583 l  555 0 l  433 0 l  p ef
773 8 m  751 8 732 5 715 -1 ct 698 -7 683 -16 672 -27 ct 660 -39 651 -53 644 -70 ct 
638 -87 635 -106 635 -127 ct 635 -154 639 -176 649 -195 ct 658 -213 671 -227 687 -239 ct 
703 -250 721 -258 743 -263 ct 764 -268 787 -271 811 -271 ct 908 -271 l  908 -294 l 
908 -310 906 -324 903 -335 ct 901 -346 896 -355 891 -362 ct 885 -369 878 -374 870 -377 ct 
862 -380 853 -381 842 -381 ct 833 -381 824 -380 817 -378 ct 809 -376 802 -373 797 -369 ct 
791 -364 787 -358 784 -350 ct 780 -342 778 -333 776 -321 ct 655 -321 l  658 -341 664 -359 673 -375 ct 
682 -392 694 -406 710 -418 ct 725 -430 745 -440 767 -446 ct 790 -453 817 -456 847 -456 ct 
875 -456 900 -453 922 -446 ct 944 -439 962 -429 977 -415 ct 992 -401 1004 -385 1012 -365 ct 
1020 -345 1024 -322 1024 -296 ct 1024 -133 l  1024 -122 1024 -113 1025 -105 ct 
1026 -96 1028 -89 1031 -84 ct 1033 -78 1037 -74 1042 -71 ct 1047 -68 1053 -66 1061 -66 ct 
1070 -66 1078 -67 1086 -69 ct 1086 -6 l  1080 -4 1073 -3 1068 -2 ct 1062 0 1057 1 1051 2 ct 
1046 3 1040 3 1034 4 ct 1028 4 1020 5 1012 5 ct 983 5 961 -2 947 -17 ct 933 -31 925 -52 922 -80 ct 
920 -80 l  904 -52 885 -31 860 -15 ct 836 0 807 8 773 8 ct p
908 -207 m  848 -207 l  836 -207 824 -206 813 -205 ct 802 -203 792 -200 783 -195 ct 
775 -190 768 -183 763 -174 ct 758 -165 756 -152 756 -137 ct 756 -115 761 -99 771 -89 ct 
780 -78 793 -73 810 -73 ct 825 -73 838 -76 850 -83 ct 862 -89 873 -97 881 -108 ct 
890 -118 896 -130 901 -143 ct 905 -157 908 -170 908 -184 ct 908 -207 l  p ef
1139 0 m  1139 -343 l  1139 -352 1139 -362 1139 -373 ct 1139 -384 1139 -394 1138 -404 ct 
1138 -414 1137 -423 1137 -431 ct 1137 -438 1136 -444 1136 -448 ct 1247 -448 l 
1247 -444 1248 -439 1248 -431 ct 1249 -422 1249 -413 1250 -404 ct 1251 -394 1251 -385 1251 -375 ct 
1252 -365 1252 -358 1252 -352 ct 1254 -352 l  1260 -368 1265 -383 1271 -396 ct 
1277 -408 1284 -419 1292 -428 ct 1299 -437 1309 -444 1320 -449 ct 1331 -454 1345 -456 1361 -456 ct 
1368 -456 1375 -456 1381 -454 ct 1388 -453 1393 -452 1397 -450 ct 1397 -353 l 
1389 -354 1382 -356 1374 -357 ct 1367 -358 1358 -359 1347 -359 ct 1318 -359 1296 -347 1280 -324 ct 
1263 -300 1255 -266 1255 -220 ct 1255 0 l  1139 0 l  p ef
1759 0 m  1759 -2 1758 -6 1757 -12 ct 1757 -17 1756 -24 1755 -31 ct 1754 -38 1754 -45 1753 -53 ct 
1753 -60 1753 -67 1753 -73 ct 1751 -73 l  1738 -44 1719 -23 1695 -10 ct 1671 2 1642 8 1608 8 ct 
1580 8 1556 3 1535 -9 ct 1515 -21 1498 -37 1484 -57 ct 1471 -78 1461 -103 1454 -131 ct 
1448 -159 1445 -190 1445 -223 ct 1445 -257 1448 -288 1455 -317 ct 1462 -345 1472 -370 1486 -390 ct 
1500 -411 1518 -427 1540 -439 ct 1561 -450 1587 -456 1617 -456 ct 1631 -456 1645 -454 1659 -451 ct 
1672 -448 1685 -444 1697 -437 ct 1708 -431 1719 -423 1728 -413 ct 1737 -403 1745 -391 1752 -377 ct 
1753 -377 l  1753 -380 1753 -384 1753 -389 ct 1753 -394 1752 -401 1752 -407 ct 
1752 -414 1752 -422 1752 -429 ct 1752 -436 1752 -444 1752 -451 ct 1752 -614 l 
1868 -614 l  1868 -98 l  1868 -76 1869 -56 1869 -39 ct 1870 -22 1871 -9 1872 0 ct 
1759 0 l  p
1754 -226 m  1754 -256 1751 -280 1745 -300 ct 1740 -319 1733 -335 1724 -346 ct 
1715 -357 1705 -365 1693 -370 ct 1682 -375 1670 -377 1658 -377 ct 1643 -377 1630 -374 1619 -368 ct 
1607 -362 1598 -353 1590 -341 ct 1582 -328 1576 -313 1572 -293 ct 1568 -274 1566 -251 1566 -223 ct 
1566 -122 1596 -71 1657 -71 ct 1669 -71 1680 -73 1692 -78 ct 1704 -83 1714 -92 1723 -104 ct 
1732 -116 1740 -132 1745 -152 ct 1751 -172 1754 -196 1754 -226 ct p ef
2469 0 m  2346 0 l  2275 -273 l  2273 -282 2271 -291 2268 -302 ct 2266 -312 2264 -322 2262 -332 ct 
2256 -365 l  2253 -354 2251 -343 2248 -332 ct 2246 -322 2244 -312 2241 -302 ct 
2239 -291 2236 -281 2234 -272 ct 2162 0 l  2039 0 l  1924 -448 l  2033 -448 l 
2089 -184 l  2091 -177 2093 -169 2095 -159 ct 2097 -150 2098 -142 2100 -134 ct 
2102 -124 2104 -115 2106 -105 ct 2108 -116 2110 -126 2112 -136 ct 2114 -145 2116 -153 2117 -162 ct 
2119 -171 2121 -178 2122 -184 ct 2193 -448 l  2317 -448 l  2386 -184 l  2388 -177 2390 -169 2392 -160 ct 
2394 -151 2395 -142 2397 -134 ct 2399 -125 2401 -115 2403 -105 ct 2405 -115 2407 -125 2409 -134 ct 
2411 -142 2413 -151 2414 -160 ct 2416 -169 2418 -177 2420 -184 ct 2479 -448 l 
2586 -448 l  2469 0 l  p ef
2750 8 m  2728 8 2709 5 2692 -1 ct 2675 -7 2660 -16 2649 -27 ct 2637 -39 2628 -53 2621 -70 ct 
2615 -87 2612 -106 2612 -127 ct 2612 -154 2616 -176 2626 -195 ct 2635 -213 2648 -227 2664 -239 ct 
2680 -250 2698 -258 2720 -263 ct 2741 -268 2764 -271 2788 -271 ct 2885 -271 l 
2885 -294 l  2885 -310 2883 -324 2880 -335 ct 2878 -346 2873 -355 2868 -362 ct 
2862 -369 2855 -374 2847 -377 ct 2839 -380 2830 -381 2819 -381 ct 2810 -381 2801 -380 2794 -378 ct 
2786 -376 2779 -373 2774 -369 ct 2768 -364 2764 -358 2761 -350 ct 2757 -342 2755 -333 2753 -321 ct 
2632 -321 l  2635 -341 2641 -359 2650 -375 ct 2659 -392 2671 -406 2687 -418 ct 
2702 -430 2722 -440 2744 -446 ct 2767 -453 2794 -456 2824 -456 ct 2852 -456 2877 -453 2899 -446 ct 
2921 -439 2939 -429 2954 -415 ct 2969 -401 2981 -385 2989 -365 ct 2997 -345 3001 -322 3001 -296 ct 
3001 -133 l  3001 -122 3001 -113 3002 -105 ct 3003 -96 3005 -89 3008 -84 ct 
3010 -78 3014 -74 3019 -71 ct 3024 -68 3030 -66 3038 -66 ct 3047 -66 3055 -67 3063 -69 ct 
3063 -6 l  3057 -4 3050 -3 3045 -2 ct 3039 0 3034 1 3028 2 ct 3023 3 3017 3 3011 4 ct 
3005 4 2997 5 2989 5 ct 2960 5 2938 -2 2924 -17 ct 2910 -31 2902 -52 2899 -80 ct 
2897 -80 l  2881 -52 2862 -31 2837 -15 ct 2813 0 2784 8 2750 8 ct p
2885 -207 m  2825 -207 l  2813 -207 2801 -206 2790 -205 ct 2779 -203 2769 -200 2760 -195 ct 
2752 -190 2745 -183 2740 -174 ct 2735 -165 2733 -152 2733 -137 ct 2733 -115 2738 -99 2748 -89 ct 
2757 -78 2770 -73 2787 -73 ct 2802 -73 2815 -76 2827 -83 ct 2839 -89 2850 -97 2858 -108 ct 
2867 -118 2873 -130 2878 -143 ct 2882 -157 2885 -170 2885 -184 ct 2885 -207 l 
p ef
3115 0 m  3115 -343 l  3115 -352 3115 -362 3115 -373 ct 3115 -384 3115 -394 3114 -404 ct 
3114 -414 3113 -423 3113 -431 ct 3113 -438 3112 -444 3112 -448 ct 3223 -448 l 
3223 -444 3224 -439 3224 -431 ct 3225 -422 3225 -413 3226 -404 ct 3227 -394 3227 -385 3227 -375 ct 
3228 -365 3228 -358 3228 -352 ct 3230 -352 l  3236 -368 3241 -383 3247 -396 ct 
3253 -408 3260 -419 3268 -428 ct 3275 -437 3285 -444 3296 -449 ct 3307 -454 3321 -456 3337 -456 ct 
3344 -456 3351 -456 3357 -454 ct 3364 -453 3369 -452 3373 -450 ct 3373 -353 l 
3365 -354 3358 -356 3350 -357 ct 3343 -358 3334 -359 3323 -359 ct 3294 -359 3272 -347 3256 -324 ct 
3239 -300 3231 -266 3231 -220 ct 3231 0 l  3115 0 l  p ef
3629 8 m  3597 8 3568 3 3542 -6 ct 3517 -16 3495 -30 3476 -50 ct 3458 -69 3444 -94 3435 -123 ct 
3425 -152 3420 -187 3420 -226 ct 3420 -269 3426 -305 3437 -334 ct 3449 -363 3464 -387 3484 -405 ct 
3503 -423 3525 -436 3551 -444 ct 3576 -452 3603 -456 3631 -456 ct 3666 -456 3696 -450 3721 -438 ct 
3746 -426 3767 -408 3783 -386 ct 3799 -364 3811 -338 3818 -307 ct 3825 -276 3829 -243 3829 -205 ct 
3829 -202 l  3542 -202 l  3542 -183 3544 -166 3547 -150 ct 3550 -133 3556 -119 3563 -108 ct 
3571 -96 3580 -87 3592 -80 ct 3604 -73 3618 -70 3635 -70 ct 3656 -70 3672 -74 3685 -83 ct 
3698 -92 3707 -105 3713 -123 ct 3823 -114 l  3818 -101 3811 -88 3802 -73 ct 
3793 -59 3781 -46 3766 -34 ct 3751 -22 3732 -12 3710 -4 ct 3688 4 3661 8 3629 8 ct 
p
3629 -383 m  3618 -383 3606 -381 3596 -377 ct 3586 -373 3577 -367 3569 -358 ct 
3562 -349 3555 -338 3551 -324 ct 3546 -311 3543 -294 3543 -275 ct 3717 -275 l 
3714 -311 3706 -338 3691 -356 ct 3675 -374 3655 -383 3629 -383 ct p ef
pom

pum
14250 7391 t
323 0 m  242 0 l  4 -583 l  87 -583 l  248 -173 l  252 -160 256 -148 261 -136 ct 
265 -123 268 -112 272 -103 ct 276 -91 279 -80 283 -70 ct 286 -80 290 -90 294 -102 ct 
297 -111 301 -122 305 -134 ct 309 -147 313 -159 318 -173 ct 478 -583 l  561 -583 l 
323 0 l  p ef
630 -208 m  630 -185 633 -163 637 -143 ct 642 -124 650 -107 660 -93 ct 670 -78 683 -67 698 -60 ct 
714 -52 733 -48 755 -48 ct 787 -48 813 -54 833 -67 ct 852 -80 865 -97 872 -116 ct 
937 -98 l  933 -85 926 -73 918 -60 ct 909 -48 898 -37 884 -27 ct 870 -16 852 -8 831 -2 ct 
810 5 785 8 755 8 ct 689 8 638 -12 604 -51 ct 569 -91 552 -149 552 -227 ct 552 -269 557 -304 568 -333 ct 
578 -363 593 -386 611 -404 ct 629 -423 650 -436 674 -444 ct 699 -452 725 -456 752 -456 ct 
790 -456 821 -450 846 -438 ct 871 -426 892 -409 907 -388 ct 922 -366 933 -341 940 -312 ct 
946 -283 949 -252 949 -218 ct 949 -208 l  630 -208 l  p
873 -265 m  868 -312 856 -347 837 -368 ct 817 -390 788 -401 751 -401 ct 739 -401 725 -399 712 -395 ct 
698 -391 686 -384 674 -374 ct 662 -363 653 -350 645 -332 ct 637 -314 632 -292 631 -265 ct 
873 -265 l  p ef
1045 0 m  1045 -343 l  1045 -353 1045 -362 1045 -372 ct 1044 -382 1044 -391 1044 -401 ct 
1044 -410 1043 -418 1043 -426 ct 1043 -434 1043 -441 1042 -448 ct 1113 -448 l 
1113 -441 1113 -434 1114 -426 ct 1114 -418 1114 -410 1115 -401 ct 1115 -392 1116 -384 1116 -376 ct 
1116 -368 1116 -362 1116 -356 ct 1118 -356 l  1123 -373 1128 -388 1134 -401 ct 
1140 -413 1147 -424 1155 -432 ct 1163 -440 1173 -446 1184 -450 ct 1195 -454 1208 -456 1224 -456 ct 
1230 -456 1236 -456 1241 -455 ct 1247 -454 1251 -453 1254 -452 ct 1254 -384 l 
1249 -385 1243 -386 1237 -387 ct 1230 -387 1223 -388 1214 -388 ct 1197 -388 1183 -384 1171 -376 ct 
1159 -368 1149 -358 1141 -344 ct 1134 -330 1128 -314 1125 -295 ct 1121 -276 1119 -256 1119 -233 ct 
1119 0 l  1045 0 l  p ef
1327 -543 m  1327 -614 l  1401 -614 l  1401 -543 l  1327 -543 l  p
1327 0 m  1327 -448 l  1401 -448 l  1401 0 l  1327 0 l  p ef
1513 0 m  1513 -614 l  1588 -614 l  1588 0 l  1513 0 l  p ef
2079 -224 m  2079 -146 2061 -88 2027 -49 ct 1992 -11 1942 8 1877 8 ct 1846 8 1818 3 1793 -6 ct 
1769 -15 1748 -30 1731 -49 ct 1714 -68 1701 -93 1692 -122 ct 1683 -151 1679 -185 1679 -224 ct 
1679 -379 1745 -456 1879 -456 ct 1914 -456 1944 -451 1969 -442 ct 1994 -432 2015 -417 2031 -398 ct 
2047 -379 2059 -355 2067 -326 ct 2075 -297 2079 -263 2079 -224 ct p
2000 -224 m  2000 -259 1998 -288 1992 -310 ct 1987 -333 1979 -351 1969 -365 ct 
1958 -378 1946 -388 1931 -393 ct 1916 -398 1899 -401 1880 -401 ct 1861 -401 1844 -398 1829 -393 ct 
1814 -387 1801 -377 1790 -364 ct 1779 -350 1771 -332 1765 -309 ct 1760 -287 1757 -258 1757 -224 ct 
1757 -190 1760 -161 1766 -138 ct 1772 -115 1780 -97 1791 -84 ct 1801 -70 1814 -61 1828 -55 ct 
1843 -50 1859 -47 1876 -47 ct 1895 -47 1912 -50 1928 -55 ct 1943 -60 1956 -70 1967 -83 ct 
1978 -97 1986 -115 1992 -138 ct 1997 -161 2000 -190 2000 -224 ct p ef
2339 176 m  2313 176 2290 173 2270 168 ct 2251 163 2234 155 2220 146 ct 2205 136 2194 124 2185 111 ct 
2176 97 2170 82 2166 65 ct 2241 55 l  2246 75 2257 91 2274 102 ct 2291 114 2313 119 2341 119 ct 
2358 119 2373 117 2387 112 ct 2400 108 2412 100 2422 90 ct 2431 79 2439 66 2444 49 ct 
2449 33 2452 12 2452 -11 ct 2452 -83 l  2451 -83 l  2446 -72 2439 -61 2431 -51 ct 
2423 -41 2413 -31 2401 -23 ct 2389 -15 2376 -9 2360 -4 ct 2345 1 2327 3 2307 3 ct 
2279 3 2254 -2 2234 -11 ct 2214 -21 2197 -35 2185 -54 ct 2172 -73 2162 -97 2156 -125 ct 
2151 -153 2148 -186 2148 -223 ct 2148 -259 2151 -291 2156 -320 ct 2162 -348 2172 -373 2185 -393 ct 
2199 -413 2216 -428 2238 -439 ct 2259 -449 2285 -454 2315 -454 ct 2347 -454 2375 -447 2398 -433 ct 
2421 -418 2439 -398 2452 -371 ct 2453 -371 l  2453 -378 2453 -386 2453 -394 ct 
2454 -403 2454 -411 2455 -418 ct 2455 -426 2456 -432 2456 -438 ct 2457 -443 2457 -447 2458 -447 ct 
2528 -447 l  2528 -445 2528 -441 2528 -435 ct 2527 -429 2527 -422 2527 -414 ct 
2527 -405 2526 -396 2526 -386 ct 2526 -376 2526 -366 2526 -355 ct 2526 -13 l 
2526 50 2511 97 2480 129 ct 2449 160 2402 176 2339 176 ct p
2452 -224 m  2452 -255 2449 -282 2442 -304 ct 2435 -326 2426 -344 2415 -358 ct 
2404 -372 2392 -382 2377 -389 ct 2363 -396 2349 -399 2334 -399 ct 2315 -399 2298 -396 2285 -389 ct 
2271 -382 2260 -372 2251 -358 ct 2242 -344 2235 -326 2231 -303 ct 2227 -281 2225 -255 2225 -224 ct 
2225 -192 2227 -165 2231 -143 ct 2235 -121 2242 -103 2251 -90 ct 2259 -76 2271 -66 2284 -61 ct 
2298 -55 2314 -52 2332 -52 ct 2347 -52 2362 -55 2376 -62 ct 2390 -68 2403 -78 2414 -92 ct 
2426 -105 2435 -123 2442 -145 ct 2449 -167 2452 -193 2452 -224 ct p ef
pom

pum
12250 12891 t
464 0 m  464 -270 l  148 -270 l  148 0 l  69 0 l  69 -583 l  148 -583 l 
148 -336 l  464 -336 l  464 -583 l  543 -583 l  543 0 l  464 0 l  p ef
1136 -161 m  1136 -137 1131 -114 1122 -93 ct 1112 -73 1098 -55 1078 -40 ct 1058 -25 1033 -13 1003 -5 ct 
973 4 937 8 895 8 ct 823 8 766 -5 726 -30 ct 685 -55 659 -92 648 -140 ct 725 -155 l 
729 -140 735 -126 743 -114 ct 751 -102 762 -91 775 -82 ct 789 -73 806 -66 826 -61 ct 
846 -56 870 -54 898 -54 ct 922 -54 943 -56 963 -60 ct 982 -64 999 -70 1013 -78 ct 
1027 -86 1038 -97 1046 -110 ct 1054 -123 1058 -139 1058 -157 ct 1058 -176 1054 -192 1045 -203 ct 
1036 -215 1024 -225 1008 -233 ct 993 -241 974 -247 952 -252 ct 930 -258 906 -263 880 -269 ct 
863 -273 847 -277 831 -281 ct 814 -285 799 -290 783 -296 ct 768 -302 754 -309 741 -317 ct 
728 -325 716 -335 707 -346 ct 697 -357 690 -370 684 -385 ct 679 -400 676 -417 676 -436 ct 
676 -464 681 -487 693 -507 ct 704 -527 719 -543 739 -556 ct 759 -568 782 -578 809 -583 ct 
836 -589 866 -592 897 -592 ct 933 -592 964 -589 990 -584 ct 1015 -578 1037 -569 1055 -558 ct 
1072 -547 1086 -533 1097 -516 ct 1108 -499 1116 -480 1122 -458 ct 1045 -444 l 
1041 -458 1035 -471 1028 -482 ct 1021 -493 1011 -502 999 -510 ct 987 -517 973 -523 956 -527 ct 
939 -530 919 -532 896 -532 ct 869 -532 846 -530 828 -525 ct 810 -520 795 -514 784 -506 ct 
773 -497 765 -488 760 -476 ct 755 -465 753 -453 753 -440 ct 753 -423 757 -408 766 -397 ct 
774 -386 786 -377 801 -369 ct 816 -362 833 -356 853 -351 ct 872 -346 893 -341 915 -336 ct 
933 -332 951 -328 969 -323 ct 987 -319 1004 -314 1020 -308 ct 1036 -302 1051 -295 1066 -287 ct 
1080 -279 1092 -269 1103 -258 ct 1113 -246 1121 -232 1127 -217 ct 1133 -201 1136 -182 1136 -161 ct 
p ef
1620 0 m  1309 -497 l  1309 -483 1310 -470 1311 -456 ct 1311 -445 1312 -433 1312 -421 ct 
1313 -408 1313 -397 1313 -387 ct 1313 0 l  1242 0 l  1242 -583 l  1334 -583 l 
1649 -83 l  1649 -97 1648 -110 1647 -124 ct 1646 -135 1646 -148 1645 -162 ct 
1645 -175 1644 -188 1644 -201 ct 1644 -583 l  1716 -583 l  1716 0 l  1620 0 l 
p ef
pom

pum
4750 11391 t
464 0 m  464 -270 l  148 -270 l  148 0 l  69 0 l  69 -583 l  148 -583 l 
148 -336 l  464 -336 l  464 -583 l  543 -583 l  543 0 l  464 0 l  p ef
1136 -161 m  1136 -137 1131 -114 1122 -93 ct 1112 -73 1098 -55 1078 -40 ct 1058 -25 1033 -13 1003 -5 ct 
973 4 937 8 895 8 ct 823 8 766 -5 726 -30 ct 685 -55 659 -92 648 -140 ct 725 -155 l 
729 -140 735 -126 743 -114 ct 751 -102 762 -91 775 -82 ct 789 -73 806 -66 826 -61 ct 
846 -56 870 -54 898 -54 ct 922 -54 943 -56 963 -60 ct 982 -64 999 -70 1013 -78 ct 
1027 -86 1038 -97 1046 -110 ct 1054 -123 1058 -139 1058 -157 ct 1058 -176 1054 -192 1045 -203 ct 
1036 -215 1024 -225 1008 -233 ct 993 -241 974 -247 952 -252 ct 930 -258 906 -263 880 -269 ct 
863 -273 847 -277 831 -281 ct 814 -285 799 -290 783 -296 ct 768 -302 754 -309 741 -317 ct 
728 -325 716 -335 707 -346 ct 697 -357 690 -370 684 -385 ct 679 -400 676 -417 676 -436 ct 
676 -464 681 -487 693 -507 ct 704 -527 719 -543 739 -556 ct 759 -568 782 -578 809 -583 ct 
836 -589 866 -592 897 -592 ct 933 -592 964 -589 990 -584 ct 1015 -578 1037 -569 1055 -558 ct 
1072 -547 1086 -533 1097 -516 ct 1108 -499 1116 -480 1122 -458 ct 1045 -444 l 
1041 -458 1035 -471 1028 -482 ct 1021 -493 1011 -502 999 -510 ct 987 -517 973 -523 956 -527 ct 
939 -530 919 -532 896 -532 ct 869 -532 846 -530 828 -525 ct 810 -520 795 -514 784 -506 ct 
773 -497 765 -488 760 -476 ct 755 -465 753 -453 753 -440 ct 753 -423 757 -408 766 -397 ct 
774 -386 786 -377 801 -369 ct 816 -362 833 -356 853 -351 ct 872 -346 893 -341 915 -336 ct 
933 -332 951 -328 969 -323 ct 987 -319 1004 -314 1020 -308 ct 1036 -302 1051 -295 1066 -287 ct 
1080 -279 1092 -269 1103 -258 ct 1113 -246 1121 -232 1127 -217 ct 1133 -201 1136 -182 1136 -161 ct 
p ef
1620 0 m  1309 -497 l  1309 -483 1310 -470 1311 -456 ct 1311 -445 1312 -433 1312 -421 ct 
1313 -408 1313 -397 1313 -387 ct 1313 0 l  1242 0 l  1242 -583 l  1334 -583 l 
1649 -83 l  1649 -97 1648 -110 1647 -124 ct 1646 -135 1646 -148 1645 -162 ct 
1645 -175 1644 -188 1644 -201 ct 1644 -583 l  1716 -583 l  1716 0 l  1620 0 l 
p ef
pom
gr
gs
0 0 m 20999 0 l 20999 20999 l 0 20999 l 0 0 l eoclip newpath
gr
gr
0 21000 t 
pom
count op_count sub {pop} repeat countdictstack dict_count sub {end} repeat b4_inc_state restore
%%PageTrailer
%%Trailer
%%EOF
