%!PS-Adobe-3.0 EPSF-3.0 
%%BoundingBox: 0 0 539 785
%%Pages: 0
%%Creator: Sun Microsystems, Inc.
%%Title: none
%%CreationDate: none
%%LanguageLevel: 2
%%EndComments
%%BeginProlog
%%BeginResource: procset SDRes-Prolog 1.0 0
/b4_inc_state save def
/dict_count countdictstack def
/op_count count 1 sub def
userdict begin
0 setgray 0 setlinecap 1 setlinewidth 0 setlinejoin 10 setmiterlimit[] 0 setdash newpath
/languagelevel where {pop languagelevel 1 ne {false setstrokeadjust false setoverprint} if} if
/bdef {bind def} bind def
/c {setgray} bdef
/l {neg lineto} bdef
/rl {neg rlineto} bdef
/lc {setlinecap} bdef
/lj {setlinejoin} bdef
/lw {setlinewidth} bdef
/ml {setmiterlimit} bdef
/ld {setdash} bdef
/m {neg moveto} bdef
/ct {6 2 roll neg 6 2 roll neg 6 2 roll neg curveto} bdef
/r {rotate} bdef
/t {neg translate} bdef
/s {scale} bdef
/sw {show} bdef
/gs {gsave} bdef
/gr {grestore} bdef
/f {findfont dup length dict begin
{1 index /FID ne {def} {pop pop} ifelse} forall /Encoding ISOLatin1Encoding def
currentdict end /NFont exch definefont pop /NFont findfont} bdef
/p {closepath} bdef
/sf {scalefont setfont} bdef
/ef {eofill}bdef
/pc {closepath stroke}bdef
/ps {stroke}bdef
/pum {matrix currentmatrix}bdef
/pom {setmatrix}bdef
/bs {/aString exch def /nXOfs exch def /nWidth exch def currentpoint nXOfs 0 rmoveto pum nWidth aString stringwidth pop div 1 scale aString show pom moveto} bdef
%%EndResource
%%EndProlog
%%BeginSetup
%%EndSetup
%%Page: 1 1
%%BeginPageSetup
%%EndPageSetup
pum
0.02836 0.02833 s 
0 -27700 t
/tm matrix currentmatrix def
gs
tm setmatrix
-1000 -1000 t 
1 1 s 
1000 1000 m 19999 1000 l 19999 28699 l 1000 28699 l 1000 1000 l eoclip newpath
gs
0 0 m 18999 0 l 18999 27699 l 0 27699 l 0 0 l eoclip newpath
50 lw 1 lj 0.000 c 10693 10182 m  7499 10182 l  7499 6000 l  13886 6000 l 
13886 10182 l  10693 10182 l  pc
pum
9211 7896 t
0.222 c 238 -1 m  238 -579 l  22 -579 l  22 -656 l  542 -656 l  542 -579 l 
325 -579 l  325 -1 l  238 -1 l  p ef
1102 -230 m  1189 -208 l  1171 -137 1138 -83 1091 -45 ct 1043 -8 986 11 917 11 ct 
846 11 789 -3 745 -32 ct 700 -61 667 -103 643 -157 ct 620 -212 609 -270 609 -333 ct 
609 -401 622 -461 648 -512 ct 674 -563 711 -601 759 -628 ct 808 -654 861 -667 919 -667 ct 
984 -667 1039 -651 1084 -617 ct 1129 -584 1160 -537 1178 -476 ct 1092 -456 l 
1077 -504 1055 -539 1026 -560 ct 997 -582 961 -593 917 -593 ct 866 -593 824 -581 790 -557 ct 
756 -533 733 -500 719 -459 ct 705 -419 698 -377 698 -334 ct 698 -278 706 -229 723 -187 ct 
739 -146 764 -115 799 -94 ct 833 -74 870 -63 910 -63 ct 959 -63 1000 -77 1034 -105 ct 
1067 -133 1090 -175 1102 -230 ct p ef
1299 -1 m  1299 -656 l  1546 -656 l  1590 -656 1623 -654 1646 -650 ct 1678 -645 1705 -635 1727 -620 ct 
1749 -604 1767 -583 1780 -556 ct 1793 -529 1800 -499 1800 -467 ct 1800 -411 1782 -364 1747 -325 ct 
1711 -286 1647 -267 1554 -267 ct 1386 -267 l  1386 -1 l  1299 -1 l  p
1386 -344 m  1555 -344 l  1611 -344 1651 -355 1675 -376 ct 1698 -397 1710 -426 1710 -464 ct 
1710 -491 1703 -515 1689 -534 ct 1676 -554 1657 -567 1635 -573 ct 1620 -577 1593 -579 1554 -579 ct 
1386 -579 l  1386 -344 l  p ef
1842 11 m  2032 -668 l  2097 -668 l  1907 11 l  1842 11 l  p ef
2182 0 m  2182 -656 l  2268 -656 l  2268 0 l  2182 0 l  p ef
2421 -1 m  2421 -656 l  2668 -656 l  2712 -656 2745 -654 2768 -650 ct 2800 -645 2827 -635 2849 -620 ct 
2871 -604 2889 -583 2902 -556 ct 2915 -529 2922 -499 2922 -467 ct 2922 -411 2904 -364 2869 -325 ct 
2833 -286 2769 -267 2676 -267 ct 2508 -267 l  2508 -1 l  2421 -1 l  p
2508 -344 m  2677 -344 l  2733 -344 2773 -355 2797 -376 ct 2820 -397 2832 -426 2832 -464 ct 
2832 -491 2825 -515 2811 -534 ct 2798 -554 2779 -567 2757 -573 ct 2742 -577 2715 -579 2676 -579 ct 
2508 -579 l  2508 -344 l  p ef
pom
pum
9440 8921 t
214 193 m  170 137 132 71 102 -4 ct 71 -79 56 -157 56 -238 ct 56 -309 67 -377 90 -442 ct 
117 -517 158 -592 214 -667 ct 272 -667 l  236 -605 212 -561 201 -534 ct 182 -493 168 -450 158 -405 ct 
145 -350 138 -293 138 -237 ct 138 -94 183 50 272 193 ct 214 193 l  p ef
543 -1 m  543 -579 l  327 -579 l  327 -656 l  847 -656 l  847 -579 l  630 -579 l 
630 -1 l  543 -1 l  p ef
1137 -58 m  1107 -33 1078 -15 1051 -5 ct 1023 6 993 11 962 11 ct 909 11 869 -2 841 -27 ct 
813 -53 799 -85 799 -125 ct 799 -148 804 -170 815 -189 ct 826 -208 840 -223 857 -235 ct 
874 -247 893 -256 915 -262 ct 930 -266 954 -270 986 -274 ct 1051 -281 1099 -291 1130 -301 ct 
1130 -312 1130 -319 1130 -322 ct 1130 -355 1123 -378 1108 -392 ct 1087 -410 1056 -419 1016 -419 ct 
978 -419 950 -412 932 -399 ct 914 -386 900 -362 892 -329 ct 813 -339 l  820 -373 832 -400 848 -421 ct 
865 -442 889 -458 920 -469 ct 951 -480 987 -486 1027 -486 ct 1068 -486 1101 -481 1126 -471 ct 
1152 -462 1170 -450 1182 -435 ct 1194 -421 1203 -403 1207 -381 ct 1210 -367 1212 -342 1212 -306 ct 
1212 -199 l  1212 -124 1213 -77 1217 -57 ct 1220 -37 1227 -18 1237 0 ct 1153 0 l 
1145 -16 1139 -36 1137 -58 ct p
1130 -238 m  1101 -226 1057 -216 998 -208 ct 965 -203 942 -198 928 -192 ct 914 -186 904 -177 896 -166 ct 
889 -154 885 -141 885 -127 ct 885 -106 893 -88 910 -74 ct 926 -59 950 -52 981 -52 ct 
1012 -52 1040 -59 1064 -72 ct 1088 -86 1106 -105 1117 -128 ct 1126 -146 1130 -173 1130 -209 ct 
1130 -238 l  p ef
1306 -142 m  1386 -154 l  1390 -122 1403 -98 1423 -81 ct 1444 -64 1472 -55 1509 -55 ct 
1546 -55 1574 -63 1591 -78 ct 1609 -93 1618 -111 1618 -131 ct 1618 -149 1610 -163 1595 -174 ct 
1584 -181 1556 -190 1512 -201 ct 1453 -216 1412 -229 1389 -240 ct 1366 -251 1349 -266 1337 -285 ct 
1326 -304 1320 -326 1320 -349 ct 1320 -370 1324 -390 1334 -408 ct 1344 -426 1357 -441 1374 -453 ct 
1386 -462 1403 -470 1425 -476 ct 1447 -483 1470 -486 1495 -486 ct 1532 -486 1565 -481 1593 -470 ct 
1621 -459 1642 -445 1655 -426 ct 1669 -408 1678 -383 1683 -353 ct 1604 -342 l 
1601 -366 1590 -385 1573 -399 ct 1556 -413 1532 -420 1501 -420 ct 1464 -420 1437 -414 1421 -401 ct 
1405 -389 1398 -375 1398 -358 ct 1398 -348 1401 -339 1407 -330 ct 1414 -322 1424 -314 1438 -309 ct 
1446 -306 1470 -299 1509 -288 ct 1567 -273 1606 -260 1629 -251 ct 1651 -241 1669 -227 1682 -208 ct 
1695 -190 1701 -167 1701 -139 ct 1701 -113 1693 -87 1678 -64 ct 1662 -40 1639 -21 1610 -8 ct 
1580 5 1547 11 1509 11 ct 1448 11 1401 -2 1368 -28 ct 1336 -53 1315 -91 1306 -142 ct 
p ef
1801 0 m  1801 -656 l  1881 -656 l  1881 -282 l  2072 -475 l  2177 -475 l 
1995 -299 l  2195 0 l  2096 0 l  1938 -243 l  1881 -188 l  1881 0 l  1801 0 l 
p ef
2314 193 m  2257 193 l  2346 50 2390 -94 2390 -237 ct 2390 -293 2384 -349 2371 -404 ct 
2361 -449 2347 -492 2329 -533 ct 2317 -560 2293 -604 2257 -667 ct 2314 -667 l 
2370 -592 2412 -517 2439 -442 ct 2462 -377 2473 -309 2473 -238 ct 2473 -157 2458 -79 2427 -4 ct 
2396 71 2358 137 2314 193 ct p ef
pom
0.000 c 10693 14953 m  7499 14953 l  7499 11772 l  13886 11772 l  13886 14953 l 
10693 14953 l  pc
pum
8568 13680 t
0.222 c 238 -1 m  238 -579 l  22 -579 l  22 -656 l  542 -656 l  542 -579 l 
325 -579 l  325 -1 l  238 -1 l  p ef
832 -58 m  802 -33 773 -15 746 -5 ct 718 6 688 11 657 11 ct 604 11 564 -2 536 -27 ct 
508 -53 494 -85 494 -125 ct 494 -148 499 -170 510 -189 ct 521 -208 535 -223 552 -235 ct 
569 -247 588 -256 610 -262 ct 625 -266 649 -270 681 -274 ct 746 -281 794 -291 825 -301 ct 
825 -312 825 -319 825 -322 ct 825 -355 818 -378 803 -392 ct 782 -410 751 -419 711 -419 ct 
673 -419 645 -412 627 -399 ct 609 -386 595 -362 587 -329 ct 508 -339 l  515 -373 527 -400 543 -421 ct 
560 -442 584 -458 615 -469 ct 646 -480 682 -486 722 -486 ct 763 -486 796 -481 821 -471 ct 
847 -462 865 -450 877 -435 ct 889 -421 898 -403 902 -381 ct 905 -367 907 -342 907 -306 ct 
907 -199 l  907 -124 908 -77 912 -57 ct 915 -37 922 -18 932 0 ct 848 0 l  840 -16 834 -36 832 -58 ct 
p
825 -238 m  796 -226 752 -216 693 -208 ct 660 -203 637 -198 623 -192 ct 609 -186 599 -177 591 -166 ct 
584 -154 580 -141 580 -127 ct 580 -106 588 -88 605 -74 ct 621 -59 645 -52 676 -52 ct 
707 -52 735 -59 759 -72 ct 783 -86 801 -105 812 -128 ct 821 -146 825 -173 825 -209 ct 
825 -238 l  p ef
1002 -142 m  1082 -154 l  1086 -122 1099 -98 1119 -81 ct 1140 -64 1168 -55 1205 -55 ct 
1242 -55 1270 -63 1287 -78 ct 1305 -93 1314 -111 1314 -131 ct 1314 -149 1306 -163 1291 -174 ct 
1280 -181 1252 -190 1208 -201 ct 1149 -216 1108 -229 1085 -240 ct 1062 -251 1045 -266 1033 -285 ct 
1022 -304 1016 -326 1016 -349 ct 1016 -370 1020 -390 1030 -408 ct 1040 -426 1053 -441 1070 -453 ct 
1082 -462 1099 -470 1121 -476 ct 1143 -483 1166 -486 1191 -486 ct 1228 -486 1261 -481 1289 -470 ct 
1317 -459 1338 -445 1351 -426 ct 1365 -408 1374 -383 1379 -353 ct 1300 -342 l 
1297 -366 1286 -385 1269 -399 ct 1252 -413 1228 -420 1197 -420 ct 1160 -420 1133 -414 1117 -401 ct 
1101 -389 1094 -375 1094 -358 ct 1094 -348 1097 -339 1103 -330 ct 1110 -322 1120 -314 1134 -309 ct 
1142 -306 1166 -299 1205 -288 ct 1263 -273 1302 -260 1325 -251 ct 1347 -241 1365 -227 1378 -208 ct 
1391 -190 1397 -167 1397 -139 ct 1397 -113 1389 -87 1374 -64 ct 1358 -40 1335 -21 1306 -8 ct 
1276 5 1243 11 1205 11 ct 1144 11 1097 -2 1064 -28 ct 1032 -53 1011 -91 1002 -142 ct 
p ef
1496 0 m  1496 -656 l  1576 -656 l  1576 -282 l  1767 -475 l  1872 -475 l 
1690 -299 l  1890 0 l  1791 0 l  1633 -243 l  1576 -188 l  1576 0 l  1496 0 l 
p ef
1968 -1 m  1968 -656 l  2215 -656 l  2259 -656 2292 -654 2315 -650 ct 2347 -645 2374 -635 2396 -620 ct 
2418 -604 2436 -583 2449 -556 ct 2462 -529 2469 -499 2469 -467 ct 2469 -411 2451 -364 2416 -325 ct 
2380 -286 2316 -267 2223 -267 ct 2055 -267 l  2055 -1 l  1968 -1 l  p
2055 -344 m  2224 -344 l  2280 -344 2320 -355 2344 -376 ct 2367 -397 2379 -426 2379 -464 ct 
2379 -491 2372 -515 2358 -534 ct 2345 -554 2326 -567 2304 -573 ct 2289 -577 2262 -579 2223 -579 ct 
2055 -579 l  2055 -344 l  p ef
2570 0 m  2570 -475 l  2642 -475 l  2642 -403 l  2661 -437 2678 -459 2693 -470 ct 
2709 -481 2726 -486 2745 -486 ct 2772 -486 2800 -477 2828 -460 ct 2800 -385 l 
2780 -397 2761 -403 2741 -403 ct 2723 -403 2708 -397 2694 -387 ct 2680 -376 2670 -362 2664 -343 ct 
2655 -314 2650 -283 2650 -249 ct 2650 0 l  2570 0 l  p ef
2845 -237 m  2845 -325 2870 -391 2919 -433 ct 2960 -468 3010 -486 3068 -486 ct 
3134 -486 3187 -464 3229 -421 ct 3270 -379 3291 -320 3291 -244 ct 3291 -183 3282 -135 3263 -100 ct 
3245 -65 3218 -37 3183 -18 ct 3148 1 3110 11 3068 11 ct 3002 11 2948 -10 2907 -53 ct 
2866 -96 2845 -157 2845 -237 ct p
2928 -237 m  2928 -176 2942 -131 2968 -101 ct 2995 -70 3028 -55 3068 -55 ct 
3108 -55 3142 -70 3168 -101 ct 3195 -131 3208 -178 3208 -240 ct 3208 -299 3195 -343 3168 -374 ct 
3141 -404 3108 -419 3068 -419 ct 3028 -419 2995 -404 2968 -374 ct 2942 -344 2928 -298 2928 -237 ct 
p ef
3334 0 m  3507 -247 l  3347 -475 l  3447 -475 l  3520 -364 l  3534 -343 3545 -325 3554 -311 ct 
3567 -330 3579 -348 3590 -363 ct 3670 -475 l  3766 -475 l  3602 -252 l  3779 0 l 
3680 0 l  3582 -148 l  3556 -188 l  3431 0 l  3334 0 l  p ef
3846 183 m  3837 108 l  3855 112 3870 115 3883 115 ct 3901 115 3915 112 3926 106 ct 
3937 100 3946 91 3952 81 ct 3958 73 3966 53 3977 21 ct 3979 16 3981 10 3984 1 ct 
3804 -475 l  3891 -475 l  3990 -200 l  4002 -165 4014 -128 4024 -90 ct 4033 -127 4044 -163 4057 -198 ct 
4159 -475 l  4239 -475 l  4059 8 l  4039 60 4024 96 4013 116 ct 3999 143 3983 162 3964 174 ct 
3946 187 3923 193 3898 193 ct 3882 193 3865 190 3846 183 ct p ef
pom
0.000 c 8389 11772 m  8389 10638 l  8414 10638 l  8439 10638 l  8439 11772 l 
8414 11772 l  8389 11772 l  p ef
8414 10182 m  8224 10752 l  8604 10752 l  8414 10182 l  p ef
9351 10182 m  9351 11316 l  9326 11316 l  9301 11316 l  9301 10182 l  9326 10182 l 
9351 10182 l  p ef
9326 11772 m  9516 11202 l  9136 11202 l  9326 11772 l  p ef
12952 11772 m  12952 10638 l  12977 10638 l  13002 10638 l  13002 11772 l 
12977 11772 l  12952 11772 l  p ef
12977 10182 m  12787 10752 l  13167 10752 l  12977 10182 l  p ef
8393 21382 m  8393 20248 l  8418 20248 l  8443 20248 l  8443 21382 l  8418 21382 l 
8393 21382 l  p ef
8418 19792 m  8228 20362 l  8608 20362 l  8418 19792 l  p ef
9356 19792 m  9356 20926 l  9331 20926 l  9306 20926 l  9306 19792 l  9331 19792 l 
9356 19792 l  p ef
9331 21382 m  9521 20812 l  9141 20812 l  9331 21382 l  p ef
12956 21382 m  12956 20248 l  12981 20248 l  13006 20248 l  13006 21382 l 
12981 21382 l  12956 21382 l  p ef
12981 19792 m  12791 20362 l  13171 20362 l  12981 19792 l  p ef
10693 19748 m  7499 19748 l  7499 16566 l  13886 16566 l  13886 19748 l 
10693 19748 l  pc
pum
9592 18475 t
0.222 c 70 0 m  70 -656 l  159 -656 l  504 -141 l  504 -656 l  587 -656 l 
587 0 l  498 0 l  153 -516 l  153 0 l  70 0 l  p ef
695 -237 m  695 -325 720 -391 769 -433 ct 810 -468 860 -486 918 -486 ct 984 -486 1037 -464 1079 -421 ct 
1120 -379 1141 -320 1141 -244 ct 1141 -183 1132 -135 1113 -100 ct 1095 -65 1068 -37 1033 -18 ct 
998 1 960 11 918 11 ct 852 11 798 -10 757 -53 ct 716 -96 695 -157 695 -237 ct p
778 -237 m  778 -176 792 -131 818 -101 ct 845 -70 878 -55 918 -55 ct 958 -55 992 -70 1018 -101 ct 
1045 -131 1058 -178 1058 -240 ct 1058 -299 1045 -343 1018 -374 ct 991 -404 958 -419 918 -419 ct 
878 -419 845 -404 818 -374 ct 792 -344 778 -298 778 -237 ct p ef
1546 0 m  1546 -60 l  1516 -13 1471 11 1413 11 ct 1375 11 1340 1 1308 -20 ct 
1277 -41 1252 -70 1235 -108 ct 1217 -145 1208 -188 1208 -237 ct 1208 -284 1216 -327 1232 -366 ct 
1248 -405 1272 -434 1303 -455 ct 1335 -475 1370 -486 1409 -486 ct 1438 -486 1464 -480 1486 -468 ct 
1508 -455 1527 -440 1541 -420 ct 1541 -656 l  1621 -656 l  1621 0 l  1546 0 l 
p
1291 -237 m  1291 -176 1304 -131 1330 -100 ct 1355 -70 1386 -55 1421 -55 ct 
1456 -55 1486 -70 1510 -98 ct 1535 -127 1547 -171 1547 -230 ct 1547 -295 1535 -343 1510 -373 ct 
1485 -404 1454 -419 1417 -419 ct 1381 -419 1351 -404 1327 -375 ct 1303 -346 1291 -300 1291 -237 ct 
p ef
2075 -153 m  2158 -142 l  2145 -94 2121 -56 2085 -29 ct 2050 -2 2004 11 1949 11 ct 
1880 11 1824 -10 1784 -53 ct 1743 -96 1723 -156 1723 -233 ct 1723 -313 1743 -376 1784 -420 ct 
1826 -464 1879 -486 1945 -486 ct 2008 -486 2060 -464 2100 -421 ct 2141 -378 2161 -317 2161 -238 ct 
2161 -234 2161 -226 2160 -217 ct 1806 -217 l  1809 -165 1824 -125 1850 -97 ct 
1877 -69 1910 -55 1950 -55 ct 1979 -55 2004 -63 2025 -78 ct 2046 -94 2063 -119 2075 -153 ct 
p
1810 -283 m  2076 -283 l  2072 -323 2062 -353 2045 -373 ct 2020 -404 1986 -420 1946 -420 ct 
1909 -420 1877 -407 1852 -383 ct 1827 -358 1813 -325 1810 -283 ct p ef
pom
0.000 c 10806 24500 m  7612 24500 l  7612 21318 l  13999 21318 l  13999 24500 l 
10806 24500 l  pc
pum
9091 23227 t
0.222 c 539 -230 m  626 -208 l  608 -137 575 -83 528 -45 ct 480 -8 423 11 354 11 ct 
283 11 226 -3 182 -32 ct 137 -61 104 -103 80 -157 ct 57 -212 46 -270 46 -333 ct 
46 -401 59 -461 85 -512 ct 111 -563 148 -601 196 -628 ct 245 -654 298 -667 356 -667 ct 
421 -667 476 -651 521 -617 ct 566 -584 597 -537 615 -476 ct 529 -456 l  514 -504 492 -539 463 -560 ct 
434 -582 398 -593 354 -593 ct 303 -593 261 -581 227 -557 ct 193 -533 170 -500 156 -459 ct 
142 -419 135 -377 135 -334 ct 135 -278 143 -229 160 -187 ct 176 -146 201 -115 236 -94 ct 
270 -74 307 -63 347 -63 ct 396 -63 437 -77 471 -105 ct 504 -133 527 -175 539 -230 ct 
p ef
725 0 m  725 -656 l  806 -656 l  806 -421 l  844 -464 891 -486 948 -486 ct 
984 -486 1014 -479 1040 -465 ct 1066 -451 1085 -432 1096 -408 ct 1107 -383 1113 -348 1113 -301 ct 
1113 0 l  1032 0 l  1032 -301 l  1032 -341 1023 -371 1006 -389 ct 989 -407 964 -417 932 -417 ct 
908 -417 886 -410 864 -398 ct 843 -386 828 -369 819 -348 ct 811 -327 806 -297 806 -260 ct 
806 0 l  725 0 l  p ef
1548 -58 m  1518 -33 1489 -15 1462 -5 ct 1434 6 1404 11 1373 11 ct 1320 11 1280 -2 1252 -27 ct 
1224 -53 1210 -85 1210 -125 ct 1210 -148 1215 -170 1226 -189 ct 1237 -208 1251 -223 1268 -235 ct 
1285 -247 1304 -256 1326 -262 ct 1341 -266 1365 -270 1397 -274 ct 1462 -281 1510 -291 1541 -301 ct 
1541 -312 1541 -319 1541 -322 ct 1541 -355 1534 -378 1519 -392 ct 1498 -410 1467 -419 1427 -419 ct 
1389 -419 1361 -412 1343 -399 ct 1325 -386 1311 -362 1303 -329 ct 1224 -339 l 
1231 -373 1243 -400 1259 -421 ct 1276 -442 1300 -458 1331 -469 ct 1362 -480 1398 -486 1438 -486 ct 
1479 -486 1512 -481 1537 -471 ct 1563 -462 1581 -450 1593 -435 ct 1605 -421 1614 -403 1618 -381 ct 
1621 -367 1623 -342 1623 -306 ct 1623 -199 l  1623 -124 1624 -77 1628 -57 ct 
1631 -37 1638 -18 1648 0 ct 1564 0 l  1556 -16 1550 -36 1548 -58 ct p
1541 -238 m  1512 -226 1468 -216 1409 -208 ct 1376 -203 1353 -198 1339 -192 ct 
1325 -186 1315 -177 1307 -166 ct 1300 -154 1296 -141 1296 -127 ct 1296 -106 1304 -88 1321 -74 ct 
1337 -59 1361 -52 1392 -52 ct 1423 -52 1451 -59 1475 -72 ct 1499 -86 1517 -105 1528 -128 ct 
1537 -146 1541 -173 1541 -209 ct 1541 -238 l  p ef
1749 0 m  1749 -475 l  1822 -475 l  1822 -408 l  1857 -460 1907 -486 1973 -486 ct 
2002 -486 2028 -481 2052 -471 ct 2076 -460 2094 -447 2106 -430 ct 2118 -413 2127 -394 2131 -371 ct 
2134 -356 2136 -330 2136 -292 ct 2136 0 l  2055 0 l  2055 -289 l  2055 -322 2052 -346 2046 -363 ct 
2040 -379 2028 -392 2013 -402 ct 1997 -411 1978 -416 1956 -416 ct 1922 -416 1892 -405 1867 -384 ct 
1843 -362 1830 -320 1830 -260 ct 1830 0 l  1749 0 l  p ef
2261 0 m  2261 -475 l  2334 -475 l  2334 -408 l  2369 -460 2419 -486 2485 -486 ct 
2514 -486 2540 -481 2564 -471 ct 2588 -460 2606 -447 2618 -430 ct 2630 -413 2639 -394 2643 -371 ct 
2646 -356 2648 -330 2648 -292 ct 2648 0 l  2567 0 l  2567 -289 l  2567 -322 2564 -346 2558 -363 ct 
2552 -379 2540 -392 2525 -402 ct 2509 -411 2490 -416 2468 -416 ct 2434 -416 2404 -405 2379 -384 ct 
2355 -362 2342 -320 2342 -260 ct 2342 0 l  2261 0 l  p ef
3100 -153 m  3183 -142 l  3170 -94 3146 -56 3110 -29 ct 3075 -2 3029 11 2974 11 ct 
2905 11 2849 -10 2809 -53 ct 2768 -96 2748 -156 2748 -233 ct 2748 -313 2768 -376 2809 -420 ct 
2851 -464 2904 -486 2970 -486 ct 3033 -486 3085 -464 3125 -421 ct 3166 -378 3186 -317 3186 -238 ct 
3186 -234 3186 -226 3185 -217 ct 2831 -217 l  2834 -165 2849 -125 2875 -97 ct 
2902 -69 2935 -55 2975 -55 ct 3004 -55 3029 -63 3050 -78 ct 3071 -94 3088 -119 3100 -153 ct 
p
2835 -283 m  3101 -283 l  3097 -323 3087 -353 3070 -373 ct 3045 -404 3011 -420 2971 -420 ct 
2934 -420 2902 -407 2877 -383 ct 2852 -358 2838 -325 2835 -283 ct p ef
3285 0 m  3285 -656 l  3365 -656 l  3365 0 l  3285 0 l  p ef
pom
0.000 c 8412 16544 m  8412 15410 l  8437 15410 l  8462 15410 l  8462 16544 l 
8437 16544 l  8412 16544 l  p ef
8437 14954 m  8247 15524 l  8627 15524 l  8437 14954 l  p ef
9375 14954 m  9375 16088 l  9350 16088 l  9325 16088 l  9325 14954 l  9350 14954 l 
9375 14954 l  p ef
9350 16544 m  9540 15974 l  9160 15974 l  9350 16544 l  p ef
12975 16544 m  12975 15410 l  13000 15410 l  13025 15410 l  13025 16544 l 
13000 16544 l  12975 16544 l  p ef
13000 14954 m  12810 15524 l  13190 15524 l  13000 14954 l  p ef
gr
gs
0 0 m 18999 0 l 18999 27699 l 0 27699 l 0 0 l eoclip newpath
gr
gr
0 27700 t 
pom
count op_count sub {pop} repeat countdictstack dict_count sub {end} repeat b4_inc_state restore
%%PageTrailer
%%Trailer
%%EOF
