%!PS-Adobe-3.0 EPSF-3.0 
%%BoundingBox: 0 0 595 842
%%Pages: 0
%%Creator: Sun Microsystems, Inc.
%%Title: none
%%CreationDate: none
%%LanguageLevel: 2
%%EndComments
%%BeginProlog
%%BeginResource: procset SDRes-Prolog 1.0 0
/b4_inc_state save def
/dict_count countdictstack def
/op_count count 1 sub def
userdict begin
0 setgray 0 setlinecap 1 setlinewidth 0 setlinejoin 10 setmiterlimit[] 0 setdash newpath
/languagelevel where {pop languagelevel 1 ne {false setstrokeadjust false setoverprint} if} if
/bdef {bind def} bind def
/c {setgray} bdef
/l {neg lineto} bdef
/rl {neg rlineto} bdef
/lc {setlinecap} bdef
/lj {setlinejoin} bdef
/lw {setlinewidth} bdef
/ml {setmiterlimit} bdef
/ld {setdash} bdef
/m {neg moveto} bdef
/ct {6 2 roll neg 6 2 roll neg 6 2 roll neg curveto} bdef
/r {rotate} bdef
/t {neg translate} bdef
/s {scale} bdef
/sw {show} bdef
/gs {gsave} bdef
/gr {grestore} bdef
/f {findfont dup length dict begin
{1 index /FID ne {def} {pop pop} ifelse} forall /Encoding ISOLatin1Encoding def
currentdict end /NFont exch definefont pop /NFont findfont} bdef
/p {closepath} bdef
/sf {scalefont setfont} bdef
/ef {eofill}bdef
/pc {closepath stroke}bdef
/ps {stroke}bdef
/pum {matrix currentmatrix}bdef
/pom {setmatrix}bdef
/bs {/aString exch def /nXOfs exch def /nWidth exch def currentpoint nXOfs 0 rmoveto pum nWidth aString stringwidth pop div 1 scale aString show pom moveto} bdef
%%EndResource
%%EndProlog
%%BeginSetup
%%EndSetup
%%Page: 1 1
%%BeginPageSetup
%%EndPageSetup
pum
0.02833 0.02835 s 
0 -29700 t
/tm matrix currentmatrix def
gs
0 0 m 20999 0 l 20999 29699 l 0 29699 l 0 0 l eoclip newpath
gs
0 0 m 20999 0 l 20999 29699 l 0 29699 l 0 0 l eoclip newpath
50 lw 1 lj 0.000 c 10685 6140 m  7000 6140 l  7000 2999 l  14370 2999 l 
14370 6140 l  10685 6140 l  pc
pum
9737 4887 t
0.222 c 238 -1 m  238 -579 l  22 -579 l  22 -656 l  542 -656 l  542 -579 l 
325 -579 l  325 -1 l  238 -1 l  p ef
832 -58 m  802 -33 773 -15 746 -5 ct 718 6 688 11 657 11 ct 604 11 564 -2 536 -27 ct 
508 -53 494 -85 494 -125 ct 494 -148 499 -170 510 -189 ct 521 -208 535 -223 552 -235 ct 
569 -247 588 -256 610 -262 ct 625 -266 649 -270 681 -274 ct 746 -281 794 -291 825 -301 ct 
825 -312 825 -319 825 -322 ct 825 -355 818 -378 803 -392 ct 782 -410 751 -419 711 -419 ct 
673 -419 645 -412 627 -399 ct 609 -386 595 -362 587 -329 ct 508 -339 l  515 -373 527 -400 543 -421 ct 
560 -442 584 -458 615 -469 ct 646 -480 682 -486 722 -486 ct 763 -486 796 -481 821 -471 ct 
847 -462 865 -450 877 -435 ct 889 -421 898 -403 902 -381 ct 905 -367 907 -342 907 -306 ct 
907 -199 l  907 -124 908 -77 912 -57 ct 915 -37 922 -18 932 0 ct 848 0 l  840 -16 834 -36 832 -58 ct 
p
825 -238 m  796 -226 752 -216 693 -208 ct 660 -203 637 -198 623 -192 ct 609 -186 599 -177 591 -166 ct 
584 -154 580 -141 580 -127 ct 580 -106 588 -88 605 -74 ct 621 -59 645 -52 676 -52 ct 
707 -52 735 -59 759 -72 ct 783 -86 801 -105 812 -128 ct 821 -146 825 -173 825 -209 ct 
825 -238 l  p ef
1002 -142 m  1082 -154 l  1086 -122 1099 -98 1119 -81 ct 1140 -64 1168 -55 1205 -55 ct 
1242 -55 1270 -63 1287 -78 ct 1305 -93 1314 -111 1314 -131 ct 1314 -149 1306 -163 1291 -174 ct 
1280 -181 1252 -190 1208 -201 ct 1149 -216 1108 -229 1085 -240 ct 1062 -251 1045 -266 1033 -285 ct 
1022 -304 1016 -326 1016 -349 ct 1016 -370 1020 -390 1030 -408 ct 1040 -426 1053 -441 1070 -453 ct 
1082 -462 1099 -470 1121 -476 ct 1143 -483 1166 -486 1191 -486 ct 1228 -486 1261 -481 1289 -470 ct 
1317 -459 1338 -445 1351 -426 ct 1365 -408 1374 -383 1379 -353 ct 1300 -342 l 
1297 -366 1286 -385 1269 -399 ct 1252 -413 1228 -420 1197 -420 ct 1160 -420 1133 -414 1117 -401 ct 
1101 -389 1094 -375 1094 -358 ct 1094 -348 1097 -339 1103 -330 ct 1110 -322 1120 -314 1134 -309 ct 
1142 -306 1166 -299 1205 -288 ct 1263 -273 1302 -260 1325 -251 ct 1347 -241 1365 -227 1378 -208 ct 
1391 -190 1397 -167 1397 -139 ct 1397 -113 1389 -87 1374 -64 ct 1358 -40 1335 -21 1306 -8 ct 
1276 5 1243 11 1205 11 ct 1144 11 1097 -2 1064 -28 ct 1032 -53 1011 -91 1002 -142 ct 
p ef
1496 0 m  1496 -656 l  1576 -656 l  1576 -282 l  1767 -475 l  1872 -475 l 
1690 -299 l  1890 0 l  1791 0 l  1633 -243 l  1576 -188 l  1576 0 l  1496 0 l 
p ef
pom
0.000 c 10685 10852 m  7000 10852 l  7000 7712 l  14370 7712 l  14370 10852 l 
10685 10852 l  pc
pum
8560 9600 t
0.222 c 238 -1 m  238 -579 l  22 -579 l  22 -656 l  542 -656 l  542 -579 l 
325 -579 l  325 -1 l  238 -1 l  p ef
832 -58 m  802 -33 773 -15 746 -5 ct 718 6 688 11 657 11 ct 604 11 564 -2 536 -27 ct 
508 -53 494 -85 494 -125 ct 494 -148 499 -170 510 -189 ct 521 -208 535 -223 552 -235 ct 
569 -247 588 -256 610 -262 ct 625 -266 649 -270 681 -274 ct 746 -281 794 -291 825 -301 ct 
825 -312 825 -319 825 -322 ct 825 -355 818 -378 803 -392 ct 782 -410 751 -419 711 -419 ct 
673 -419 645 -412 627 -399 ct 609 -386 595 -362 587 -329 ct 508 -339 l  515 -373 527 -400 543 -421 ct 
560 -442 584 -458 615 -469 ct 646 -480 682 -486 722 -486 ct 763 -486 796 -481 821 -471 ct 
847 -462 865 -450 877 -435 ct 889 -421 898 -403 902 -381 ct 905 -367 907 -342 907 -306 ct 
907 -199 l  907 -124 908 -77 912 -57 ct 915 -37 922 -18 932 0 ct 848 0 l  840 -16 834 -36 832 -58 ct 
p
825 -238 m  796 -226 752 -216 693 -208 ct 660 -203 637 -198 623 -192 ct 609 -186 599 -177 591 -166 ct 
584 -154 580 -141 580 -127 ct 580 -106 588 -88 605 -74 ct 621 -59 645 -52 676 -52 ct 
707 -52 735 -59 759 -72 ct 783 -86 801 -105 812 -128 ct 821 -146 825 -173 825 -209 ct 
825 -238 l  p ef
1002 -142 m  1082 -154 l  1086 -122 1099 -98 1119 -81 ct 1140 -64 1168 -55 1205 -55 ct 
1242 -55 1270 -63 1287 -78 ct 1305 -93 1314 -111 1314 -131 ct 1314 -149 1306 -163 1291 -174 ct 
1280 -181 1252 -190 1208 -201 ct 1149 -216 1108 -229 1085 -240 ct 1062 -251 1045 -266 1033 -285 ct 
1022 -304 1016 -326 1016 -349 ct 1016 -370 1020 -390 1030 -408 ct 1040 -426 1053 -441 1070 -453 ct 
1082 -462 1099 -470 1121 -476 ct 1143 -483 1166 -486 1191 -486 ct 1228 -486 1261 -481 1289 -470 ct 
1317 -459 1338 -445 1351 -426 ct 1365 -408 1374 -383 1379 -353 ct 1300 -342 l 
1297 -366 1286 -385 1269 -399 ct 1252 -413 1228 -420 1197 -420 ct 1160 -420 1133 -414 1117 -401 ct 
1101 -389 1094 -375 1094 -358 ct 1094 -348 1097 -339 1103 -330 ct 1110 -322 1120 -314 1134 -309 ct 
1142 -306 1166 -299 1205 -288 ct 1263 -273 1302 -260 1325 -251 ct 1347 -241 1365 -227 1378 -208 ct 
1391 -190 1397 -167 1397 -139 ct 1397 -113 1389 -87 1374 -64 ct 1358 -40 1335 -21 1306 -8 ct 
1276 5 1243 11 1205 11 ct 1144 11 1097 -2 1064 -28 ct 1032 -53 1011 -91 1002 -142 ct 
p ef
1496 0 m  1496 -656 l  1576 -656 l  1576 -282 l  1767 -475 l  1872 -475 l 
1690 -299 l  1890 0 l  1791 0 l  1633 -243 l  1576 -188 l  1576 0 l  1496 0 l 
p ef
1968 -1 m  1968 -656 l  2215 -656 l  2259 -656 2292 -654 2315 -650 ct 2347 -645 2374 -635 2396 -620 ct 
2418 -604 2436 -583 2449 -556 ct 2462 -529 2469 -499 2469 -467 ct 2469 -411 2451 -364 2416 -325 ct 
2380 -286 2316 -267 2223 -267 ct 2055 -267 l  2055 -1 l  1968 -1 l  p
2055 -344 m  2224 -344 l  2280 -344 2320 -355 2344 -376 ct 2367 -397 2379 -426 2379 -464 ct 
2379 -491 2372 -515 2358 -534 ct 2345 -554 2326 -567 2304 -573 ct 2289 -577 2262 -579 2223 -579 ct 
2055 -579 l  2055 -344 l  p ef
2570 0 m  2570 -475 l  2642 -475 l  2642 -403 l  2661 -437 2678 -459 2693 -470 ct 
2709 -481 2726 -486 2745 -486 ct 2772 -486 2800 -477 2828 -460 ct 2800 -385 l 
2780 -397 2761 -403 2741 -403 ct 2723 -403 2708 -397 2694 -387 ct 2680 -376 2670 -362 2664 -343 ct 
2655 -314 2650 -283 2650 -249 ct 2650 0 l  2570 0 l  p ef
2845 -237 m  2845 -325 2870 -391 2919 -433 ct 2960 -468 3010 -486 3068 -486 ct 
3134 -486 3187 -464 3229 -421 ct 3270 -379 3291 -320 3291 -244 ct 3291 -183 3282 -135 3263 -100 ct 
3245 -65 3218 -37 3183 -18 ct 3148 1 3110 11 3068 11 ct 3002 11 2948 -10 2907 -53 ct 
2866 -96 2845 -157 2845 -237 ct p
2928 -237 m  2928 -176 2942 -131 2968 -101 ct 2995 -70 3028 -55 3068 -55 ct 
3108 -55 3142 -70 3168 -101 ct 3195 -131 3208 -178 3208 -240 ct 3208 -299 3195 -343 3168 -374 ct 
3141 -404 3108 -419 3068 -419 ct 3028 -419 2995 -404 2968 -374 ct 2942 -344 2928 -298 2928 -237 ct 
p ef
3334 0 m  3507 -247 l  3347 -475 l  3447 -475 l  3520 -364 l  3534 -343 3545 -325 3554 -311 ct 
3567 -330 3579 -348 3590 -363 ct 3670 -475 l  3766 -475 l  3602 -252 l  3779 0 l 
3680 0 l  3582 -148 l  3556 -188 l  3431 0 l  3334 0 l  p ef
3846 183 m  3837 108 l  3855 112 3870 115 3883 115 ct 3901 115 3915 112 3926 106 ct 
3937 100 3946 91 3952 81 ct 3958 73 3966 53 3977 21 ct 3979 16 3981 10 3984 1 ct 
3804 -475 l  3891 -475 l  3990 -200 l  4002 -165 4014 -128 4024 -90 ct 4033 -127 4044 -163 4057 -198 ct 
4159 -475 l  4239 -475 l  4059 8 l  4039 60 4024 96 4013 116 ct 3999 143 3983 162 3964 174 ct 
3946 187 3923 193 3898 193 ct 3882 193 3865 190 3846 183 ct p ef
pom
0.000 c 8029 12424 m  8029 11309 l  8054 11309 l  8079 11309 l  8079 12424 l 
8054 12424 l  8029 12424 l  p ef
8054 10853 m  7864 11423 l  8244 11423 l  8054 10853 l  p ef
9132 10853 m  9132 11968 l  9107 11968 l  9082 11968 l  9082 10853 l  9107 10853 l 
9132 10853 l  p ef
9107 12424 m  9297 11854 l  8917 11854 l  9107 12424 l  p ef
13294 12424 m  13294 11309 l  13319 11309 l  13344 11309 l  13344 12424 l 
13319 12424 l  13294 12424 l  p ef
13319 10853 m  13129 11423 l  13509 11423 l  13319 10853 l  p ef
8029 7712 m  8029 6597 l  8054 6597 l  8079 6597 l  8079 7712 l  8054 7712 l 
8029 7712 l  p ef
8054 6141 m  7864 6711 l  8244 6711 l  8054 6141 l  p ef
9132 6141 m  9132 7256 l  9107 7256 l  9082 7256 l  9082 6141 l  9107 6141 l 
9132 6141 l  p ef
9107 7712 m  9297 7142 l  8917 7142 l  9107 7712 l  p ef
13294 7712 m  13294 6597 l  13319 6597 l  13344 6597 l  13344 7712 l  13319 7712 l 
13294 7712 l  p ef
13319 6141 m  13129 6711 l  13509 6711 l  13319 6141 l  p ef
8035 23424 m  8035 22309 l  8060 22309 l  8085 22309 l  8085 23424 l  8060 23424 l 
8035 23424 l  p ef
8060 21853 m  7870 22423 l  8250 22423 l  8060 21853 l  p ef
9137 21853 m  9137 22968 l  9112 22968 l  9087 22968 l  9087 21853 l  9112 21853 l 
9137 21853 l  p ef
9112 23424 m  9302 22854 l  8922 22854 l  9112 23424 l  p ef
13300 23424 m  13300 22309 l  13325 22309 l  13350 22309 l  13350 23424 l 
13325 23424 l  13300 23424 l  p ef
13325 21853 m  13135 22423 l  13515 22423 l  13325 21853 l  p ef
10685 21806 m  6999 21806 l  6999 18667 l  14370 18667 l  14370 21806 l 
10685 21806 l  pc
pum
9584 20554 t
0.222 c 70 0 m  70 -656 l  159 -656 l  504 -141 l  504 -656 l  587 -656 l 
587 0 l  498 0 l  153 -516 l  153 0 l  70 0 l  p ef
695 -237 m  695 -325 720 -391 769 -433 ct 810 -468 860 -486 918 -486 ct 984 -486 1037 -464 1079 -421 ct 
1120 -379 1141 -320 1141 -244 ct 1141 -183 1132 -135 1113 -100 ct 1095 -65 1068 -37 1033 -18 ct 
998 1 960 11 918 11 ct 852 11 798 -10 757 -53 ct 716 -96 695 -157 695 -237 ct p
778 -237 m  778 -176 792 -131 818 -101 ct 845 -70 878 -55 918 -55 ct 958 -55 992 -70 1018 -101 ct 
1045 -131 1058 -178 1058 -240 ct 1058 -299 1045 -343 1018 -374 ct 991 -404 958 -419 918 -419 ct 
878 -419 845 -404 818 -374 ct 792 -344 778 -298 778 -237 ct p ef
1546 0 m  1546 -60 l  1516 -13 1471 11 1413 11 ct 1375 11 1340 1 1308 -20 ct 
1277 -41 1252 -70 1235 -108 ct 1217 -145 1208 -188 1208 -237 ct 1208 -284 1216 -327 1232 -366 ct 
1248 -405 1272 -434 1303 -455 ct 1335 -475 1370 -486 1409 -486 ct 1438 -486 1464 -480 1486 -468 ct 
1508 -455 1527 -440 1541 -420 ct 1541 -656 l  1621 -656 l  1621 0 l  1546 0 l 
p
1291 -237 m  1291 -176 1304 -131 1330 -100 ct 1355 -70 1386 -55 1421 -55 ct 
1456 -55 1486 -70 1510 -98 ct 1535 -127 1547 -171 1547 -230 ct 1547 -295 1535 -343 1510 -373 ct 
1485 -404 1454 -419 1417 -419 ct 1381 -419 1351 -404 1327 -375 ct 1303 -346 1291 -300 1291 -237 ct 
p ef
2075 -153 m  2158 -142 l  2145 -94 2121 -56 2085 -29 ct 2050 -2 2004 11 1949 11 ct 
1880 11 1824 -10 1784 -53 ct 1743 -96 1723 -156 1723 -233 ct 1723 -313 1743 -376 1784 -420 ct 
1826 -464 1879 -486 1945 -486 ct 2008 -486 2060 -464 2100 -421 ct 2141 -378 2161 -317 2161 -238 ct 
2161 -234 2161 -226 2160 -217 ct 1806 -217 l  1809 -165 1824 -125 1850 -97 ct 
1877 -69 1910 -55 1950 -55 ct 1979 -55 2004 -63 2025 -78 ct 2046 -94 2063 -119 2075 -153 ct 
p
1810 -283 m  2076 -283 l  2072 -323 2062 -353 2045 -373 ct 2020 -404 1986 -420 1946 -420 ct 
1909 -420 1877 -407 1852 -383 ct 1827 -358 1813 -325 1810 -283 ct p ef
pom
0.000 c 10815 26499 m  7130 26499 l  7130 23358 l  14500 23358 l  14500 26499 l 
10815 26499 l  pc
pum
9101 25246 t
0.222 c 539 -230 m  626 -208 l  608 -137 575 -83 528 -45 ct 480 -8 423 11 354 11 ct 
283 11 226 -3 182 -32 ct 137 -61 104 -103 80 -157 ct 57 -212 46 -270 46 -333 ct 
46 -401 59 -461 85 -512 ct 111 -563 148 -601 196 -628 ct 245 -654 298 -667 356 -667 ct 
421 -667 476 -651 521 -617 ct 566 -584 597 -537 615 -476 ct 529 -456 l  514 -504 492 -539 463 -560 ct 
434 -582 398 -593 354 -593 ct 303 -593 261 -581 227 -557 ct 193 -533 170 -500 156 -459 ct 
142 -419 135 -377 135 -334 ct 135 -278 143 -229 160 -187 ct 176 -146 201 -115 236 -94 ct 
270 -74 307 -63 347 -63 ct 396 -63 437 -77 471 -105 ct 504 -133 527 -175 539 -230 ct 
p ef
725 0 m  725 -656 l  806 -656 l  806 -421 l  844 -464 891 -486 948 -486 ct 
984 -486 1014 -479 1040 -465 ct 1066 -451 1085 -432 1096 -408 ct 1107 -383 1113 -348 1113 -301 ct 
1113 0 l  1032 0 l  1032 -301 l  1032 -341 1023 -371 1006 -389 ct 989 -407 964 -417 932 -417 ct 
908 -417 886 -410 864 -398 ct 843 -386 828 -369 819 -348 ct 811 -327 806 -297 806 -260 ct 
806 0 l  725 0 l  p ef
1548 -58 m  1518 -33 1489 -15 1462 -5 ct 1434 6 1404 11 1373 11 ct 1320 11 1280 -2 1252 -27 ct 
1224 -53 1210 -85 1210 -125 ct 1210 -148 1215 -170 1226 -189 ct 1237 -208 1251 -223 1268 -235 ct 
1285 -247 1304 -256 1326 -262 ct 1341 -266 1365 -270 1397 -274 ct 1462 -281 1510 -291 1541 -301 ct 
1541 -312 1541 -319 1541 -322 ct 1541 -355 1534 -378 1519 -392 ct 1498 -410 1467 -419 1427 -419 ct 
1389 -419 1361 -412 1343 -399 ct 1325 -386 1311 -362 1303 -329 ct 1224 -339 l 
1231 -373 1243 -400 1259 -421 ct 1276 -442 1300 -458 1331 -469 ct 1362 -480 1398 -486 1438 -486 ct 
1479 -486 1512 -481 1537 -471 ct 1563 -462 1581 -450 1593 -435 ct 1605 -421 1614 -403 1618 -381 ct 
1621 -367 1623 -342 1623 -306 ct 1623 -199 l  1623 -124 1624 -77 1628 -57 ct 
1631 -37 1638 -18 1648 0 ct 1564 0 l  1556 -16 1550 -36 1548 -58 ct p
1541 -238 m  1512 -226 1468 -216 1409 -208 ct 1376 -203 1353 -198 1339 -192 ct 
1325 -186 1315 -177 1307 -166 ct 1300 -154 1296 -141 1296 -127 ct 1296 -106 1304 -88 1321 -74 ct 
1337 -59 1361 -52 1392 -52 ct 1423 -52 1451 -59 1475 -72 ct 1499 -86 1517 -105 1528 -128 ct 
1537 -146 1541 -173 1541 -209 ct 1541 -238 l  p ef
1749 0 m  1749 -475 l  1822 -475 l  1822 -408 l  1857 -460 1907 -486 1973 -486 ct 
2002 -486 2028 -481 2052 -471 ct 2076 -460 2094 -447 2106 -430 ct 2118 -413 2127 -394 2131 -371 ct 
2134 -356 2136 -330 2136 -292 ct 2136 0 l  2055 0 l  2055 -289 l  2055 -322 2052 -346 2046 -363 ct 
2040 -379 2028 -392 2013 -402 ct 1997 -411 1978 -416 1956 -416 ct 1922 -416 1892 -405 1867 -384 ct 
1843 -362 1830 -320 1830 -260 ct 1830 0 l  1749 0 l  p ef
2261 0 m  2261 -475 l  2334 -475 l  2334 -408 l  2369 -460 2419 -486 2485 -486 ct 
2514 -486 2540 -481 2564 -471 ct 2588 -460 2606 -447 2618 -430 ct 2630 -413 2639 -394 2643 -371 ct 
2646 -356 2648 -330 2648 -292 ct 2648 0 l  2567 0 l  2567 -289 l  2567 -322 2564 -346 2558 -363 ct 
2552 -379 2540 -392 2525 -402 ct 2509 -411 2490 -416 2468 -416 ct 2434 -416 2404 -405 2379 -384 ct 
2355 -362 2342 -320 2342 -260 ct 2342 0 l  2261 0 l  p ef
3100 -153 m  3183 -142 l  3170 -94 3146 -56 3110 -29 ct 3075 -2 3029 11 2974 11 ct 
2905 11 2849 -10 2809 -53 ct 2768 -96 2748 -156 2748 -233 ct 2748 -313 2768 -376 2809 -420 ct 
2851 -464 2904 -486 2970 -486 ct 3033 -486 3085 -464 3125 -421 ct 3166 -378 3186 -317 3186 -238 ct 
3186 -234 3186 -226 3185 -217 ct 2831 -217 l  2834 -165 2849 -125 2875 -97 ct 
2902 -69 2935 -55 2975 -55 ct 3004 -55 3029 -63 3050 -78 ct 3071 -94 3088 -119 3100 -153 ct 
p
2835 -283 m  3101 -283 l  3097 -323 3087 -353 3070 -373 ct 3045 -404 3011 -420 2971 -420 ct 
2934 -420 2902 -407 2877 -383 ct 2852 -358 2838 -325 2835 -283 ct p ef
3285 0 m  3285 -656 l  3365 -656 l  3365 0 l  3285 0 l  p ef
pom
0.000 c 10723 16999 m  7037 16999 l  7037 12444 l  14408 12444 l  14408 16999 l 
10723 16999 l  pc
pum
9241 14527 t
0.222 c 238 -1 m  238 -579 l  22 -579 l  22 -656 l  542 -656 l  542 -579 l 
325 -579 l  325 -1 l  238 -1 l  p ef
1102 -230 m  1189 -208 l  1171 -137 1138 -83 1091 -45 ct 1043 -8 986 11 917 11 ct 
846 11 789 -3 745 -32 ct 700 -61 667 -103 643 -157 ct 620 -212 609 -270 609 -333 ct 
609 -401 622 -461 648 -512 ct 674 -563 711 -601 759 -628 ct 808 -654 861 -667 919 -667 ct 
984 -667 1039 -651 1084 -617 ct 1129 -584 1160 -537 1178 -476 ct 1092 -456 l 
1077 -504 1055 -539 1026 -560 ct 997 -582 961 -593 917 -593 ct 866 -593 824 -581 790 -557 ct 
756 -533 733 -500 719 -459 ct 705 -419 698 -377 698 -334 ct 698 -278 706 -229 723 -187 ct 
739 -146 764 -115 799 -94 ct 833 -74 870 -63 910 -63 ct 959 -63 1000 -77 1034 -105 ct 
1067 -133 1090 -175 1102 -230 ct p ef
1299 -1 m  1299 -656 l  1546 -656 l  1590 -656 1623 -654 1646 -650 ct 1678 -645 1705 -635 1727 -620 ct 
1749 -604 1767 -583 1780 -556 ct 1793 -529 1800 -499 1800 -467 ct 1800 -411 1782 -364 1747 -325 ct 
1711 -286 1647 -267 1554 -267 ct 1386 -267 l  1386 -1 l  1299 -1 l  p
1386 -344 m  1555 -344 l  1611 -344 1651 -355 1675 -376 ct 1698 -397 1710 -426 1710 -464 ct 
1710 -491 1703 -515 1689 -534 ct 1676 -554 1657 -567 1635 -573 ct 1620 -577 1593 -579 1554 -579 ct 
1386 -579 l  1386 -344 l  p ef
1842 11 m  2032 -668 l  2097 -668 l  1907 11 l  1842 11 l  p ef
2182 0 m  2182 -656 l  2268 -656 l  2268 0 l  2182 0 l  p ef
2421 -1 m  2421 -656 l  2668 -656 l  2712 -656 2745 -654 2768 -650 ct 2800 -645 2827 -635 2849 -620 ct 
2871 -604 2889 -583 2902 -556 ct 2915 -529 2922 -499 2922 -467 ct 2922 -411 2904 -364 2869 -325 ct 
2833 -286 2769 -267 2676 -267 ct 2508 -267 l  2508 -1 l  2421 -1 l  p
2508 -344 m  2677 -344 l  2733 -344 2773 -355 2797 -376 ct 2820 -397 2832 -426 2832 -464 ct 
2832 -491 2825 -515 2811 -534 ct 2798 -554 2779 -567 2757 -573 ct 2742 -577 2715 -579 2676 -579 ct 
2508 -579 l  2508 -344 l  p ef
pom
pum
7427 15552 t
214 193 m  170 137 132 71 102 -4 ct 71 -79 56 -157 56 -238 ct 56 -309 67 -377 90 -442 ct 
117 -517 158 -592 214 -667 ct 272 -667 l  236 -605 212 -561 201 -534 ct 182 -493 168 -450 158 -405 ct 
145 -350 138 -293 138 -237 ct 138 -94 183 50 272 193 ct 214 193 l  p ef
844 -230 m  931 -208 l  913 -137 880 -83 833 -45 ct 785 -8 728 11 659 11 ct 
588 11 531 -3 487 -32 ct 442 -61 409 -103 385 -157 ct 362 -212 351 -270 351 -333 ct 
351 -401 364 -461 390 -512 ct 416 -563 453 -601 501 -628 ct 550 -654 603 -667 661 -667 ct 
726 -667 781 -651 826 -617 ct 871 -584 902 -537 920 -476 ct 834 -456 l  819 -504 797 -539 768 -560 ct 
739 -582 703 -593 659 -593 ct 608 -593 566 -581 532 -557 ct 498 -533 475 -500 461 -459 ct 
447 -419 440 -377 440 -334 ct 440 -278 448 -229 465 -187 ct 481 -146 506 -115 541 -94 ct 
575 -74 612 -63 652 -63 ct 701 -63 742 -77 776 -105 ct 809 -133 832 -175 844 -230 ct 
p ef
999 -237 m  999 -325 1024 -391 1073 -433 ct 1114 -468 1164 -486 1222 -486 ct 
1288 -486 1341 -464 1383 -421 ct 1424 -379 1445 -320 1445 -244 ct 1445 -183 1436 -135 1417 -100 ct 
1399 -65 1372 -37 1337 -18 ct 1302 1 1264 11 1222 11 ct 1156 11 1102 -10 1061 -53 ct 
1020 -96 999 -157 999 -237 ct p
1082 -237 m  1082 -176 1096 -131 1122 -101 ct 1149 -70 1182 -55 1222 -55 ct 
1262 -55 1296 -70 1322 -101 ct 1349 -131 1362 -178 1362 -240 ct 1362 -299 1349 -343 1322 -374 ct 
1295 -404 1262 -419 1222 -419 ct 1182 -419 1149 -404 1122 -374 ct 1096 -344 1082 -298 1082 -237 ct 
p ef
1542 0 m  1542 -475 l  1615 -475 l  1615 -409 l  1629 -432 1649 -451 1674 -465 ct 
1699 -479 1727 -486 1759 -486 ct 1794 -486 1823 -479 1845 -464 ct 1868 -449 1884 -429 1893 -403 ct 
1931 -458 1980 -486 2040 -486 ct 2087 -486 2123 -473 2149 -447 ct 2174 -421 2187 -381 2187 -326 ct 
2187 0 l  2107 0 l  2107 -299 l  2107 -332 2104 -355 2099 -369 ct 2094 -383 2084 -395 2070 -403 ct 
2057 -412 2041 -416 2022 -416 ct 1989 -416 1961 -405 1939 -383 ct 1917 -361 1906 -325 1906 -276 ct 
1906 0 l  1825 0 l  1825 -309 l  1825 -345 1818 -371 1805 -389 ct 1792 -407 1771 -416 1741 -416 ct 
1718 -416 1697 -410 1678 -398 ct 1659 -386 1645 -369 1636 -346 ct 1627 -323 1623 -290 1623 -247 ct 
1623 0 l  1542 0 l  p ef
2308 0 m  2308 -475 l  2381 -475 l  2381 -409 l  2395 -432 2415 -451 2440 -465 ct 
2465 -479 2493 -486 2525 -486 ct 2560 -486 2589 -479 2611 -464 ct 2634 -449 2650 -429 2659 -403 ct 
2697 -458 2746 -486 2806 -486 ct 2853 -486 2889 -473 2915 -447 ct 2940 -421 2953 -381 2953 -326 ct 
2953 0 l  2873 0 l  2873 -299 l  2873 -332 2870 -355 2865 -369 ct 2860 -383 2850 -395 2836 -403 ct 
2823 -412 2807 -416 2788 -416 ct 2755 -416 2727 -405 2705 -383 ct 2683 -361 2672 -325 2672 -276 ct 
2672 0 l  2591 0 l  2591 -309 l  2591 -345 2584 -371 2571 -389 ct 2558 -407 2537 -416 2507 -416 ct 
2484 -416 2463 -410 2444 -398 ct 2425 -386 2411 -369 2402 -346 ct 2393 -323 2389 -290 2389 -247 ct 
2389 0 l  2308 0 l  p ef
3386 0 m  3386 -70 l  3349 -16 3299 11 3235 11 ct 3207 11 3181 6 3157 -5 ct 
3132 -16 3114 -29 3102 -46 ct 3091 -62 3082 -82 3078 -105 ct 3074 -121 3073 -146 3073 -181 ct 
3073 -475 l  3153 -475 l  3153 -211 l  3153 -169 3155 -141 3158 -126 ct 3163 -105 3174 -89 3190 -76 ct 
3207 -64 3227 -58 3251 -58 ct 3275 -58 3298 -65 3319 -77 ct 3341 -89 3356 -106 3364 -128 ct 
3373 -149 3378 -180 3378 -220 ct 3378 -475 l  3458 -475 l  3458 0 l  3386 0 l 
p ef
3586 0 m  3586 -475 l  3659 -475 l  3659 -408 l  3694 -460 3744 -486 3810 -486 ct 
3839 -486 3865 -481 3889 -471 ct 3913 -460 3931 -447 3943 -430 ct 3955 -413 3964 -394 3968 -371 ct 
3971 -356 3973 -330 3973 -292 ct 3973 0 l  3892 0 l  3892 -289 l  3892 -322 3889 -346 3883 -363 ct 
3877 -379 3865 -392 3850 -402 ct 3834 -411 3815 -416 3793 -416 ct 3759 -416 3729 -405 3704 -384 ct 
3680 -362 3667 -320 3667 -260 ct 3667 0 l  3586 0 l  p ef
4100 -563 m  4100 -656 l  4180 -656 l  4180 -563 l  4100 -563 l  p
4100 0 m  4100 -475 l  4180 -475 l  4180 0 l  4100 0 l  p ef
4613 -174 m  4692 -164 l  4683 -109 4661 -66 4626 -35 ct 4590 -4 4546 11 4494 11 ct 
4429 11 4377 -10 4337 -53 ct 4298 -95 4278 -156 4278 -236 ct 4278 -287 4286 -332 4303 -370 ct 
4320 -409 4346 -438 4381 -457 ct 4416 -476 4454 -486 4495 -486 ct 4546 -486 4588 -473 4621 -447 ct 
4654 -421 4675 -384 4684 -336 ct 4606 -323 l  4599 -355 4585 -379 4566 -396 ct 
4547 -412 4525 -420 4498 -420 ct 4457 -420 4424 -405 4399 -376 ct 4373 -347 4361 -301 4361 -238 ct 
4361 -174 4373 -128 4397 -99 ct 4422 -70 4454 -55 4493 -55 ct 4525 -55 4551 -65 4572 -84 ct 
4594 -104 4607 -134 4613 -174 ct p ef
5074 -58 m  5044 -33 5015 -15 4988 -5 ct 4960 6 4930 11 4899 11 ct 4846 11 4806 -2 4778 -27 ct 
4750 -53 4736 -85 4736 -125 ct 4736 -148 4741 -170 4752 -189 ct 4763 -208 4777 -223 4794 -235 ct 
4811 -247 4830 -256 4852 -262 ct 4867 -266 4891 -270 4923 -274 ct 4988 -281 5036 -291 5067 -301 ct 
5067 -312 5067 -319 5067 -322 ct 5067 -355 5060 -378 5045 -392 ct 5024 -410 4993 -419 4953 -419 ct 
4915 -419 4887 -412 4869 -399 ct 4851 -386 4837 -362 4829 -329 ct 4750 -339 l 
4757 -373 4769 -400 4785 -421 ct 4802 -442 4826 -458 4857 -469 ct 4888 -480 4924 -486 4964 -486 ct 
5005 -486 5038 -481 5063 -471 ct 5089 -462 5107 -450 5119 -435 ct 5131 -421 5140 -403 5144 -381 ct 
5147 -367 5149 -342 5149 -306 ct 5149 -199 l  5149 -124 5150 -77 5154 -57 ct 
5157 -37 5164 -18 5174 0 ct 5090 0 l  5082 -16 5076 -36 5074 -58 ct p
5067 -238 m  5038 -226 4994 -216 4935 -208 ct 4902 -203 4879 -198 4865 -192 ct 
4851 -186 4841 -177 4833 -166 ct 4826 -154 4822 -141 4822 -127 ct 4822 -106 4830 -88 4847 -74 ct 
4863 -59 4887 -52 4918 -52 ct 4949 -52 4977 -59 5001 -72 ct 5025 -86 5043 -105 5054 -128 ct 
5063 -146 5067 -173 5067 -209 ct 5067 -238 l  p ef
5451 -72 m  5463 -1 l  5440 4 5420 6 5402 6 ct 5373 6 5350 1 5334 -8 ct 5318 -17 5307 -29 5300 -44 ct 
5294 -59 5290 -91 5290 -139 ct 5290 -413 l  5231 -413 l  5231 -476 l  5290 -476 l 
5290 -593 l  5370 -642 l  5370 -476 l  5451 -476 l  5451 -413 l  5370 -413 l 
5370 -135 l  5370 -112 5372 -97 5375 -91 ct 5377 -84 5382 -79 5389 -75 ct 5395 -71 5404 -69 5416 -69 ct 
5425 -69 5437 -70 5451 -72 ct p ef
5499 -237 m  5499 -325 5524 -391 5573 -433 ct 5614 -468 5664 -486 5722 -486 ct 
5788 -486 5841 -464 5883 -421 ct 5924 -379 5945 -320 5945 -244 ct 5945 -183 5936 -135 5917 -100 ct 
5899 -65 5872 -37 5837 -18 ct 5802 1 5764 11 5722 11 ct 5656 11 5602 -10 5561 -53 ct 
5520 -96 5499 -157 5499 -237 ct p
5582 -237 m  5582 -176 5596 -131 5622 -101 ct 5649 -70 5682 -55 5722 -55 ct 
5762 -55 5796 -70 5822 -101 ct 5849 -131 5862 -178 5862 -240 ct 5862 -299 5849 -343 5822 -374 ct 
5795 -404 5762 -419 5722 -419 ct 5682 -419 5649 -404 5622 -374 ct 5596 -344 5582 -298 5582 -237 ct 
p ef
6042 0 m  6042 -475 l  6114 -475 l  6114 -403 l  6133 -437 6150 -459 6165 -470 ct 
6181 -481 6198 -486 6217 -486 ct 6244 -486 6272 -477 6300 -460 ct 6272 -385 l 
6252 -397 6233 -403 6213 -403 ct 6195 -403 6180 -397 6166 -387 ct 6152 -376 6142 -362 6136 -343 ct 
6127 -314 6122 -283 6122 -249 ct 6122 0 l  6042 0 l  p ef
6400 193 m  6343 193 l  6432 50 6476 -94 6476 -237 ct 6476 -293 6470 -349 6457 -404 ct 
6447 -449 6433 -492 6415 -533 ct 6403 -560 6379 -604 6343 -667 ct 6400 -667 l 
6456 -592 6498 -517 6525 -442 ct 6548 -377 6559 -309 6559 -238 ct 6559 -157 6544 -79 6513 -4 ct 
6482 71 6444 137 6400 193 ct p ef
pom
0.000 c 8056 18646 m  8056 17531 l  8081 17531 l  8106 17531 l  8106 18646 l 
8081 18646 l  8056 18646 l  p ef
8081 17075 m  7891 17645 l  8271 17645 l  8081 17075 l  p ef
9159 17075 m  9159 18190 l  9134 18190 l  9109 18190 l  9109 17075 l  9134 17075 l 
9159 17075 l  p ef
9134 18646 m  9324 18076 l  8944 18076 l  9134 18646 l  p ef
13321 18646 m  13321 17531 l  13346 17531 l  13371 17531 l  13371 18646 l 
13346 18646 l  13321 18646 l  p ef
13346 17075 m  13156 17645 l  13536 17645 l  13346 17075 l  p ef
gr
gs
0 0 m 20999 0 l 20999 29699 l 0 29699 l 0 0 l eoclip newpath
gr
gr
0 29700 t 
pom
count op_count sub {pop} repeat countdictstack dict_count sub {end} repeat b4_inc_state restore
%%PageTrailer
%%Trailer
%%EOF
