%!PS-Adobe-3.0 EPSF-3.0 
%%BoundingBox: 0 0 595 842
%%Pages: 0
%%Creator: Sun Microsystems, Inc.
%%Title: none
%%CreationDate: none
%%LanguageLevel: 2
%%EndComments
%%BeginProlog
%%BeginResource: procset SDRes-Prolog 1.0 0
/b4_inc_state save def
/dict_count countdictstack def
/op_count count 1 sub def
userdict begin
0 setgray 0 setlinecap 1 setlinewidth 0 setlinejoin 10 setmiterlimit[] 0 setdash newpath
/languagelevel where {pop languagelevel 1 ne {false setstrokeadjust false setoverprint} if} if
/bdef {bind def} bind def
/c {setgray} bdef
/l {neg lineto} bdef
/rl {neg rlineto} bdef
/lc {setlinecap} bdef
/lj {setlinejoin} bdef
/lw {setlinewidth} bdef
/ml {setmiterlimit} bdef
/ld {setdash} bdef
/m {neg moveto} bdef
/ct {6 2 roll neg 6 2 roll neg 6 2 roll neg curveto} bdef
/r {rotate} bdef
/t {neg translate} bdef
/s {scale} bdef
/sw {show} bdef
/gs {gsave} bdef
/gr {grestore} bdef
/f {findfont dup length dict begin
{1 index /FID ne {def} {pop pop} ifelse} forall /Encoding ISOLatin1Encoding def
currentdict end /NFont exch definefont pop /NFont findfont} bdef
/p {closepath} bdef
/sf {scalefont setfont} bdef
/ef {eofill}bdef
/pc {closepath stroke}bdef
/ps {stroke}bdef
/pum {matrix currentmatrix}bdef
/pom {setmatrix}bdef
/bs {/aString exch def /nXOfs exch def /nWidth exch def currentpoint nXOfs 0 rmoveto pum nWidth aString stringwidth pop div 1 scale aString show pom moveto} bdef
%%EndResource
%%EndProlog
%%BeginSetup
%%EndSetup
%%Page: 1 1
%%BeginPageSetup
%%EndPageSetup
pum
0.02833 0.02835 s 
0 -29700 t
/tm matrix currentmatrix def
gs
0 0 m 20999 0 l 20999 29699 l 0 29699 l 0 0 l eoclip newpath
gs
0 0 m 20999 0 l 20999 29699 l 0 29699 l 0 0 l eoclip newpath
50 lw 1 lj 0.000 c 10702 5273 m  7999 5273 l  7999 1510 l  13404 1510 l 
13404 5273 l  10702 5273 l  pc
pum
9974 3637 t
0.222 c 183 1 m  183 -446 l  17 -446 l  17 -506 l  417 -506 l  417 -446 l 
250 -446 l  250 1 l  183 1 l  p ef
636 -46 m  613 -26 591 -12 570 -4 ct 549 4 526 8 502 8 ct 461 8 431 -2 409 -22 ct 
387 -41 377 -66 377 -97 ct 377 -115 381 -131 389 -146 ct 397 -161 408 -173 421 -182 ct 
434 -191 449 -198 465 -202 ct 478 -206 496 -209 521 -212 ct 571 -218 608 -225 631 -233 ct 
632 -242 632 -247 632 -249 ct 632 -275 626 -293 614 -303 ct 598 -317 575 -324 543 -324 ct 
514 -324 493 -319 479 -309 ct 465 -298 455 -280 448 -254 ct 387 -263 l  393 -289 402 -310 414 -326 ct 
427 -342 445 -354 469 -363 ct 493 -371 521 -375 552 -375 ct 584 -375 609 -372 629 -364 ct 
648 -357 662 -348 672 -337 ct 681 -325 687 -311 691 -294 ct 693 -284 694 -265 694 -237 ct 
694 -154 l  694 -96 695 -60 698 -44 ct 701 -29 706 -14 714 0 ct 649 0 l  642 -13 638 -28 636 -46 ct 
p
631 -184 m  609 -175 575 -167 530 -161 ct 504 -157 486 -153 476 -148 ct 465 -144 457 -137 451 -128 ct 
446 -119 443 -110 443 -99 ct 443 -82 449 -68 461 -57 ct 474 -46 492 -41 516 -41 ct 
540 -41 562 -46 580 -56 ct 599 -67 613 -81 621 -99 ct 628 -113 631 -134 631 -162 ct 
631 -184 l  p ef
767 -110 m  828 -119 l  832 -95 841 -76 857 -63 ct 873 -50 895 -43 923 -43 ct 
951 -43 973 -49 986 -61 ct 1000 -72 1007 -86 1007 -101 ct 1007 -115 1001 -127 989 -135 ct 
980 -140 959 -147 925 -156 ct 880 -167 848 -177 831 -185 ct 813 -194 800 -205 791 -220 ct 
782 -235 777 -252 777 -269 ct 777 -286 781 -301 788 -315 ct 796 -329 806 -340 819 -350 ct 
828 -357 842 -363 858 -368 ct 875 -373 893 -375 912 -375 ct 941 -375 966 -371 988 -363 ct 
1009 -354 1025 -343 1036 -329 ct 1046 -315 1053 -296 1057 -272 ct 996 -264 l 
994 -283 986 -298 972 -308 ct 959 -319 940 -324 916 -324 ct 888 -324 867 -319 855 -310 ct 
843 -300 837 -289 837 -277 ct 837 -269 840 -261 845 -255 ct 850 -248 858 -243 868 -238 ct 
875 -236 893 -231 923 -223 ct 967 -211 998 -201 1015 -194 ct 1032 -186 1046 -175 1056 -161 ct 
1066 -147 1071 -129 1071 -108 ct 1071 -87 1065 -68 1053 -49 ct 1041 -31 1023 -17 1000 -7 ct 
978 3 952 8 923 8 ct 876 8 839 -2 814 -22 ct 790 -41 774 -71 767 -110 ct p ef
1148 0 m  1148 -506 l  1210 -506 l  1210 -218 l  1357 -367 l  1437 -367 l 
1297 -231 l  1451 0 l  1375 0 l  1254 -188 l  1210 -145 l  1210 0 l  1148 0 l 
p ef
pom
0.000 c 10702 10917 m  7999 10917 l  7999 7154 l  13404 7154 l  13404 10917 l 
10702 10917 l  pc
pum
9068 9281 t
0.222 c 183 1 m  183 -446 l  17 -446 l  17 -506 l  417 -506 l  417 -446 l 
250 -446 l  250 1 l  183 1 l  p ef
636 -46 m  613 -26 591 -12 570 -4 ct 549 4 526 8 502 8 ct 461 8 431 -2 409 -22 ct 
387 -41 377 -66 377 -97 ct 377 -115 381 -131 389 -146 ct 397 -161 408 -173 421 -182 ct 
434 -191 449 -198 465 -202 ct 478 -206 496 -209 521 -212 ct 571 -218 608 -225 631 -233 ct 
632 -242 632 -247 632 -249 ct 632 -275 626 -293 614 -303 ct 598 -317 575 -324 543 -324 ct 
514 -324 493 -319 479 -309 ct 465 -298 455 -280 448 -254 ct 387 -263 l  393 -289 402 -310 414 -326 ct 
427 -342 445 -354 469 -363 ct 493 -371 521 -375 552 -375 ct 584 -375 609 -372 629 -364 ct 
648 -357 662 -348 672 -337 ct 681 -325 687 -311 691 -294 ct 693 -284 694 -265 694 -237 ct 
694 -154 l  694 -96 695 -60 698 -44 ct 701 -29 706 -14 714 0 ct 649 0 l  642 -13 638 -28 636 -46 ct 
p
631 -184 m  609 -175 575 -167 530 -161 ct 504 -157 486 -153 476 -148 ct 465 -144 457 -137 451 -128 ct 
446 -119 443 -110 443 -99 ct 443 -82 449 -68 461 -57 ct 474 -46 492 -41 516 -41 ct 
540 -41 562 -46 580 -56 ct 599 -67 613 -81 621 -99 ct 628 -113 631 -134 631 -162 ct 
631 -184 l  p ef
767 -110 m  828 -119 l  832 -95 841 -76 857 -63 ct 873 -50 895 -43 923 -43 ct 
951 -43 973 -49 986 -61 ct 1000 -72 1007 -86 1007 -101 ct 1007 -115 1001 -127 989 -135 ct 
980 -140 959 -147 925 -156 ct 880 -167 848 -177 831 -185 ct 813 -194 800 -205 791 -220 ct 
782 -235 777 -252 777 -269 ct 777 -286 781 -301 788 -315 ct 796 -329 806 -340 819 -350 ct 
828 -357 842 -363 858 -368 ct 875 -373 893 -375 912 -375 ct 941 -375 966 -371 988 -363 ct 
1009 -354 1025 -343 1036 -329 ct 1046 -315 1053 -296 1057 -272 ct 996 -264 l 
994 -283 986 -298 972 -308 ct 959 -319 940 -324 916 -324 ct 888 -324 867 -319 855 -310 ct 
843 -300 837 -289 837 -277 ct 837 -269 840 -261 845 -255 ct 850 -248 858 -243 868 -238 ct 
875 -236 893 -231 923 -223 ct 967 -211 998 -201 1015 -194 ct 1032 -186 1046 -175 1056 -161 ct 
1066 -147 1071 -129 1071 -108 ct 1071 -87 1065 -68 1053 -49 ct 1041 -31 1023 -17 1000 -7 ct 
978 3 952 8 923 8 ct 876 8 839 -2 814 -22 ct 790 -41 774 -71 767 -110 ct p ef
1148 0 m  1148 -506 l  1210 -506 l  1210 -218 l  1357 -367 l  1437 -367 l 
1297 -231 l  1451 0 l  1375 0 l  1254 -188 l  1210 -145 l  1210 0 l  1148 0 l 
p ef
1510 0 m  1510 -507 l  1701 -507 l  1735 -507 1760 -505 1778 -502 ct 1803 -498 1824 -490 1840 -478 ct 
1857 -467 1871 -450 1881 -429 ct 1891 -408 1896 -385 1896 -360 ct 1896 -317 1883 -281 1855 -251 ct 
1828 -221 1778 -206 1707 -206 ct 1577 -206 l  1577 0 l  1510 0 l  p
1577 -266 m  1708 -266 l  1751 -266 1782 -274 1800 -290 ct 1818 -306 1827 -329 1827 -358 ct 
1827 -379 1822 -397 1811 -413 ct 1801 -428 1786 -438 1769 -443 ct 1758 -446 1737 -447 1707 -447 ct 
1577 -447 l  1577 -266 l  p ef
1972 0 m  1972 -367 l  2028 -367 l  2028 -311 l  2042 -337 2055 -354 2067 -363 ct 
2079 -371 2093 -375 2107 -375 ct 2128 -375 2149 -368 2171 -355 ct 2149 -297 l 
2134 -306 2119 -311 2104 -311 ct 2090 -311 2078 -307 2067 -299 ct 2057 -290 2049 -279 2044 -265 ct 
2037 -242 2034 -218 2034 -192 ct 2034 0 l  1972 0 l  p ef
2186 -184 m  2186 -252 2205 -302 2243 -335 ct 2274 -362 2313 -375 2358 -375 ct 
2408 -375 2450 -359 2482 -326 ct 2513 -293 2529 -247 2529 -189 ct 2529 -142 2522 -105 2508 -78 ct 
2494 -50 2474 -29 2447 -14 ct 2420 1 2390 8 2358 8 ct 2307 8 2265 -8 2234 -41 ct 
2202 -74 2186 -122 2186 -184 ct p
2250 -184 m  2250 -137 2260 -102 2281 -78 ct 2301 -55 2327 -43 2358 -43 ct 2389 -43 2415 -55 2435 -78 ct 
2455 -102 2466 -138 2466 -186 ct 2466 -231 2455 -266 2435 -289 ct 2414 -312 2389 -324 2358 -324 ct 
2327 -324 2301 -312 2281 -289 ct 2260 -266 2250 -231 2250 -184 ct p ef
2562 0 m  2696 -191 l  2572 -367 l  2650 -367 l  2706 -281 l  2717 -264 2725 -251 2731 -240 ct 
2742 -255 2751 -268 2759 -280 ct 2821 -367 l  2895 -367 l  2769 -194 l  2905 0 l 
2829 0 l  2754 -114 l  2734 -145 l  2637 0 l  2562 0 l  p ef
2957 141 m  2950 83 l  2963 87 2975 89 2985 89 ct 2999 89 3010 86 3018 82 ct 
3027 77 3034 71 3039 62 ct 3043 56 3049 41 3058 16 ct 3059 13 3061 8 3063 1 ct 
2924 -367 l  2991 -367 l  3067 -154 l  3077 -127 3086 -99 3094 -69 ct 3101 -98 3110 -126 3119 -153 ct 
3198 -367 l  3260 -367 l  3121 6 l  3106 47 3094 74 3086 90 ct 3075 110 3062 125 3048 135 ct 
3034 144 3017 149 2997 149 ct 2985 149 2971 146 2957 141 ct p ef
pom
0.000 c 8748 7155 m  8748 5730 l  8773 5730 l  8798 5730 l  8798 7155 l 
8773 7155 l  8748 7155 l  p ef
8773 5274 m  8583 5844 l  8963 5844 l  8773 5274 l  p ef
9570 5274 m  9570 6699 l  9545 6699 l  9520 6699 l  9520 5274 l  9545 5274 l 
9570 5274 l  p ef
9545 7155 m  9735 6585 l  9355 6585 l  9545 7155 l  p ef
12609 7155 m  12609 5730 l  12634 5730 l  12659 5730 l  12659 7155 l  12634 7155 l 
12609 7155 l  p ef
12634 5274 m  12444 5844 l  12824 5844 l  12634 5274 l  p ef
8752 24313 m  8752 22888 l  8777 22888 l  8802 22888 l  8802 24313 l  8777 24313 l 
8752 24313 l  p ef
8777 22432 m  8587 23002 l  8967 23002 l  8777 22432 l  p ef
9574 22432 m  9574 23857 l  9549 23857 l  9524 23857 l  9524 22432 l  9549 22432 l 
9574 22432 l  p ef
9549 24313 m  9739 23743 l  9359 23743 l  9549 24313 l  p ef
12613 24313 m  12613 22888 l  12638 22888 l  12663 22888 l  12663 24313 l 
12638 24313 l  12613 24313 l  p ef
12638 22432 m  12448 23002 l  12828 23002 l  12638 22432 l  p ef
10702 22378 m  7999 22378 l  7999 18615 l  13404 18615 l  13404 22378 l 
10702 22378 l  pc
pum
9855 20742 t
0.222 c 54 0 m  54 -506 l  122 -506 l  388 -109 l  388 -506 l  452 -506 l 
452 0 l  383 0 l  118 -398 l  118 0 l  54 0 l  p ef
535 -184 m  535 -252 554 -302 592 -335 ct 623 -362 662 -375 707 -375 ct 757 -375 799 -359 831 -326 ct 
862 -293 878 -247 878 -189 ct 878 -142 871 -105 857 -78 ct 843 -50 823 -29 796 -14 ct 
769 1 739 8 707 8 ct 656 8 614 -8 583 -41 ct 551 -74 535 -122 535 -184 ct p
599 -184 m  599 -137 609 -102 630 -78 ct 650 -55 676 -43 707 -43 ct 738 -43 764 -55 784 -78 ct 
804 -102 815 -138 815 -186 ct 815 -231 804 -266 784 -289 ct 763 -312 738 -324 707 -324 ct 
676 -324 650 -312 630 -289 ct 609 -266 599 -231 599 -184 ct p ef
1190 0 m  1190 -47 l  1167 -10 1133 8 1088 8 ct 1058 8 1032 0 1007 -16 ct 983 -32 964 -55 950 -84 ct 
937 -113 930 -146 930 -183 ct 930 -220 936 -253 948 -283 ct 961 -313 979 -336 1003 -352 ct 
1028 -368 1055 -375 1085 -375 ct 1107 -375 1127 -371 1144 -361 ct 1161 -352 1175 -340 1186 -325 ct 
1186 -506 l  1248 -506 l  1248 0 l  1190 0 l  p
994 -183 m  994 -136 1004 -101 1024 -78 ct 1043 -55 1067 -43 1094 -43 ct 1121 -43 1144 -54 1163 -76 ct 
1182 -99 1191 -133 1191 -178 ct 1191 -228 1181 -265 1162 -289 ct 1143 -312 1119 -324 1091 -324 ct 
1063 -324 1040 -313 1022 -290 ct 1003 -268 994 -232 994 -183 ct p ef
1597 -118 m  1661 -111 l  1651 -73 1632 -44 1605 -23 ct 1578 -2 1543 8 1500 8 ct 
1447 8 1404 -9 1373 -42 ct 1342 -75 1326 -121 1326 -180 ct 1326 -242 1342 -290 1373 -324 ct 
1405 -358 1446 -375 1497 -375 ct 1546 -375 1586 -358 1617 -325 ct 1648 -292 1663 -245 1663 -184 ct 
1663 -181 1663 -175 1663 -168 ct 1390 -168 l  1392 -128 1404 -97 1424 -75 ct 
1445 -54 1470 -43 1501 -43 ct 1523 -43 1543 -49 1559 -61 ct 1575 -73 1588 -92 1597 -118 ct 
p
1393 -219 m  1598 -219 l  1595 -250 1587 -273 1574 -288 ct 1555 -312 1529 -324 1498 -324 ct 
1469 -324 1445 -314 1426 -295 ct 1406 -276 1396 -251 1393 -219 ct p ef
pom
0.000 c 10797 27999 m  8094 27999 l  8094 24236 l  13499 24236 l  13499 27999 l 
10797 27999 l  pc
pum
9478 26363 t
0.222 c 415 -177 m  482 -160 l  468 -105 443 -63 406 -34 ct 370 -5 325 9 273 9 ct 
218 9 174 -2 140 -24 ct 106 -47 80 -79 62 -121 ct 44 -163 35 -208 35 -256 ct 35 -309 45 -355 65 -394 ct 
85 -434 114 -463 151 -484 ct 188 -504 229 -514 274 -514 ct 324 -514 367 -501 401 -476 ct 
436 -450 460 -414 473 -367 ct 407 -351 l  396 -388 379 -415 356 -432 ct 334 -449 306 -457 272 -457 ct 
234 -457 201 -448 175 -429 ct 149 -410 131 -385 120 -354 ct 109 -323 104 -290 104 -257 ct 
104 -214 110 -176 123 -144 ct 135 -112 155 -88 181 -72 ct 208 -56 236 -48 267 -48 ct 
305 -48 336 -59 362 -81 ct 388 -102 406 -134 415 -177 ct p ef
559 0 m  559 -506 l  621 -506 l  621 -325 l  650 -358 686 -375 730 -375 ct 
757 -375 781 -370 801 -359 ct 821 -348 835 -333 844 -315 ct 852 -296 857 -268 857 -232 ct 
857 0 l  795 0 l  795 -232 l  795 -263 788 -286 775 -300 ct 761 -314 742 -321 717 -321 ct 
699 -321 682 -317 666 -307 ct 649 -298 638 -285 631 -268 ct 624 -252 621 -229 621 -201 ct 
621 0 l  559 0 l  p ef
1191 -46 m  1168 -26 1146 -12 1125 -4 ct 1104 4 1081 8 1057 8 ct 1016 8 986 -2 964 -22 ct 
942 -41 932 -66 932 -97 ct 932 -115 936 -131 944 -146 ct 952 -161 963 -173 976 -182 ct 
989 -191 1004 -198 1020 -202 ct 1033 -206 1051 -209 1076 -212 ct 1126 -218 1163 -225 1186 -233 ct 
1187 -242 1187 -247 1187 -249 ct 1187 -275 1181 -293 1169 -303 ct 1153 -317 1130 -324 1098 -324 ct 
1069 -324 1048 -319 1034 -309 ct 1020 -298 1010 -280 1003 -254 ct 942 -263 l 
948 -289 957 -310 969 -326 ct 982 -342 1000 -354 1024 -363 ct 1048 -371 1076 -375 1107 -375 ct 
1139 -375 1164 -372 1184 -364 ct 1203 -357 1217 -348 1227 -337 ct 1236 -325 1242 -311 1246 -294 ct 
1248 -284 1249 -265 1249 -237 ct 1249 -154 l  1249 -96 1250 -60 1253 -44 ct 
1256 -29 1261 -14 1269 0 ct 1204 0 l  1197 -13 1193 -28 1191 -46 ct p
1186 -184 m  1164 -175 1130 -167 1085 -161 ct 1059 -157 1041 -153 1031 -148 ct 
1020 -144 1012 -137 1006 -128 ct 1001 -119 998 -110 998 -99 ct 998 -82 1004 -68 1016 -57 ct 
1029 -46 1047 -41 1071 -41 ct 1095 -41 1117 -46 1135 -56 ct 1154 -67 1168 -81 1176 -99 ct 
1183 -113 1186 -134 1186 -162 ct 1186 -184 l  p ef
1347 0 m  1347 -367 l  1402 -367 l  1402 -315 l  1429 -355 1468 -375 1519 -375 ct 
1541 -375 1561 -371 1580 -363 ct 1598 -355 1612 -345 1621 -332 ct 1630 -319 1637 -304 1641 -286 ct 
1643 -274 1644 -254 1644 -225 ct 1644 0 l  1582 0 l  1582 -223 l  1582 -248 1580 -267 1575 -280 ct 
1570 -292 1561 -302 1549 -310 ct 1537 -317 1522 -321 1506 -321 ct 1479 -321 1457 -313 1437 -296 ct 
1418 -279 1409 -247 1409 -200 ct 1409 0 l  1347 0 l  p ef
1740 0 m  1740 -367 l  1795 -367 l  1795 -315 l  1822 -355 1861 -375 1912 -375 ct 
1934 -375 1954 -371 1973 -363 ct 1991 -355 2005 -345 2014 -332 ct 2023 -319 2030 -304 2034 -286 ct 
2036 -274 2037 -254 2037 -225 ct 2037 0 l  1975 0 l  1975 -223 l  1975 -248 1973 -267 1968 -280 ct 
1963 -292 1954 -302 1942 -310 ct 1930 -317 1915 -321 1899 -321 ct 1872 -321 1850 -313 1830 -296 ct 
1811 -279 1802 -247 1802 -200 ct 1802 0 l  1740 0 l  p ef
2384 -118 m  2448 -111 l  2438 -73 2419 -44 2392 -23 ct 2365 -2 2330 8 2287 8 ct 
2234 8 2191 -9 2160 -42 ct 2129 -75 2113 -121 2113 -180 ct 2113 -242 2129 -290 2160 -324 ct 
2192 -358 2233 -375 2284 -375 ct 2333 -375 2373 -358 2404 -325 ct 2435 -292 2450 -245 2450 -184 ct 
2450 -181 2450 -175 2450 -168 ct 2177 -168 l  2179 -128 2191 -97 2211 -75 ct 
2232 -54 2257 -43 2288 -43 ct 2310 -43 2330 -49 2346 -61 ct 2362 -73 2375 -92 2384 -118 ct 
p
2180 -219 m  2385 -219 l  2382 -250 2374 -273 2361 -288 ct 2342 -312 2316 -324 2285 -324 ct 
2256 -324 2232 -314 2213 -295 ct 2193 -276 2183 -251 2180 -219 ct p ef
2526 0 m  2526 -506 l  2588 -506 l  2588 0 l  2526 0 l  p ef
pom
0.000 c 8768 18590 m  8768 17165 l  8793 17165 l  8818 17165 l  8818 18590 l 
8793 18590 l  8768 18590 l  p ef
8793 16709 m  8603 17279 l  8983 17279 l  8793 16709 l  p ef
9590 16709 m  9590 18134 l  9565 18134 l  9540 18134 l  9540 16709 l  9565 16709 l 
9590 16709 l  p ef
9565 18590 m  9755 18020 l  9375 18020 l  9565 18590 l  p ef
12629 18590 m  12629 17165 l  12654 17165 l  12679 17165 l  12679 18590 l 
12654 18590 l  12629 18590 l  p ef
12654 16709 m  12464 17279 l  12844 17279 l  12654 16709 l  p ef
10702 16646 m  7999 16646 l  7999 12883 l  13404 12883 l  13404 16646 l 
10702 16646 l  pc
pum
8401 15010 t
0.222 c 415 -177 m  482 -160 l  468 -105 443 -63 406 -34 ct 370 -5 325 9 273 9 ct 
218 9 174 -2 140 -24 ct 106 -47 80 -79 62 -121 ct 44 -163 35 -208 35 -256 ct 35 -309 45 -355 65 -394 ct 
85 -434 114 -463 151 -484 ct 188 -504 229 -514 274 -514 ct 324 -514 367 -501 401 -476 ct 
436 -450 460 -414 473 -367 ct 407 -351 l  396 -388 379 -415 356 -432 ct 334 -449 306 -457 272 -457 ct 
234 -457 201 -448 175 -429 ct 149 -410 131 -385 120 -354 ct 109 -323 104 -290 104 -257 ct 
104 -214 110 -176 123 -144 ct 135 -112 155 -88 181 -72 ct 208 -56 236 -48 267 -48 ct 
305 -48 336 -59 362 -81 ct 388 -102 406 -134 415 -177 ct p ef
535 -184 m  535 -252 554 -302 592 -335 ct 623 -362 662 -375 707 -375 ct 757 -375 799 -359 831 -326 ct 
862 -293 878 -247 878 -189 ct 878 -142 871 -105 857 -78 ct 843 -50 823 -29 796 -14 ct 
769 1 739 8 707 8 ct 656 8 614 -8 583 -41 ct 551 -74 535 -122 535 -184 ct p
599 -184 m  599 -137 609 -102 630 -78 ct 650 -55 676 -43 707 -43 ct 738 -43 764 -55 784 -78 ct 
804 -102 815 -138 815 -186 ct 815 -231 804 -266 784 -289 ct 763 -312 738 -324 707 -324 ct 
676 -324 650 -312 630 -289 ct 609 -266 599 -231 599 -184 ct p ef
953 0 m  953 -367 l  1008 -367 l  1008 -315 l  1020 -333 1035 -348 1054 -359 ct 
1073 -370 1095 -375 1119 -375 ct 1146 -375 1168 -369 1186 -358 ct 1203 -347 1215 -331 1222 -311 ct 
1251 -354 1289 -375 1336 -375 ct 1372 -375 1400 -365 1419 -345 ct 1439 -325 1449 -294 1449 -252 ct 
1449 0 l  1387 0 l  1387 -231 l  1387 -256 1385 -274 1381 -285 ct 1377 -296 1370 -304 1359 -311 ct 
1348 -318 1336 -321 1322 -321 ct 1296 -321 1275 -313 1258 -295 ct 1241 -278 1232 -251 1232 -213 ct 
1232 0 l  1170 0 l  1170 -238 l  1170 -266 1165 -287 1155 -300 ct 1145 -314 1128 -321 1105 -321 ct 
1088 -321 1072 -317 1057 -307 ct 1042 -298 1031 -285 1025 -267 ct 1018 -249 1015 -224 1015 -190 ct 
1015 0 l  953 0 l  p ef
1541 0 m  1541 -367 l  1596 -367 l  1596 -315 l  1608 -333 1623 -348 1642 -359 ct 
1661 -370 1683 -375 1707 -375 ct 1734 -375 1756 -369 1774 -358 ct 1791 -347 1803 -331 1810 -311 ct 
1839 -354 1877 -375 1924 -375 ct 1960 -375 1988 -365 2007 -345 ct 2027 -325 2037 -294 2037 -252 ct 
2037 0 l  1975 0 l  1975 -231 l  1975 -256 1973 -274 1969 -285 ct 1965 -296 1958 -304 1947 -311 ct 
1936 -318 1924 -321 1910 -321 ct 1884 -321 1863 -313 1846 -295 ct 1829 -278 1820 -251 1820 -213 ct 
1820 0 l  1758 0 l  1758 -238 l  1758 -266 1753 -287 1743 -300 ct 1733 -314 1716 -321 1693 -321 ct 
1676 -321 1660 -317 1645 -307 ct 1630 -298 1619 -285 1613 -267 ct 1606 -249 1603 -224 1603 -190 ct 
1603 0 l  1541 0 l  p ef
2369 0 m  2369 -54 l  2341 -13 2302 8 2253 8 ct 2232 8 2212 4 2193 -4 ct 2174 -13 2160 -23 2151 -36 ct 
2142 -48 2136 -64 2132 -82 ct 2129 -94 2128 -113 2128 -140 ct 2128 -367 l  2190 -367 l 
2190 -164 l  2190 -131 2191 -109 2194 -98 ct 2198 -82 2206 -69 2219 -60 ct 2231 -50 2247 -46 2266 -46 ct 
2284 -46 2302 -50 2318 -60 ct 2334 -69 2346 -82 2353 -99 ct 2360 -115 2363 -139 2363 -171 ct 
2363 -367 l  2425 -367 l  2425 0 l  2369 0 l  p ef
2524 0 m  2524 -367 l  2579 -367 l  2579 -315 l  2606 -355 2645 -375 2696 -375 ct 
2718 -375 2738 -371 2757 -363 ct 2775 -355 2789 -345 2798 -332 ct 2807 -319 2814 -304 2818 -286 ct 
2820 -274 2821 -254 2821 -225 ct 2821 0 l  2759 0 l  2759 -223 l  2759 -248 2757 -267 2752 -280 ct 
2747 -292 2738 -302 2726 -310 ct 2714 -317 2699 -321 2683 -321 ct 2656 -321 2634 -313 2614 -296 ct 
2595 -279 2586 -247 2586 -200 ct 2586 0 l  2524 0 l  p ef
2917 -435 m  2917 -506 l  2979 -506 l  2979 -435 l  2917 -435 l  p
2917 0 m  2917 -367 l  2979 -367 l  2979 0 l  2917 0 l  p ef
3312 -135 m  3373 -127 l  3367 -85 3350 -52 3322 -28 ct 3295 -4 3261 8 3221 8 ct 
3171 8 3131 -8 3100 -41 ct 3070 -74 3055 -121 3055 -182 ct 3055 -222 3061 -256 3074 -286 ct 
3087 -316 3107 -338 3134 -353 ct 3161 -368 3190 -375 3221 -375 ct 3261 -375 3294 -365 3319 -345 ct 
3344 -325 3360 -296 3368 -259 ct 3307 -250 l  3302 -274 3291 -293 3277 -305 ct 
3262 -318 3245 -324 3224 -324 ct 3193 -324 3167 -313 3148 -290 ct 3128 -268 3118 -232 3118 -184 ct 
3118 -135 3128 -99 3147 -77 ct 3165 -54 3190 -43 3220 -43 ct 3245 -43 3265 -51 3281 -66 ct 
3298 -80 3308 -103 3312 -135 ct p ef
3667 -46 m  3644 -26 3622 -12 3601 -4 ct 3580 4 3557 8 3533 8 ct 3492 8 3462 -2 3440 -22 ct 
3418 -41 3408 -66 3408 -97 ct 3408 -115 3412 -131 3420 -146 ct 3428 -161 3439 -173 3452 -182 ct 
3465 -191 3480 -198 3496 -202 ct 3509 -206 3527 -209 3552 -212 ct 3602 -218 3639 -225 3662 -233 ct 
3663 -242 3663 -247 3663 -249 ct 3663 -275 3657 -293 3645 -303 ct 3629 -317 3606 -324 3574 -324 ct 
3545 -324 3524 -319 3510 -309 ct 3496 -298 3486 -280 3479 -254 ct 3418 -263 l 
3424 -289 3433 -310 3445 -326 ct 3458 -342 3476 -354 3500 -363 ct 3524 -371 3552 -375 3583 -375 ct 
3615 -375 3640 -372 3660 -364 ct 3679 -357 3693 -348 3703 -337 ct 3712 -325 3718 -311 3722 -294 ct 
3724 -284 3725 -265 3725 -237 ct 3725 -154 l  3725 -96 3726 -60 3729 -44 ct 
3732 -29 3737 -14 3745 0 ct 3680 0 l  3673 -13 3669 -28 3667 -46 ct p
3662 -184 m  3640 -175 3606 -167 3561 -161 ct 3535 -157 3517 -153 3507 -148 ct 
3496 -144 3488 -137 3482 -128 ct 3477 -119 3474 -110 3474 -99 ct 3474 -82 3480 -68 3492 -57 ct 
3505 -46 3523 -41 3547 -41 ct 3571 -41 3593 -46 3611 -56 ct 3630 -67 3644 -81 3652 -99 ct 
3659 -113 3662 -134 3662 -162 ct 3662 -184 l  p ef
3958 -55 m  3967 -1 l  3950 3 3934 5 3920 5 ct 3898 5 3880 1 3868 -6 ct 3855 -13 3847 -22 3842 -34 ct 
3836 -45 3834 -70 3834 -107 ct 3834 -318 l  3788 -318 l  3788 -366 l  3834 -366 l 
3834 -457 l  3896 -494 l  3896 -366 l  3958 -366 l  3958 -318 l  3896 -318 l 
3896 -104 l  3896 -86 3897 -75 3899 -70 ct 3901 -65 3905 -60 3910 -57 ct 3915 -55 3922 -53 3931 -53 ct 
3938 -53 3947 -54 3958 -55 ct p ef
3994 -184 m  3994 -252 4013 -302 4051 -335 ct 4082 -362 4121 -375 4166 -375 ct 
4216 -375 4258 -359 4290 -326 ct 4321 -293 4337 -247 4337 -189 ct 4337 -142 4330 -105 4316 -78 ct 
4302 -50 4282 -29 4255 -14 ct 4228 1 4198 8 4166 8 ct 4115 8 4073 -8 4042 -41 ct 
4010 -74 3994 -122 3994 -184 ct p
4058 -184 m  4058 -137 4068 -102 4089 -78 ct 4109 -55 4135 -43 4166 -43 ct 4197 -43 4223 -55 4243 -78 ct 
4263 -102 4274 -138 4274 -186 ct 4274 -231 4263 -266 4243 -289 ct 4222 -312 4197 -324 4166 -324 ct 
4135 -324 4109 -312 4089 -289 ct 4068 -266 4058 -231 4058 -184 ct p ef
4411 0 m  4411 -367 l  4467 -367 l  4467 -311 l  4481 -337 4494 -354 4506 -363 ct 
4518 -371 4532 -375 4546 -375 ct 4567 -375 4588 -368 4610 -355 ct 4588 -297 l 
4573 -306 4558 -311 4543 -311 ct 4529 -311 4517 -307 4506 -299 ct 4496 -290 4488 -279 4483 -265 ct 
4476 -242 4473 -218 4473 -192 ct 4473 0 l  4411 0 l  p ef
pom
0.000 c 8768 12858 m  8768 11433 l  8793 11433 l  8818 11433 l  8818 12858 l 
8793 12858 l  8768 12858 l  p ef
8793 10977 m  8603 11547 l  8983 11547 l  8793 10977 l  p ef
9590 10977 m  9590 12402 l  9565 12402 l  9540 12402 l  9540 10977 l  9565 10977 l 
9590 10977 l  p ef
9565 12858 m  9755 12288 l  9375 12288 l  9565 12858 l  p ef
12629 12858 m  12629 11433 l  12654 11433 l  12679 11433 l  12679 12858 l 
12654 12858 l  12629 12858 l  p ef
12654 10977 m  12464 11547 l  12844 11547 l  12654 10977 l  p ef
gr
gs
0 0 m 20999 0 l 20999 29699 l 0 29699 l 0 0 l eoclip newpath
gr
gr
0 29700 t 
pom
count op_count sub {pop} repeat countdictstack dict_count sub {end} repeat b4_inc_state restore
%%PageTrailer
%%Trailer
%%EOF
