%!PS-Adobe-3.0 EPSF-3.0 
%%BoundingBox: 0 0 624 1006
%%Pages: 0
%%Creator: Sun Microsystems, Inc.
%%Title: none
%%CreationDate: none
%%LanguageLevel: 2
%%EndComments
%%BeginProlog
%%BeginResource: procset SDRes-Prolog 1.0 0
/b4_inc_state save def
/dict_count countdictstack def
/op_count count 1 sub def
userdict begin
0 setgray 0 setlinecap 1 setlinewidth 0 setlinejoin 10 setmiterlimit[] 0 setdash newpath
/languagelevel where {pop languagelevel 1 ne {false setstrokeadjust false setoverprint} if} if
/bdef {bind def} bind def
/c {setrgbcolor} bdef
/l {neg lineto} bdef
/rl {neg rlineto} bdef
/lc {setlinecap} bdef
/lj {setlinejoin} bdef
/lw {setlinewidth} bdef
/ml {setmiterlimit} bdef
/ld {setdash} bdef
/m {neg moveto} bdef
/ct {6 2 roll neg 6 2 roll neg 6 2 roll neg curveto} bdef
/r {rotate} bdef
/t {neg translate} bdef
/s {scale} bdef
/sw {show} bdef
/gs {gsave} bdef
/gr {grestore} bdef
/f {findfont dup length dict begin
{1 index /FID ne {def} {pop pop} ifelse} forall /Encoding ISOLatin1Encoding def
currentdict end /NFont exch definefont pop /NFont findfont} bdef
/p {closepath} bdef
/sf {scalefont setfont} bdef
/ef {eofill}bdef
/pc {closepath stroke}bdef
/ps {stroke}bdef
/pum {matrix currentmatrix}bdef
/pom {setmatrix}bdef
/bs {/aString exch def /nXOfs exch def /nWidth exch def currentpoint nXOfs 0 rmoveto pum nWidth aString stringwidth pop div 1 scale aString show pom moveto} bdef
%%EndResource
%%EndProlog
%%BeginSetup
%%EndSetup
%%Page: 1 1
%%BeginPageSetup
%%EndPageSetup
pum
0.02836 0.02833 s 
0 -35500 t
/tm matrix currentmatrix def
gs
0 0 m 21999 0 l 21999 35499 l 0 35499 l 0 0 l eoclip newpath
gs
0 0 m 21999 0 l 21999 35499 l 0 35499 l 0 0 l eoclip newpath
0.003 0.003 0.003 c 1025 4000 m  1025 4508 l  1000 4508 l  975 4508 l  975 4000 l 
1000 4000 l  1025 4000 l  p ef
1025 5016 m  1025 5524 l  1000 5524 l  975 5524 l  975 5016 l  1000 5016 l 
1025 5016 l  p ef
1025 6032 m  1025 6540 l  1000 6540 l  975 6540 l  975 6032 l  1000 6032 l 
1025 6032 l  p ef
1025 7048 m  1025 7556 l  1000 7556 l  975 7556 l  975 7048 l  1000 7048 l 
1025 7048 l  p ef
1025 8064 m  1025 8572 l  1000 8572 l  975 8572 l  975 8064 l  1000 8064 l 
1025 8064 l  p ef
1025 9080 m  1025 9588 l  1000 9588 l  975 9588 l  975 9080 l  1000 9080 l 
1025 9080 l  p ef
1025 10096 m  1025 10604 l  1000 10604 l  975 10604 l  975 10096 l  1000 10096 l 
1025 10096 l  p ef
1025 11112 m  1025 11620 l  1000 11620 l  975 11620 l  975 11112 l  1000 11112 l 
1025 11112 l  p ef
1025 12128 m  1025 12636 l  1000 12636 l  975 12636 l  975 12128 l  1000 12128 l 
1025 12128 l  p ef
1025 13144 m  1025 13652 l  1000 13652 l  975 13652 l  975 13144 l  1000 13144 l 
1025 13144 l  p ef
1025 14160 m  1025 14668 l  1000 14668 l  975 14668 l  975 14160 l  1000 14160 l 
1025 14160 l  p ef
1025 15176 m  1025 15684 l  1000 15684 l  975 15684 l  975 15176 l  1000 15176 l 
1025 15176 l  p ef
1025 16192 m  1025 16700 l  1000 16700 l  975 16700 l  975 16192 l  1000 16192 l 
1025 16192 l  p ef
1025 17208 m  1025 17716 l  1000 17716 l  975 17716 l  975 17208 l  1000 17208 l 
1025 17208 l  p ef
1025 18224 m  1025 18732 l  1000 18732 l  975 18732 l  975 18224 l  1000 18224 l 
1025 18224 l  p ef
1025 19240 m  1025 19748 l  1000 19748 l  975 19748 l  975 19240 l  1000 19240 l 
1025 19240 l  p ef
1025 20256 m  1025 20764 l  1000 20764 l  975 20764 l  975 20256 l  1000 20256 l 
1025 20256 l  p ef
1025 21272 m  1025 21780 l  1000 21780 l  975 21780 l  975 21272 l  1000 21272 l 
1025 21272 l  p ef
1025 22288 m  1025 22796 l  1000 22796 l  975 22796 l  975 22288 l  1000 22288 l 
1025 22288 l  p ef
1025 23304 m  1025 23812 l  1000 23812 l  975 23812 l  975 23304 l  1000 23304 l 
1025 23304 l  p ef
1025 24320 m  1025 24733 l  1000 24733 l  975 24733 l  975 24320 l  1000 24320 l 
1025 24320 l  p ef
1190 24627 m  1190 24621 l  1190 24616 l  1186 24601 l  1176 24590 l  1163 24583 l 
1148 24581 l  1139 24584 l  1128 24591 l  1120 24600 l  1115 24611 l  999 25130 l 
885 24616 l  880 24601 l  870 24590 l  857 24583 l  843 24581 l  829 24585 l 
817 24596 l  810 24610 l  810 24623 l  810 24627 l  811 24626 l  960 25302 l 
963 25317 l  972 25330 l  985 25338 l  999 25341 l  1014 25338 l  1026 25330 l 
1035 25317 l  1038 25302 l  1190 24627 l  p ef
20475 25341 m  20475 24833 l  20500 24833 l  20525 24833 l  20525 25341 l 
20500 25341 l  20475 25341 l  p ef
20475 24325 m  20475 23817 l  20500 23817 l  20525 23817 l  20525 24325 l 
20500 24325 l  20475 24325 l  p ef
20475 23309 m  20475 22801 l  20500 22801 l  20525 22801 l  20525 23309 l 
20500 23309 l  20475 23309 l  p ef
20475 22293 m  20475 21785 l  20500 21785 l  20525 21785 l  20525 22293 l 
20500 22293 l  20475 22293 l  p ef
20475 21277 m  20475 20769 l  20500 20769 l  20525 20769 l  20525 21277 l 
20500 21277 l  20475 21277 l  p ef
20475 20261 m  20475 19753 l  20500 19753 l  20525 19753 l  20525 20261 l 
20500 20261 l  20475 20261 l  p ef
20475 19245 m  20475 18737 l  20500 18737 l  20525 18737 l  20525 19245 l 
20500 19245 l  20475 19245 l  p ef
20475 18229 m  20475 17721 l  20500 17721 l  20525 17721 l  20525 18229 l 
20500 18229 l  20475 18229 l  p ef
20475 17213 m  20475 16705 l  20500 16705 l  20525 16705 l  20525 17213 l 
20500 17213 l  20475 17213 l  p ef
20475 16197 m  20475 15689 l  20500 15689 l  20525 15689 l  20525 16197 l 
20500 16197 l  20475 16197 l  p ef
20475 15181 m  20475 14673 l  20500 14673 l  20525 14673 l  20525 15181 l 
20500 15181 l  20475 15181 l  p ef
20475 14165 m  20475 13657 l  20500 13657 l  20525 13657 l  20525 14165 l 
20500 14165 l  20475 14165 l  p ef
20475 13149 m  20475 12641 l  20500 12641 l  20525 12641 l  20525 13149 l 
20500 13149 l  20475 13149 l  p ef
20475 12133 m  20475 11625 l  20500 11625 l  20525 11625 l  20525 12133 l 
20500 12133 l  20475 12133 l  p ef
20475 11117 m  20475 10609 l  20500 10609 l  20525 10609 l  20525 11117 l 
20500 11117 l  20475 11117 l  p ef
20475 10101 m  20475 9593 l  20500 9593 l  20525 9593 l  20525 10101 l 
20500 10101 l  20475 10101 l  p ef
20475 9085 m  20475 8577 l  20500 8577 l  20525 8577 l  20525 9085 l  20500 9085 l 
20475 9085 l  p ef
20475 8069 m  20475 7561 l  20500 7561 l  20525 7561 l  20525 8069 l  20500 8069 l 
20475 8069 l  p ef
20475 7053 m  20475 6545 l  20500 6545 l  20525 6545 l  20525 7053 l  20500 7053 l 
20475 7053 l  p ef
20475 6037 m  20475 5529 l  20500 5529 l  20525 5529 l  20525 6037 l  20500 6037 l 
20475 6037 l  p ef
20475 5021 m  20475 4608 l  20500 4608 l  20525 4608 l  20525 5021 l  20500 5021 l 
20475 5021 l  p ef
20310 4714 m  20310 4720 l  20310 4725 l  20314 4740 l  20324 4751 l  20337 4758 l 
20352 4760 l  20361 4757 l  20372 4750 l  20380 4741 l  20385 4730 l  20501 4211 l 
20615 4725 l  20620 4740 l  20630 4751 l  20643 4758 l  20657 4760 l  20671 4756 l 
20683 4745 l  20690 4731 l  20690 4718 l  20690 4714 l  20689 4715 l  20540 4039 l 
20537 4024 l  20528 4011 l  20515 4003 l  20501 4000 l  20486 4003 l  20474 4011 l 
20465 4024 l  20462 4039 l  20310 4714 l  p ef
2614 30039 m  3122 30039 l  3122 30064 l  3122 30089 l  2614 30089 l  2614 30064 l 
2614 30039 l  p ef
3630 30039 m  4138 30039 l  4138 30064 l  4138 30089 l  3630 30089 l  3630 30064 l 
3630 30039 l  p ef
4646 30039 m  5154 30039 l  5154 30064 l  5154 30089 l  4646 30089 l  4646 30064 l 
4646 30039 l  p ef
5662 30039 m  6170 30039 l  6170 30064 l  6170 30089 l  5662 30089 l  5662 30064 l 
5662 30039 l  p ef
6678 30039 m  7186 30039 l  7186 30064 l  7186 30089 l  6678 30089 l  6678 30064 l 
6678 30039 l  p ef
7694 30039 m  8202 30039 l  8202 30064 l  8202 30089 l  7694 30089 l  7694 30064 l 
7694 30039 l  p ef
8710 30039 m  9218 30039 l  9218 30064 l  9218 30089 l  8710 30089 l  8710 30064 l 
8710 30039 l  p ef
9726 30039 m  10234 30039 l  10234 30064 l  10234 30089 l  9726 30089 l 
9726 30064 l  9726 30039 l  p ef
10742 30039 m  11250 30039 l  11250 30064 l  11250 30089 l  10742 30089 l 
10742 30064 l  10742 30039 l  p ef
11758 30039 m  12266 30039 l  12266 30064 l  12266 30089 l  11758 30089 l 
11758 30064 l  11758 30039 l  p ef
12774 30039 m  13282 30039 l  13282 30064 l  13282 30089 l  12774 30089 l 
12774 30064 l  12774 30039 l  p ef
13790 30039 m  14298 30039 l  14298 30064 l  14298 30089 l  13790 30089 l 
13790 30064 l  13790 30039 l  p ef
14806 30039 m  15314 30039 l  15314 30064 l  15314 30089 l  14806 30089 l 
14806 30064 l  14806 30039 l  p ef
15822 30039 m  16330 30039 l  16330 30064 l  16330 30089 l  15822 30089 l 
15822 30064 l  15822 30039 l  p ef
16838 30039 m  17346 30039 l  17346 30064 l  17346 30089 l  16838 30089 l 
16838 30064 l  16838 30039 l  p ef
17854 30039 m  18362 30039 l  18362 30064 l  18362 30089 l  17854 30089 l 
17854 30064 l  17854 30039 l  p ef
18614 29874 m  18608 29874 l  18603 29874 l  18588 29878 l  18577 29888 l 
18570 29901 l  18568 29916 l  18571 29925 l  18578 29936 l  18587 29944 l 
18598 29949 l  19117 30065 l  18603 30179 l  18588 30184 l  18577 30194 l 
18570 30207 l  18568 30221 l  18572 30235 l  18583 30247 l  18597 30254 l 
18610 30254 l  18614 30254 l  18613 30253 l  19289 30104 l  19304 30101 l 
19317 30092 l  19325 30079 l  19328 30065 l  19325 30050 l  19317 30038 l 
19304 30029 l  19289 30026 l  18614 29874 l  p ef
pum
8775 32294 t
0.230 0.226 0.210 c 56 0 m  56 -506 l  421 -506 l  421 -446 l  123 -446 l 
123 -291 l  402 -291 l  402 -232 l  123 -232 l  123 -60 l  433 -60 l  433 0 l 
56 0 l  p ef
515 0 m  515 -506 l  577 -506 l  577 0 l  515 0 l  p ef
924 -118 m  988 -111 l  978 -73 959 -44 932 -23 ct 905 -2 870 8 827 8 ct 774 8 731 -9 700 -42 ct 
669 -75 653 -121 653 -180 ct 653 -242 669 -290 700 -324 ct 732 -358 773 -375 824 -375 ct 
873 -375 913 -358 944 -325 ct 975 -292 990 -245 990 -184 ct 990 -181 990 -175 990 -168 ct 
717 -168 l  719 -128 731 -97 751 -75 ct 772 -54 797 -43 828 -43 ct 850 -43 870 -49 886 -61 ct 
902 -73 915 -92 924 -118 ct p
720 -219 m  925 -219 l  922 -250 914 -273 901 -288 ct 882 -312 856 -324 825 -324 ct 
796 -324 772 -314 753 -295 ct 733 -276 723 -251 720 -219 ct p ef
1067 0 m  1067 -367 l  1122 -367 l  1122 -315 l  1134 -333 1149 -348 1168 -359 ct 
1187 -370 1209 -375 1233 -375 ct 1260 -375 1282 -369 1300 -358 ct 1317 -347 1329 -331 1336 -311 ct 
1365 -354 1403 -375 1450 -375 ct 1486 -375 1514 -365 1533 -345 ct 1553 -325 1563 -294 1563 -252 ct 
1563 0 l  1501 0 l  1501 -231 l  1501 -256 1499 -274 1495 -285 ct 1491 -296 1484 -304 1473 -311 ct 
1462 -318 1450 -321 1436 -321 ct 1410 -321 1389 -313 1372 -295 ct 1355 -278 1346 -251 1346 -213 ct 
1346 0 l  1284 0 l  1284 -238 l  1284 -266 1279 -287 1269 -300 ct 1259 -314 1242 -321 1219 -321 ct 
1202 -321 1186 -317 1171 -307 ct 1156 -298 1145 -285 1139 -267 ct 1132 -249 1129 -224 1129 -190 ct 
1129 0 l  1067 0 l  p ef
1906 -118 m  1970 -111 l  1960 -73 1941 -44 1914 -23 ct 1887 -2 1852 8 1809 8 ct 
1756 8 1713 -9 1682 -42 ct 1651 -75 1635 -121 1635 -180 ct 1635 -242 1651 -290 1682 -324 ct 
1714 -358 1755 -375 1806 -375 ct 1855 -375 1895 -358 1926 -325 ct 1957 -292 1972 -245 1972 -184 ct 
1972 -181 1972 -175 1972 -168 ct 1699 -168 l  1701 -128 1713 -97 1733 -75 ct 
1754 -54 1779 -43 1810 -43 ct 1832 -43 1852 -49 1868 -61 ct 1884 -73 1897 -92 1906 -118 ct 
p
1702 -219 m  1907 -219 l  1904 -250 1896 -273 1883 -288 ct 1864 -312 1838 -324 1807 -324 ct 
1778 -324 1754 -314 1735 -295 ct 1715 -276 1705 -251 1702 -219 ct p ef
2049 0 m  2049 -367 l  2104 -367 l  2104 -315 l  2131 -355 2170 -375 2221 -375 ct 
2243 -375 2263 -371 2282 -363 ct 2300 -355 2314 -345 2323 -332 ct 2332 -319 2339 -304 2343 -286 ct 
2345 -274 2346 -254 2346 -225 ct 2346 0 l  2284 0 l  2284 -223 l  2284 -248 2282 -267 2277 -280 ct 
2272 -292 2263 -302 2251 -310 ct 2239 -317 2224 -321 2208 -321 ct 2181 -321 2159 -313 2139 -296 ct 
2120 -279 2111 -247 2111 -200 ct 2111 0 l  2049 0 l  p ef
2578 -55 m  2587 -1 l  2570 3 2554 5 2540 5 ct 2518 5 2500 1 2488 -6 ct 2475 -13 2467 -22 2462 -34 ct 
2456 -45 2454 -70 2454 -107 ct 2454 -318 l  2408 -318 l  2408 -366 l  2454 -366 l 
2454 -457 l  2516 -494 l  2516 -366 l  2578 -366 l  2578 -318 l  2516 -318 l 
2516 -104 l  2516 -86 2517 -75 2519 -70 ct 2521 -65 2525 -60 2530 -57 ct 2535 -55 2542 -53 2551 -53 ct 
2558 -53 2567 -54 2578 -55 ct p ef
2613 -110 m  2674 -119 l  2678 -95 2687 -76 2703 -63 ct 2719 -50 2741 -43 2769 -43 ct 
2797 -43 2819 -49 2832 -61 ct 2846 -72 2853 -86 2853 -101 ct 2853 -115 2847 -127 2835 -135 ct 
2826 -140 2805 -147 2771 -156 ct 2726 -167 2694 -177 2677 -185 ct 2659 -194 2646 -205 2637 -220 ct 
2628 -235 2623 -252 2623 -269 ct 2623 -286 2627 -301 2634 -315 ct 2642 -329 2652 -340 2665 -350 ct 
2674 -357 2688 -363 2704 -368 ct 2721 -373 2739 -375 2758 -375 ct 2787 -375 2812 -371 2834 -363 ct 
2855 -354 2871 -343 2882 -329 ct 2892 -315 2899 -296 2903 -272 ct 2842 -264 l 
2840 -283 2832 -298 2818 -308 ct 2805 -319 2786 -324 2762 -324 ct 2734 -324 2713 -319 2701 -310 ct 
2689 -300 2683 -289 2683 -277 ct 2683 -269 2686 -261 2691 -255 ct 2696 -248 2704 -243 2714 -238 ct 
2721 -236 2739 -231 2769 -223 ct 2813 -211 2844 -201 2861 -194 ct 2878 -186 2892 -175 2902 -161 ct 
2912 -147 2917 -129 2917 -108 ct 2917 -87 2911 -68 2899 -49 ct 2887 -31 2869 -17 2846 -7 ct 
2824 3 2798 8 2769 8 ct 2722 8 2685 -2 2660 -22 ct 2636 -41 2620 -71 2613 -110 ct 
p ef
pom
pum
11721 32294 t
284 -237 m  284 -325 309 -391 358 -433 ct 399 -468 449 -486 507 -486 ct 573 -486 626 -464 668 -421 ct 
709 -379 730 -320 730 -244 ct 730 -183 721 -135 702 -100 ct 684 -65 657 -37 622 -18 ct 
587 1 549 11 507 11 ct 441 11 387 -10 346 -53 ct 305 -96 284 -157 284 -237 ct p
367 -237 m  367 -176 381 -131 407 -101 ct 434 -70 467 -55 507 -55 ct 547 -55 581 -70 607 -101 ct 
634 -131 647 -178 647 -240 ct 647 -299 634 -343 607 -374 ct 580 -404 547 -419 507 -419 ct 
467 -419 434 -404 407 -374 ct 381 -344 367 -298 367 -237 ct p ef
846 -1 m  846 -413 l  775 -413 l  775 -476 l  846 -476 l  846 -526 l  846 -558 849 -582 854 -598 ct 
862 -618 876 -635 895 -648 ct 915 -661 942 -668 977 -668 ct 1000 -668 1025 -665 1053 -660 ct 
1040 -590 l  1024 -593 1008 -594 993 -594 ct 969 -594 951 -589 941 -578 ct 931 -568 926 -548 926 -520 ct 
926 -476 l  1019 -476 l  1019 -413 l  926 -413 l  926 -1 l  846 -1 l  p ef
1315 -211 m  1397 -218 l  1401 -185 1410 -158 1424 -137 ct 1438 -116 1460 -99 1490 -86 ct 
1520 -73 1554 -67 1591 -67 ct 1624 -67 1653 -72 1679 -82 ct 1704 -91 1723 -105 1735 -122 ct 
1748 -139 1754 -158 1754 -178 ct 1754 -199 1748 -217 1736 -232 ct 1724 -248 1704 -261 1677 -271 ct 
1659 -278 1620 -288 1560 -303 ct 1500 -317 1458 -331 1433 -344 ct 1402 -360 1379 -381 1363 -405 ct 
1348 -429 1340 -457 1340 -487 ct 1340 -520 1350 -551 1368 -580 ct 1387 -608 1415 -630 1451 -645 ct 
1487 -660 1527 -668 1571 -668 ct 1620 -668 1663 -660 1700 -644 ct 1737 -628 1766 -605 1786 -575 ct 
1806 -544 1817 -510 1818 -471 ct 1735 -465 l  1730 -507 1715 -538 1689 -559 ct 
1663 -580 1625 -591 1575 -591 ct 1522 -591 1484 -581 1460 -562 ct 1436 -543 1424 -520 1424 -493 ct 
1424 -469 1433 -450 1450 -434 ct 1466 -419 1510 -404 1580 -388 ct 1651 -372 1700 -358 1726 -346 ct 
1764 -328 1792 -306 1810 -279 ct 1829 -252 1838 -221 1838 -185 ct 1838 -151 1828 -118 1808 -87 ct 
1788 -56 1759 -32 1722 -15 ct 1684 2 1642 11 1595 11 ct 1536 11 1486 2 1446 -15 ct 
1406 -32 1374 -58 1351 -93 ct 1328 -128 1316 -167 1315 -211 ct p ef
2427 -230 m  2514 -208 l  2496 -137 2463 -83 2416 -45 ct 2368 -8 2311 11 2242 11 ct 
2171 11 2114 -3 2070 -32 ct 2025 -61 1992 -103 1968 -157 ct 1945 -212 1934 -270 1934 -333 ct 
1934 -401 1947 -461 1973 -512 ct 1999 -563 2036 -601 2084 -628 ct 2133 -654 2186 -667 2244 -667 ct 
2309 -667 2364 -651 2409 -617 ct 2454 -584 2485 -537 2503 -476 ct 2417 -456 l 
2402 -504 2380 -539 2351 -560 ct 2322 -582 2286 -593 2242 -593 ct 2191 -593 2149 -581 2115 -557 ct 
2081 -533 2058 -500 2044 -459 ct 2030 -419 2023 -377 2023 -334 ct 2023 -278 2031 -229 2048 -187 ct 
2064 -146 2089 -115 2124 -94 ct 2158 -74 2195 -63 2235 -63 ct 2284 -63 2325 -77 2359 -105 ct 
2392 -133 2415 -175 2427 -230 ct p ef
2623 0 m  2623 -656 l  2712 -656 l  3057 -141 l  3057 -656 l  3140 -656 l 
3140 0 l  3051 0 l  2706 -516 l  2706 0 l  2623 0 l  p ef
3258 -211 m  3340 -218 l  3344 -185 3353 -158 3367 -137 ct 3381 -116 3403 -99 3433 -86 ct 
3463 -73 3497 -67 3534 -67 ct 3567 -67 3596 -72 3622 -82 ct 3647 -91 3666 -105 3678 -122 ct 
3691 -139 3697 -158 3697 -178 ct 3697 -199 3691 -217 3679 -232 ct 3667 -248 3647 -261 3620 -271 ct 
3602 -278 3563 -288 3503 -303 ct 3443 -317 3401 -331 3376 -344 ct 3345 -360 3322 -381 3306 -405 ct 
3291 -429 3283 -457 3283 -487 ct 3283 -520 3293 -551 3311 -580 ct 3330 -608 3358 -630 3394 -645 ct 
3430 -660 3470 -668 3514 -668 ct 3563 -668 3606 -660 3643 -644 ct 3680 -628 3709 -605 3729 -575 ct 
3749 -544 3760 -510 3761 -471 ct 3678 -465 l  3673 -507 3658 -538 3632 -559 ct 
3606 -580 3568 -591 3518 -591 ct 3465 -591 3427 -581 3403 -562 ct 3379 -543 3367 -520 3367 -493 ct 
3367 -469 3376 -450 3393 -434 ct 3409 -419 3453 -404 3523 -388 ct 3594 -372 3643 -358 3669 -346 ct 
3707 -328 3735 -306 3753 -279 ct 3772 -252 3781 -221 3781 -185 ct 3781 -151 3771 -118 3751 -87 ct 
3731 -56 3702 -32 3665 -15 ct 3627 2 3585 11 3538 11 ct 3479 11 3429 2 3389 -15 ct 
3349 -32 3317 -58 3294 -93 ct 3271 -128 3259 -167 3258 -211 ct p ef
3898 0 m  3898 -656 l  3985 -656 l  3985 -77 l  4308 -77 l  4308 0 l  3898 0 l 
p ef
pom
pum
8775 34294 t
44 -320 m  44 -429 74 -514 132 -576 ct 191 -637 266 -668 359 -668 ct 419 -668 474 -654 523 -625 ct 
571 -596 608 -555 634 -504 ct 659 -452 672 -393 672 -327 ct 672 -261 659 -201 632 -149 ct 
605 -96 567 -57 518 -30 ct 468 -3 415 11 358 11 ct 296 11 241 -4 193 -34 ct 144 -64 107 -104 82 -156 ct 
57 -208 44 -262 44 -320 ct p
134 -318 m  134 -239 155 -177 198 -132 ct 240 -86 294 -63 358 -63 ct 423 -63 477 -86 519 -132 ct 
561 -178 583 -243 583 -328 ct 583 -381 574 -428 555 -468 ct 537 -508 511 -538 476 -560 ct 
441 -582 402 -593 359 -593 ct 298 -593 245 -572 200 -530 ct 156 -488 134 -417 134 -318 ct 
p ef
775 182 m  775 -475 l  849 -475 l  849 -414 l  866 -438 886 -456 908 -468 ct 
929 -480 956 -486 987 -486 ct 1027 -486 1063 -476 1094 -455 ct 1125 -434 1149 -405 1165 -366 ct 
1180 -328 1188 -287 1188 -242 ct 1188 -193 1180 -149 1162 -110 ct 1145 -71 1119 -42 1086 -21 ct 
1053 0 1018 10 981 10 ct 954 10 930 5 909 -7 ct 887 -18 870 -32 856 -50 ct 856 182 l 
775 182 l  p
848 -235 m  848 -174 861 -129 886 -100 ct 910 -71 940 -56 976 -56 ct 1011 -56 1042 -71 1068 -101 ct 
1093 -132 1106 -178 1106 -242 ct 1106 -302 1093 -348 1069 -378 ct 1044 -408 1014 -423 979 -423 ct 
945 -423 914 -407 888 -375 ct 862 -343 848 -296 848 -235 ct p ef
1464 -72 m  1476 -1 l  1453 4 1433 6 1415 6 ct 1386 6 1363 1 1347 -8 ct 1331 -17 1320 -29 1313 -44 ct 
1307 -59 1303 -91 1303 -139 ct 1303 -413 l  1244 -413 l  1244 -476 l  1303 -476 l 
1303 -593 l  1383 -642 l  1383 -476 l  1464 -476 l  1464 -413 l  1383 -413 l 
1383 -135 l  1383 -112 1385 -97 1388 -91 ct 1390 -84 1395 -79 1402 -75 ct 1408 -71 1417 -69 1429 -69 ct 
1438 -69 1450 -70 1464 -72 ct p ef
1543 -563 m  1543 -656 l  1623 -656 l  1623 -563 l  1543 -563 l  p
1543 0 m  1543 -475 l  1623 -475 l  1623 0 l  1543 0 l  p ef
1715 -237 m  1715 -325 1740 -391 1789 -433 ct 1830 -468 1880 -486 1938 -486 ct 
2004 -486 2057 -464 2099 -421 ct 2140 -379 2161 -320 2161 -244 ct 2161 -183 2152 -135 2133 -100 ct 
2115 -65 2088 -37 2053 -18 ct 2018 1 1980 11 1938 11 ct 1872 11 1818 -10 1777 -53 ct 
1736 -96 1715 -157 1715 -237 ct p
1798 -237 m  1798 -176 1812 -131 1838 -101 ct 1865 -70 1898 -55 1938 -55 ct 
1978 -55 2012 -70 2038 -101 ct 2065 -131 2078 -178 2078 -240 ct 2078 -299 2065 -343 2038 -374 ct 
2011 -404 1978 -419 1938 -419 ct 1898 -419 1865 -404 1838 -374 ct 1812 -344 1798 -298 1798 -237 ct 
p ef
2257 0 m  2257 -475 l  2330 -475 l  2330 -408 l  2365 -460 2415 -486 2481 -486 ct 
2510 -486 2536 -481 2560 -471 ct 2584 -460 2602 -447 2614 -430 ct 2626 -413 2635 -394 2639 -371 ct 
2642 -356 2644 -330 2644 -292 ct 2644 0 l  2563 0 l  2563 -289 l  2563 -322 2560 -346 2554 -363 ct 
2548 -379 2536 -392 2521 -402 ct 2505 -411 2486 -416 2464 -416 ct 2430 -416 2400 -405 2375 -384 ct 
2351 -362 2338 -320 2338 -260 ct 2338 0 l  2257 0 l  p ef
3080 -58 m  3050 -33 3021 -15 2994 -5 ct 2966 6 2936 11 2905 11 ct 2852 11 2812 -2 2784 -27 ct 
2756 -53 2742 -85 2742 -125 ct 2742 -148 2747 -170 2758 -189 ct 2769 -208 2783 -223 2800 -235 ct 
2817 -247 2836 -256 2858 -262 ct 2873 -266 2897 -270 2929 -274 ct 2994 -281 3042 -291 3073 -301 ct 
3073 -312 3073 -319 3073 -322 ct 3073 -355 3066 -378 3051 -392 ct 3030 -410 2999 -419 2959 -419 ct 
2921 -419 2893 -412 2875 -399 ct 2857 -386 2843 -362 2835 -329 ct 2756 -339 l 
2763 -373 2775 -400 2791 -421 ct 2808 -442 2832 -458 2863 -469 ct 2894 -480 2930 -486 2970 -486 ct 
3011 -486 3044 -481 3069 -471 ct 3095 -462 3113 -450 3125 -435 ct 3137 -421 3146 -403 3150 -381 ct 
3153 -367 3155 -342 3155 -306 ct 3155 -199 l  3155 -124 3156 -77 3160 -57 ct 
3163 -37 3170 -18 3180 0 ct 3096 0 l  3088 -16 3082 -36 3080 -58 ct p
3073 -238 m  3044 -226 3000 -216 2941 -208 ct 2908 -203 2885 -198 2871 -192 ct 
2857 -186 2847 -177 2839 -166 ct 2832 -154 2828 -141 2828 -127 ct 2828 -106 2836 -88 2853 -74 ct 
2869 -59 2893 -52 2924 -52 ct 2955 -52 2983 -59 3007 -72 ct 3031 -86 3049 -105 3060 -128 ct 
3069 -146 3073 -173 3073 -209 ct 3073 -238 l  p ef
3281 0 m  3281 -656 l  3361 -656 l  3361 0 l  3281 0 l  p ef
3746 0 m  3746 -656 l  3833 -656 l  3833 -77 l  4156 -77 l  4156 0 l  3746 0 l 
p ef
4562 -58 m  4532 -33 4503 -15 4476 -5 ct 4448 6 4418 11 4387 11 ct 4334 11 4294 -2 4266 -27 ct 
4238 -53 4224 -85 4224 -125 ct 4224 -148 4229 -170 4240 -189 ct 4251 -208 4265 -223 4282 -235 ct 
4299 -247 4318 -256 4340 -262 ct 4355 -266 4379 -270 4411 -274 ct 4476 -281 4524 -291 4555 -301 ct 
4555 -312 4555 -319 4555 -322 ct 4555 -355 4548 -378 4533 -392 ct 4512 -410 4481 -419 4441 -419 ct 
4403 -419 4375 -412 4357 -399 ct 4339 -386 4325 -362 4317 -329 ct 4238 -339 l 
4245 -373 4257 -400 4273 -421 ct 4290 -442 4314 -458 4345 -469 ct 4376 -480 4412 -486 4452 -486 ct 
4493 -486 4526 -481 4551 -471 ct 4577 -462 4595 -450 4607 -435 ct 4619 -421 4628 -403 4632 -381 ct 
4635 -367 4637 -342 4637 -306 ct 4637 -199 l  4637 -124 4638 -77 4642 -57 ct 
4645 -37 4652 -18 4662 0 ct 4578 0 l  4570 -16 4564 -36 4562 -58 ct p
4555 -238 m  4526 -226 4482 -216 4423 -208 ct 4390 -203 4367 -198 4353 -192 ct 
4339 -186 4329 -177 4321 -166 ct 4314 -154 4310 -141 4310 -127 ct 4310 -106 4318 -88 4335 -74 ct 
4351 -59 4375 -52 4406 -52 ct 4437 -52 4465 -59 4489 -72 ct 4513 -86 4531 -105 4542 -128 ct 
4551 -146 4555 -173 4555 -209 ct 4555 -238 l  p ef
4760 183 m  4751 108 l  4769 112 4784 115 4797 115 ct 4815 115 4829 112 4840 106 ct 
4851 100 4860 91 4866 81 ct 4872 73 4880 53 4891 21 ct 4893 16 4895 10 4898 1 ct 
4718 -475 l  4805 -475 l  4904 -200 l  4916 -165 4928 -128 4938 -90 ct 4947 -127 4958 -163 4971 -198 ct 
5073 -475 l  5153 -475 l  4973 8 l  4953 60 4938 96 4927 116 ct 4913 143 4897 162 4878 174 ct 
4860 187 4837 193 4812 193 ct 4796 193 4779 190 4760 183 ct p ef
5551 -153 m  5634 -142 l  5621 -94 5597 -56 5561 -29 ct 5526 -2 5480 11 5425 11 ct 
5356 11 5300 -10 5260 -53 ct 5219 -96 5199 -156 5199 -233 ct 5199 -313 5219 -376 5260 -420 ct 
5302 -464 5355 -486 5421 -486 ct 5484 -486 5536 -464 5576 -421 ct 5617 -378 5637 -317 5637 -238 ct 
5637 -234 5637 -226 5636 -217 ct 5282 -217 l  5285 -165 5300 -125 5326 -97 ct 
5353 -69 5386 -55 5426 -55 ct 5455 -55 5480 -63 5501 -78 ct 5522 -94 5539 -119 5551 -153 ct 
p
5286 -283 m  5552 -283 l  5548 -323 5538 -353 5521 -373 ct 5496 -404 5462 -420 5422 -420 ct 
5385 -420 5353 -407 5328 -383 ct 5303 -358 5289 -325 5286 -283 ct p ef
5737 0 m  5737 -475 l  5809 -475 l  5809 -403 l  5828 -437 5845 -459 5860 -470 ct 
5876 -481 5893 -486 5912 -486 ct 5939 -486 5967 -477 5995 -460 ct 5967 -385 l 
5947 -397 5928 -403 5908 -403 ct 5890 -403 5875 -397 5861 -387 ct 5847 -376 5837 -362 5831 -343 ct 
5822 -314 5817 -283 5817 -249 ct 5817 0 l  5737 0 l  p ef
6010 -142 m  6090 -154 l  6094 -122 6107 -98 6127 -81 ct 6148 -64 6176 -55 6213 -55 ct 
6250 -55 6278 -63 6295 -78 ct 6313 -93 6322 -111 6322 -131 ct 6322 -149 6314 -163 6299 -174 ct 
6288 -181 6260 -190 6216 -201 ct 6157 -216 6116 -229 6093 -240 ct 6070 -251 6053 -266 6041 -285 ct 
6030 -304 6024 -326 6024 -349 ct 6024 -370 6028 -390 6038 -408 ct 6048 -426 6061 -441 6078 -453 ct 
6090 -462 6107 -470 6129 -476 ct 6151 -483 6174 -486 6199 -486 ct 6236 -486 6269 -481 6297 -470 ct 
6325 -459 6346 -445 6359 -426 ct 6373 -408 6382 -383 6387 -353 ct 6308 -342 l 
6305 -366 6294 -385 6277 -399 ct 6260 -413 6236 -420 6205 -420 ct 6168 -420 6141 -414 6125 -401 ct 
6109 -389 6102 -375 6102 -358 ct 6102 -348 6105 -339 6111 -330 ct 6118 -322 6128 -314 6142 -309 ct 
6150 -306 6174 -299 6213 -288 ct 6271 -273 6310 -260 6333 -251 ct 6355 -241 6373 -227 6386 -208 ct 
6399 -190 6405 -167 6405 -139 ct 6405 -113 6397 -87 6382 -64 ct 6366 -40 6343 -21 6314 -8 ct 
6284 5 6251 11 6213 11 ct 6152 11 6105 -2 6072 -28 ct 6040 -53 6019 -91 6010 -142 ct 
p ef
pom
0.003 0.003 0.003 c 5474 31000 m  5474 32952 l  ps
5474 32952 m  8525 32952 l  ps
8525 31000 m  8525 32952 l  ps
5474 31000 m  8525 31000 l  ps
8525 31000 m  8525 32952 l  ps
8525 32952 m  16858 32952 l  ps
16858 31000 m  16858 32952 l  ps
8525 31000 m  16858 31000 l  ps
5474 32952 m  5474 35000 l  ps
5474 35000 m  8525 35000 l  ps
8525 32952 m  8525 35000 l  ps
5474 32952 m  8525 32952 l  ps
8525 32952 m  8525 35000 l  ps
8525 35000 m  16858 35000 l  ps
16858 32952 m  16858 35000 l  ps
8525 32952 m  16858 32952 l  ps
0.800 0.800 1.000 c 7136 32582 m  6272 32582 l  6272 31527 l  7999 31527 l 
7999 32582 l  7136 32582 l  p ef
50 lw 1 lj 0.003 0.003 0.003 c 7136 32582 m  6272 32582 l  6272 31527 l  7999 31527 l 
7999 32582 l  7136 32582 l  pc
1.000 1.000 0.601 c 7115 34357 m  6251 34357 l  6251 33302 l  7979 33302 l 
7979 34357 l  7115 34357 l  p ef
0.003 0.003 0.003 c 7601 34382 m  7115 34382 l  7115 34357 l  7115 34332 l 
7601 34332 l  7601 34357 l  7601 34382 l  p ef
7115 34382 m  6607 34382 l  6607 34357 l  6607 34332 l  7115 34332 l  7115 34357 l 
7115 34382 l  p ef
6226 34205 m  6226 33697 l  6251 33697 l  6276 33697 l  6276 34205 l  6251 34205 l 
6226 34205 l  p ef
6364 33277 m  6872 33277 l  6872 33302 l  6872 33327 l  6364 33327 l  6364 33302 l 
6364 33277 l  p ef
7380 33277 m  7888 33277 l  7888 33302 l  7888 33327 l  7380 33327 l  7380 33302 l 
7380 33277 l  p ef
8004 33719 m  8004 34227 l  7979 34227 l  7954 34227 l  7954 33719 l  7979 33719 l 
8004 33719 l  p ef
0.800 0.800 1.000 c 5750 6262 m  2500 6262 l  2500 2499 l  9000 2499 l 
9000 6262 l  5750 6262 l  p ef
0.003 0.003 0.003 c 5750 6262 m  2500 6262 l  2500 2499 l  9000 2499 l  9000 6262 l 
5750 6262 l  pc
pum
4880 4675 t
0.230 0.226 0.210 c 220 -1 m  220 -535 l  20 -535 l  20 -607 l  500 -607 l 
500 -535 l  300 -535 l  300 -1 l  220 -1 l  p ef
765 -54 m  738 -31 711 -14 686 -4 ct 660 5 633 10 604 10 ct 555 10 518 -2 492 -25 ct 
467 -49 454 -79 454 -116 ct 454 -137 459 -157 468 -175 ct 478 -192 491 -207 507 -217 ct 
523 -228 540 -236 560 -242 ct 575 -246 597 -249 626 -253 ct 687 -260 731 -269 759 -279 ct 
760 -289 760 -295 760 -298 ct 760 -328 753 -350 739 -362 ct 720 -379 691 -387 654 -387 ct 
619 -387 593 -381 576 -369 ct 560 -357 547 -335 539 -304 ct 466 -314 l  473 -345 484 -370 499 -389 ct 
514 -408 536 -423 565 -434 ct 594 -444 627 -449 665 -449 ct 702 -449 733 -445 756 -436 ct 
779 -427 797 -416 808 -402 ct 819 -389 826 -372 831 -352 ct 833 -339 835 -316 835 -283 ct 
835 -184 l  835 -115 836 -71 839 -53 ct 842 -34 849 -17 858 0 ct 780 0 l  773 -15 768 -33 765 -54 ct 
p
759 -220 m  732 -209 692 -200 638 -192 ct 607 -188 585 -183 573 -177 ct 560 -172 550 -164 543 -153 ct 
536 -143 533 -131 533 -118 ct 533 -98 541 -81 556 -68 ct 571 -55 593 -48 622 -48 ct 
650 -48 676 -55 698 -67 ct 720 -80 737 -97 747 -119 ct 755 -135 759 -160 759 -193 ct 
759 -220 l  p ef
919 -131 m  993 -143 l  997 -113 1008 -90 1027 -75 ct 1046 -59 1072 -51 1106 -51 ct 
1141 -51 1166 -58 1183 -72 ct 1199 -86 1207 -102 1207 -121 ct 1207 -138 1200 -151 1185 -161 ct 
1175 -167 1150 -176 1109 -186 ct 1055 -200 1017 -212 996 -222 ct 975 -232 959 -246 948 -264 ct 
937 -281 931 -301 931 -322 ct 931 -342 936 -360 945 -377 ct 954 -394 966 -407 982 -418 ct 
993 -427 1009 -434 1029 -440 ct 1049 -446 1070 -449 1093 -449 ct 1128 -449 1158 -444 1184 -434 ct 
1210 -424 1229 -411 1242 -394 ct 1254 -377 1263 -354 1267 -326 ct 1195 -316 l 
1191 -338 1182 -356 1166 -369 ct 1150 -381 1128 -388 1099 -388 ct 1064 -388 1040 -382 1025 -371 ct 
1011 -360 1003 -346 1003 -331 ct 1003 -322 1006 -313 1013 -305 ct 1019 -297 1028 -291 1041 -285 ct 
1049 -283 1070 -276 1107 -266 ct 1159 -252 1196 -241 1217 -232 ct 1238 -223 1254 -210 1266 -193 ct 
1278 -176 1284 -154 1284 -129 ct 1284 -104 1277 -81 1262 -59 ct 1248 -37 1227 -20 1199 -8 ct 
1172 4 1141 10 1107 10 ct 1050 10 1006 -2 976 -26 ct 946 -49 927 -84 919 -131 ct 
p ef
1373 0 m  1373 -606 l  1448 -606 l  1448 -260 l  1624 -439 l  1720 -439 l 
1552 -276 l  1737 0 l  1645 0 l  1500 -225 l  1448 -174 l  1448 0 l  1373 0 l 
p ef
pom
0.800 0.800 1.000 c 5750 11906 m  2500 11906 l  2500 8143 l  9000 8143 l 
9000 11906 l  5750 11906 l  p ef
0.003 0.003 0.003 c 5750 11906 m  2500 11906 l  2500 8143 l  9000 8143 l  9000 11906 l 
5750 11906 l  pc
pum
3799 10319 t
0.230 0.226 0.210 c 220 -1 m  220 -535 l  20 -535 l  20 -607 l  500 -607 l 
500 -535 l  300 -535 l  300 -1 l  220 -1 l  p ef
765 -54 m  738 -31 711 -14 686 -4 ct 660 5 633 10 604 10 ct 555 10 518 -2 492 -25 ct 
467 -49 454 -79 454 -116 ct 454 -137 459 -157 468 -175 ct 478 -192 491 -207 507 -217 ct 
523 -228 540 -236 560 -242 ct 575 -246 597 -249 626 -253 ct 687 -260 731 -269 759 -279 ct 
760 -289 760 -295 760 -298 ct 760 -328 753 -350 739 -362 ct 720 -379 691 -387 654 -387 ct 
619 -387 593 -381 576 -369 ct 560 -357 547 -335 539 -304 ct 466 -314 l  473 -345 484 -370 499 -389 ct 
514 -408 536 -423 565 -434 ct 594 -444 627 -449 665 -449 ct 702 -449 733 -445 756 -436 ct 
779 -427 797 -416 808 -402 ct 819 -389 826 -372 831 -352 ct 833 -339 835 -316 835 -283 ct 
835 -184 l  835 -115 836 -71 839 -53 ct 842 -34 849 -17 858 0 ct 780 0 l  773 -15 768 -33 765 -54 ct 
p
759 -220 m  732 -209 692 -200 638 -192 ct 607 -188 585 -183 573 -177 ct 560 -172 550 -164 543 -153 ct 
536 -143 533 -131 533 -118 ct 533 -98 541 -81 556 -68 ct 571 -55 593 -48 622 -48 ct 
650 -48 676 -55 698 -67 ct 720 -80 737 -97 747 -119 ct 755 -135 759 -160 759 -193 ct 
759 -220 l  p ef
919 -131 m  993 -143 l  997 -113 1008 -90 1027 -75 ct 1046 -59 1072 -51 1106 -51 ct 
1141 -51 1166 -58 1183 -72 ct 1199 -86 1207 -102 1207 -121 ct 1207 -138 1200 -151 1185 -161 ct 
1175 -167 1150 -176 1109 -186 ct 1055 -200 1017 -212 996 -222 ct 975 -232 959 -246 948 -264 ct 
937 -281 931 -301 931 -322 ct 931 -342 936 -360 945 -377 ct 954 -394 966 -407 982 -418 ct 
993 -427 1009 -434 1029 -440 ct 1049 -446 1070 -449 1093 -449 ct 1128 -449 1158 -444 1184 -434 ct 
1210 -424 1229 -411 1242 -394 ct 1254 -377 1263 -354 1267 -326 ct 1195 -316 l 
1191 -338 1182 -356 1166 -369 ct 1150 -381 1128 -388 1099 -388 ct 1064 -388 1040 -382 1025 -371 ct 
1011 -360 1003 -346 1003 -331 ct 1003 -322 1006 -313 1013 -305 ct 1019 -297 1028 -291 1041 -285 ct 
1049 -283 1070 -276 1107 -266 ct 1159 -252 1196 -241 1217 -232 ct 1238 -223 1254 -210 1266 -193 ct 
1278 -176 1284 -154 1284 -129 ct 1284 -104 1277 -81 1262 -59 ct 1248 -37 1227 -20 1199 -8 ct 
1172 4 1141 10 1107 10 ct 1050 10 1006 -2 976 -26 ct 946 -49 927 -84 919 -131 ct 
p ef
1373 0 m  1373 -606 l  1448 -606 l  1448 -260 l  1624 -439 l  1720 -439 l 
1552 -276 l  1737 0 l  1645 0 l  1500 -225 l  1448 -174 l  1448 0 l  1373 0 l 
p ef
1805 1 m  1805 -606 l  2034 -606 l  2074 -606 2105 -604 2126 -600 ct 2156 -595 2181 -585 2201 -571 ct 
2221 -558 2237 -538 2250 -513 ct 2262 -488 2268 -460 2268 -430 ct 2268 -379 2252 -335 2219 -300 ct 
2186 -264 2127 -246 2041 -246 ct 1886 -246 l  1886 1 l  1805 1 l  p
1886 -318 m  2042 -318 l  2094 -318 2131 -327 2153 -346 ct 2175 -366 2185 -393 2185 -428 ct 
2185 -453 2179 -475 2166 -493 ct 2153 -511 2136 -523 2116 -529 ct 2102 -532 2077 -534 2041 -534 ct 
1886 -534 l  1886 -318 l  p ef
2358 0 m  2358 -439 l  2425 -439 l  2425 -373 l  2442 -404 2458 -424 2472 -434 ct 
2487 -444 2503 -449 2520 -449 ct 2545 -449 2571 -441 2597 -425 ct 2571 -356 l 
2553 -367 2535 -372 2516 -372 ct 2500 -372 2486 -367 2473 -357 ct 2460 -348 2450 -334 2445 -317 ct 
2437 -290 2432 -261 2432 -230 ct 2432 0 l  2358 0 l  p ef
2615 -220 m  2615 -301 2638 -361 2683 -400 ct 2721 -433 2767 -449 2821 -449 ct 
2881 -449 2931 -429 2969 -390 ct 3007 -350 3027 -295 3027 -226 ct 3027 -169 3018 -125 3001 -92 ct 
2984 -60 2960 -35 2927 -17 ct 2895 1 2859 10 2821 10 ct 2760 10 2710 -10 2672 -49 ct 
2634 -89 2615 -145 2615 -220 ct p
2692 -220 m  2692 -163 2704 -121 2728 -93 ct 2753 -65 2784 -51 2821 -51 ct 2858 -51 2889 -65 2913 -93 ct 
2938 -121 2950 -164 2950 -222 ct 2950 -276 2938 -317 2913 -345 ct 2888 -373 2858 -387 2821 -387 ct 
2784 -387 2753 -373 2728 -346 ct 2704 -318 2692 -276 2692 -220 ct p ef
3062 0 m  3223 -228 l  3074 -439 l  3167 -439 l  3235 -336 l  3247 -317 3258 -300 3265 -287 ct 
3277 -305 3289 -321 3299 -335 ct 3373 -439 l  3462 -439 l  3310 -232 l  3473 0 l 
3382 0 l  3292 -136 l  3268 -173 l  3152 0 l  3062 0 l  p ef
3533 169 m  3524 99 l  3541 103 3555 106 3567 106 ct 3583 106 3597 103 3607 97 ct 
3616 92 3625 84 3631 74 ct 3636 67 3643 48 3654 19 ct 3655 15 3657 9 3660 1 ct 
3494 -440 l  3574 -440 l  3665 -185 l  3677 -153 3688 -119 3697 -83 ct 3706 -118 3716 -151 3728 -183 ct 
3822 -440 l  3896 -440 l  3729 7 l  3711 55 3697 89 3687 107 ct 3674 131 3659 149 3642 161 ct 
3625 172 3604 178 3581 178 ct 3566 178 3550 175 3533 169 ct p ef
pom
0.003 0.003 0.003 c 3405 8144 m  3405 6719 l  3430 6719 l  3455 6719 l  3455 8144 l 
3430 8144 l  3405 8144 l  p ef
3430 6263 m  3240 6833 l  3620 6833 l  3430 6263 l  p ef
4384 6263 m  4384 7688 l  4359 7688 l  4334 7688 l  4334 6263 l  4359 6263 l 
4384 6263 l  p ef
4359 8144 m  4549 7574 l  4169 7574 l  4359 8144 l  p ef
8049 8144 m  8049 6719 l  8074 6719 l  8099 6719 l  8099 8144 l  8074 8144 l 
8049 8144 l  p ef
8074 6263 m  7884 6833 l  8264 6833 l  8074 6263 l  p ef
3409 25302 m  3409 23877 l  3434 23877 l  3459 23877 l  3459 25302 l  3434 25302 l 
3409 25302 l  p ef
3434 23421 m  3244 23991 l  3624 23991 l  3434 23421 l  p ef
4388 23421 m  4388 24846 l  4363 24846 l  4338 24846 l  4338 23421 l  4363 23421 l 
4388 23421 l  p ef
4363 25302 m  4553 24732 l  4173 24732 l  4363 25302 l  p ef
8053 25302 m  8053 23877 l  8078 23877 l  8103 23877 l  8103 25302 l  8078 25302 l 
8053 25302 l  p ef
8078 23421 m  7888 23991 l  8268 23991 l  8078 23421 l  p ef
0.800 0.800 1.000 c 5750 23367 m  2500 23367 l  2500 19604 l  9000 19604 l 
9000 23367 l  5750 23367 l  p ef
0.003 0.003 0.003 c 5750 23367 m  2500 23367 l  2500 19604 l  9000 19604 l 
9000 23367 l  5750 23367 l  pc
pum
4741 21780 t
0.230 0.226 0.210 c 65 0 m  65 -606 l  147 -606 l  465 -130 l  465 -606 l 
542 -606 l  542 0 l  460 0 l  141 -476 l  141 0 l  65 0 l  p ef
638 -220 m  638 -301 661 -361 706 -400 ct 744 -433 790 -449 844 -449 ct 904 -449 954 -429 992 -390 ct 
1030 -350 1050 -295 1050 -226 ct 1050 -169 1041 -125 1024 -92 ct 1007 -60 983 -35 950 -17 ct 
918 1 882 10 844 10 ct 783 10 733 -10 695 -49 ct 657 -89 638 -145 638 -220 ct p
715 -220 m  715 -163 727 -121 751 -93 ct 776 -65 807 -51 844 -51 ct 881 -51 912 -65 936 -93 ct 
961 -121 973 -164 973 -222 ct 973 -276 961 -317 936 -345 ct 911 -373 881 -387 844 -387 ct 
807 -387 776 -373 751 -346 ct 727 -318 715 -276 715 -220 ct p ef
1421 0 m  1421 -55 l  1393 -12 1352 10 1298 10 ct 1263 10 1231 0 1201 -19 ct 
1172 -38 1149 -65 1133 -100 ct 1117 -134 1109 -174 1109 -219 ct 1109 -263 1116 -303 1131 -338 ct 
1145 -374 1167 -401 1197 -420 ct 1226 -439 1259 -449 1295 -449 ct 1321 -449 1345 -443 1365 -432 ct 
1386 -421 1403 -407 1416 -389 ct 1416 -606 l  1490 -606 l  1490 0 l  1421 0 l 
p
1185 -219 m  1185 -163 1197 -121 1221 -93 ct 1245 -65 1273 -51 1305 -51 ct 1338 -51 1365 -64 1388 -91 ct 
1411 -118 1422 -158 1422 -213 ct 1422 -273 1410 -317 1387 -345 ct 1364 -373 1336 -387 1302 -387 ct 
1269 -387 1241 -374 1219 -347 ct 1197 -320 1185 -277 1185 -219 ct p ef
1906 -142 m  1982 -132 l  1970 -87 1948 -52 1915 -27 ct 1882 -2 1840 10 1789 10 ct 
1725 10 1674 -10 1636 -49 ct 1599 -89 1580 -144 1580 -216 ct 1580 -290 1599 -347 1637 -388 ct 
1675 -429 1725 -449 1785 -449 ct 1844 -449 1892 -429 1929 -389 ct 1966 -349 1985 -293 1985 -221 ct 
1985 -216 1985 -210 1985 -201 ct 1657 -201 l  1660 -152 1673 -115 1698 -90 ct 
1722 -64 1753 -51 1790 -51 ct 1817 -51 1840 -58 1860 -73 ct 1879 -87 1894 -110 1906 -142 ct 
p
1661 -262 m  1906 -262 l  1903 -299 1894 -326 1878 -345 ct 1855 -374 1824 -388 1786 -388 ct 
1752 -388 1723 -376 1700 -354 ct 1676 -331 1664 -300 1661 -262 ct p ef
pom
0.003 0.003 0.003 c 3429 19579 m  3429 18154 l  3454 18154 l  3479 18154 l 
3479 19579 l  3454 19579 l  3429 19579 l  p ef
3454 17698 m  3264 18268 l  3644 18268 l  3454 17698 l  p ef
4407 17698 m  4407 19123 l  4382 19123 l  4357 19123 l  4357 17698 l  4382 17698 l 
4407 17698 l  p ef
4382 19579 m  4572 19009 l  4192 19009 l  4382 19579 l  p ef
8072 19579 m  8072 18154 l  8097 18154 l  8122 18154 l  8122 19579 l  8097 19579 l 
8072 19579 l  p ef
8097 17698 m  7907 18268 l  8287 18268 l  8097 17698 l  p ef
1.000 1.000 0.601 c 5750 17635 m  2500 17635 l  2500 13872 l  9000 13872 l 
9000 17635 l  5750 17635 l  p ef
0.003 0.003 0.003 c 5956 17660 m  5750 17660 l  5750 17635 l  5750 17610 l 
5956 17610 l  5956 17635 l  5956 17660 l  p ef
5750 17660 m  5242 17660 l  5242 17635 l  5242 17610 l  5750 17610 l  5750 17635 l 
5750 17660 l  p ef
4734 17660 m  4226 17660 l  4226 17635 l  4226 17610 l  4734 17610 l  4734 17635 l 
4734 17660 l  p ef
3718 17660 m  3210 17660 l  3210 17635 l  3210 17610 l  3718 17610 l  3718 17635 l 
3718 17660 l  p ef
2702 17660 m  2500 17660 l  2500 17635 l  2500 17610 l  2702 17610 l  2702 17635 l 
2702 17660 l  p ef
2500 17660 m  2486 17660 2475 17649 2475 17635 ct 2500 17635 l  2500 17660 l 
p ef
2475 17635 m  2475 17329 l  2500 17329 l  2525 17329 l  2525 17635 l  2500 17635 l 
2475 17635 l  p ef
2475 16821 m  2475 16313 l  2500 16313 l  2525 16313 l  2525 16821 l  2500 16821 l 
2475 16821 l  p ef
2475 15805 m  2475 15297 l  2500 15297 l  2525 15297 l  2525 15805 l  2500 15805 l 
2475 15805 l  p ef
2475 14789 m  2475 14281 l  2500 14281 l  2525 14281 l  2525 14789 l  2500 14789 l 
2475 14789 l  p ef
2599 13847 m  3107 13847 l  3107 13872 l  3107 13897 l  2599 13897 l  2599 13872 l 
2599 13847 l  p ef
3615 13847 m  4123 13847 l  4123 13872 l  4123 13897 l  3615 13897 l  3615 13872 l 
3615 13847 l  p ef
4631 13847 m  5139 13847 l  5139 13872 l  5139 13897 l  4631 13897 l  4631 13872 l 
4631 13847 l  p ef
5647 13847 m  6155 13847 l  6155 13872 l  6155 13897 l  5647 13897 l  5647 13872 l 
5647 13847 l  p ef
6663 13847 m  7171 13847 l  7171 13872 l  7171 13897 l  6663 13897 l  6663 13872 l 
6663 13847 l  p ef
7679 13847 m  8187 13847 l  8187 13872 l  8187 13897 l  7679 13897 l  7679 13872 l 
7679 13847 l  p ef
8695 13847 m  9000 13847 l  9000 13872 l  9000 13897 l  8695 13897 l  8695 13872 l 
8695 13847 l  p ef
9000 13847 m  9014 13847 9025 13858 9025 13872 ct 9000 13872 l  9000 13847 l 
p ef
9025 13872 m  9025 14075 l  9000 14075 l  8975 14075 l  8975 13872 l  9000 13872 l 
9025 13872 l  p ef
9025 14583 m  9025 15091 l  9000 15091 l  8975 15091 l  8975 14583 l  9000 14583 l 
9025 14583 l  p ef
9025 15599 m  9025 16107 l  9000 16107 l  8975 16107 l  8975 15599 l  9000 15599 l 
9025 15599 l  p ef
9025 16615 m  9025 17123 l  9000 17123 l  8975 17123 l  8975 16615 l  9000 16615 l 
9025 16615 l  p ef
9025 17631 m  9025 17635 l  9000 17635 l  8975 17635 l  8975 17631 l  9000 17631 l 
9025 17631 l  p ef
9025 17635 m  9025 17649 9014 17660 9000 17660 ct 9000 17635 l  9025 17635 l 
p ef
9000 17660 m  8496 17660 l  8496 17635 l  8496 17610 l  9000 17610 l  9000 17635 l 
9000 17660 l  p ef
7988 17660 m  7480 17660 l  7480 17635 l  7480 17610 l  7988 17610 l  7988 17635 l 
7988 17660 l  p ef
6972 17660 m  6464 17660 l  6464 17635 l  6464 17610 l  6972 17610 l  6972 17635 l 
6972 17660 l  p ef
pum
2999 16048 t
0.230 0.226 0.210 c 498 -213 m  578 -193 l  561 -127 531 -76 487 -42 ct 444 -7 390 10 327 10 ct 
262 10 209 -3 168 -30 ct 127 -56 96 -95 74 -145 ct 53 -196 42 -250 42 -308 ct 42 -371 54 -426 78 -473 ct 
103 -520 137 -556 181 -580 ct 226 -604 275 -617 328 -617 ct 389 -617 440 -601 481 -570 ct 
523 -539 552 -496 568 -440 ct 489 -422 l  475 -466 454 -498 428 -518 ct 401 -538 367 -548 327 -548 ct 
280 -548 241 -537 210 -515 ct 179 -492 157 -462 144 -425 ct 131 -387 125 -348 125 -308 ct 
125 -257 132 -212 147 -173 ct 162 -135 186 -106 218 -87 ct 249 -68 284 -59 321 -59 ct 
365 -59 404 -72 435 -97 ct 466 -123 487 -162 498 -213 ct p ef
638 -220 m  638 -301 661 -361 706 -400 ct 744 -433 790 -449 844 -449 ct 904 -449 954 -429 992 -390 ct 
1030 -350 1050 -295 1050 -226 ct 1050 -169 1041 -125 1024 -92 ct 1007 -60 983 -35 950 -17 ct 
918 1 882 10 844 10 ct 783 10 733 -10 695 -49 ct 657 -89 638 -145 638 -220 ct p
715 -220 m  715 -163 727 -121 751 -93 ct 776 -65 807 -51 844 -51 ct 881 -51 912 -65 936 -93 ct 
961 -121 973 -164 973 -222 ct 973 -276 961 -317 936 -345 ct 911 -373 881 -387 844 -387 ct 
807 -387 776 -373 751 -346 ct 727 -318 715 -276 715 -220 ct p ef
1136 0 m  1136 -439 l  1202 -439 l  1202 -377 l  1216 -399 1235 -416 1257 -429 ct 
1280 -442 1306 -449 1336 -449 ct 1368 -449 1395 -442 1416 -429 ct 1436 -415 1451 -396 1460 -372 ct 
1494 -423 1540 -449 1595 -449 ct 1639 -449 1672 -437 1696 -413 ct 1719 -389 1731 -352 1731 -301 ct 
1731 0 l  1657 0 l  1657 -277 l  1657 -306 1655 -328 1650 -341 ct 1645 -354 1636 -365 1623 -373 ct 
1611 -381 1596 -385 1579 -385 ct 1548 -385 1522 -374 1502 -354 ct 1481 -333 1471 -300 1471 -255 ct 
1471 0 l  1397 0 l  1397 -285 l  1397 -318 1391 -343 1379 -360 ct 1366 -376 1347 -385 1319 -385 ct 
1298 -385 1279 -379 1261 -368 ct 1243 -357 1230 -341 1222 -320 ct 1214 -298 1210 -268 1210 -228 ct 
1210 0 l  1136 0 l  p ef
1842 0 m  1842 -439 l  1908 -439 l  1908 -377 l  1922 -399 1941 -416 1963 -429 ct 
1986 -442 2012 -449 2042 -449 ct 2074 -449 2101 -442 2122 -429 ct 2142 -415 2157 -396 2166 -372 ct 
2200 -423 2246 -449 2301 -449 ct 2345 -449 2378 -437 2402 -413 ct 2425 -389 2437 -352 2437 -301 ct 
2437 0 l  2363 0 l  2363 -277 l  2363 -306 2361 -328 2356 -341 ct 2351 -354 2342 -365 2329 -373 ct 
2317 -381 2302 -385 2285 -385 ct 2254 -385 2228 -374 2208 -354 ct 2187 -333 2177 -300 2177 -255 ct 
2177 0 l  2103 0 l  2103 -285 l  2103 -318 2097 -343 2085 -360 ct 2072 -376 2053 -385 2025 -385 ct 
2004 -385 1985 -379 1967 -368 ct 1949 -357 1936 -341 1928 -320 ct 1920 -298 1916 -268 1916 -228 ct 
1916 0 l  1842 0 l  p ef
2837 0 m  2837 -64 l  2802 -15 2756 10 2697 10 ct 2671 10 2647 5 2625 -5 ct 
2602 -15 2586 -27 2575 -42 ct 2564 -57 2556 -76 2552 -98 ct 2549 -112 2547 -135 2547 -167 ct 
2547 -439 l  2622 -439 l  2622 -195 l  2622 -157 2623 -130 2626 -117 ct 2631 -97 2641 -82 2656 -71 ct 
2671 -60 2690 -54 2712 -54 ct 2735 -54 2755 -60 2775 -71 ct 2795 -83 2808 -98 2817 -118 ct 
2825 -138 2829 -166 2829 -204 ct 2829 -439 l  2903 -439 l  2903 0 l  2837 0 l 
p ef
3019 0 m  3019 -439 l  3086 -439 l  3086 -377 l  3118 -425 3165 -449 3226 -449 ct 
3252 -449 3276 -444 3299 -435 ct 3321 -425 3337 -413 3348 -397 ct 3359 -382 3367 -364 3372 -342 ct 
3374 -329 3376 -304 3376 -270 ct 3376 0 l  3301 0 l  3301 -267 l  3301 -297 3298 -320 3293 -335 ct 
3287 -350 3277 -362 3262 -371 ct 3247 -380 3230 -385 3210 -385 ct 3178 -385 3151 -374 3128 -354 ct 
3105 -334 3093 -296 3093 -240 ct 3093 0 l  3019 0 l  p ef
3489 -520 m  3489 -606 l  3564 -606 l  3564 -520 l  3489 -520 l  p
3489 0 m  3489 -439 l  3564 -439 l  3564 0 l  3489 0 l  p ef
3962 -161 m  4036 -151 l  4028 -101 4007 -61 3974 -33 ct 3941 -4 3901 10 3853 10 ct 
3793 10 3744 -10 3708 -49 ct 3671 -88 3653 -145 3653 -218 ct 3653 -265 3661 -307 3677 -342 ct 
3692 -378 3716 -405 3748 -422 ct 3781 -440 3815 -449 3853 -449 ct 3901 -449 3940 -437 3970 -413 ct 
4001 -389 4020 -354 4029 -310 ct 3956 -299 l  3949 -328 3937 -351 3920 -365 ct 
3902 -380 3881 -388 3856 -388 ct 3819 -388 3788 -374 3765 -347 ct 3741 -321 3730 -278 3730 -220 ct 
3730 -161 3741 -118 3764 -91 ct 3786 -65 3816 -51 3852 -51 ct 3881 -51 3906 -60 3925 -78 ct 
3945 -96 3957 -124 3962 -161 ct p ef
4385 -54 m  4358 -31 4331 -14 4306 -4 ct 4280 5 4253 10 4224 10 ct 4175 10 4138 -2 4112 -25 ct 
4087 -49 4074 -79 4074 -116 ct 4074 -137 4079 -157 4088 -175 ct 4098 -192 4111 -207 4127 -217 ct 
4143 -228 4160 -236 4180 -242 ct 4195 -246 4217 -249 4246 -253 ct 4307 -260 4351 -269 4379 -279 ct 
4380 -289 4380 -295 4380 -298 ct 4380 -328 4373 -350 4359 -362 ct 4340 -379 4311 -387 4274 -387 ct 
4239 -387 4213 -381 4196 -369 ct 4180 -357 4167 -335 4159 -304 ct 4086 -314 l 
4093 -345 4104 -370 4119 -389 ct 4134 -408 4156 -423 4185 -434 ct 4214 -444 4247 -449 4285 -449 ct 
4322 -449 4353 -445 4376 -436 ct 4399 -427 4417 -416 4428 -402 ct 4439 -389 4446 -372 4451 -352 ct 
4453 -339 4455 -316 4455 -283 ct 4455 -184 l  4455 -115 4456 -71 4459 -53 ct 
4462 -34 4469 -17 4478 0 ct 4400 0 l  4393 -15 4388 -33 4385 -54 ct p
4379 -220 m  4352 -209 4312 -200 4258 -192 ct 4227 -188 4205 -183 4193 -177 ct 
4180 -172 4170 -164 4163 -153 ct 4156 -143 4153 -131 4153 -118 ct 4153 -98 4161 -81 4176 -68 ct 
4191 -55 4213 -48 4242 -48 ct 4270 -48 4296 -55 4318 -67 ct 4340 -80 4357 -97 4367 -119 ct 
4375 -135 4379 -160 4379 -193 ct 4379 -220 l  p ef
4731 -66 m  4742 -1 l  4721 4 4702 6 4686 6 ct 4659 6 4638 2 4623 -7 ct 4608 -15 4598 -27 4592 -41 ct 
4586 -54 4582 -84 4582 -128 ct 4582 -381 l  4528 -381 l  4528 -439 l  4582 -439 l 
4582 -548 l  4657 -592 l  4657 -439 l  4731 -439 l  4731 -381 l  4657 -381 l 
4657 -124 l  4657 -103 4658 -89 4660 -83 ct 4663 -77 4667 -72 4673 -69 ct 4679 -65 4688 -63 4699 -63 ct 
4707 -63 4718 -64 4731 -66 ct p ef
4778 -220 m  4778 -301 4801 -361 4846 -400 ct 4884 -433 4930 -449 4984 -449 ct 
5044 -449 5094 -429 5132 -390 ct 5170 -350 5190 -295 5190 -226 ct 5190 -169 5181 -125 5164 -92 ct 
5147 -60 5123 -35 5090 -17 ct 5058 1 5022 10 4984 10 ct 4923 10 4873 -10 4835 -49 ct 
4797 -89 4778 -145 4778 -220 ct p
4855 -220 m  4855 -163 4867 -121 4891 -93 ct 4916 -65 4947 -51 4984 -51 ct 5021 -51 5052 -65 5076 -93 ct 
5101 -121 5113 -164 5113 -222 ct 5113 -276 5101 -317 5076 -345 ct 5051 -373 5021 -387 4984 -387 ct 
4947 -387 4916 -373 4891 -346 ct 4867 -318 4855 -276 4855 -220 ct p ef
5275 0 m  5275 -439 l  5342 -439 l  5342 -373 l  5359 -404 5375 -424 5389 -434 ct 
5404 -444 5420 -449 5437 -449 ct 5462 -449 5488 -441 5514 -425 ct 5488 -356 l 
5470 -367 5452 -372 5433 -372 ct 5417 -372 5403 -367 5390 -357 ct 5377 -348 5367 -334 5362 -317 ct 
5354 -290 5349 -261 5349 -230 ct 5349 0 l  5275 0 l  p ef
pom
0.003 0.003 0.003 c 3429 13847 m  3429 12422 l  3454 12422 l  3479 12422 l 
3479 13847 l  3454 13847 l  3429 13847 l  p ef
3454 11966 m  3264 12536 l  3644 12536 l  3454 11966 l  p ef
4407 11966 m  4407 13391 l  4382 13391 l  4357 13391 l  4357 11966 l  4382 11966 l 
4407 11966 l  p ef
4382 13847 m  4572 13277 l  4192 13277 l  4382 13847 l  p ef
8072 13847 m  8072 12422 l  8097 12422 l  8122 12422 l  8122 13847 l  8097 13847 l 
8072 13847 l  p ef
8097 11966 m  7907 12536 l  8287 12536 l  8097 11966 l  p ef
0.800 0.800 1.000 c 15800 6262 m  12600 6262 l  12600 2499 l  18999 2499 l 
18999 6262 l  15800 6262 l  p ef
0.003 0.003 0.003 c 15800 6262 m  12600 6262 l  12600 2499 l  18999 2499 l 
18999 6262 l  15800 6262 l  pc
pum
14930 4675 t
0.230 0.226 0.210 c 220 -1 m  220 -535 l  20 -535 l  20 -607 l  500 -607 l 
500 -535 l  300 -535 l  300 -1 l  220 -1 l  p ef
765 -54 m  738 -31 711 -14 686 -4 ct 660 5 633 10 604 10 ct 555 10 518 -2 492 -25 ct 
467 -49 454 -79 454 -116 ct 454 -137 459 -157 468 -175 ct 478 -192 491 -207 507 -217 ct 
523 -228 540 -236 560 -242 ct 575 -246 597 -249 626 -253 ct 687 -260 731 -269 759 -279 ct 
760 -289 760 -295 760 -298 ct 760 -328 753 -350 739 -362 ct 720 -379 691 -387 654 -387 ct 
619 -387 593 -381 576 -369 ct 560 -357 547 -335 539 -304 ct 466 -314 l  473 -345 484 -370 499 -389 ct 
514 -408 536 -423 565 -434 ct 594 -444 627 -449 665 -449 ct 702 -449 733 -445 756 -436 ct 
779 -427 797 -416 808 -402 ct 819 -389 826 -372 831 -352 ct 833 -339 835 -316 835 -283 ct 
835 -184 l  835 -115 836 -71 839 -53 ct 842 -34 849 -17 858 0 ct 780 0 l  773 -15 768 -33 765 -54 ct 
p
759 -220 m  732 -209 692 -200 638 -192 ct 607 -188 585 -183 573 -177 ct 560 -172 550 -164 543 -153 ct 
536 -143 533 -131 533 -118 ct 533 -98 541 -81 556 -68 ct 571 -55 593 -48 622 -48 ct 
650 -48 676 -55 698 -67 ct 720 -80 737 -97 747 -119 ct 755 -135 759 -160 759 -193 ct 
759 -220 l  p ef
919 -131 m  993 -143 l  997 -113 1008 -90 1027 -75 ct 1046 -59 1072 -51 1106 -51 ct 
1141 -51 1166 -58 1183 -72 ct 1199 -86 1207 -102 1207 -121 ct 1207 -138 1200 -151 1185 -161 ct 
1175 -167 1150 -176 1109 -186 ct 1055 -200 1017 -212 996 -222 ct 975 -232 959 -246 948 -264 ct 
937 -281 931 -301 931 -322 ct 931 -342 936 -360 945 -377 ct 954 -394 966 -407 982 -418 ct 
993 -427 1009 -434 1029 -440 ct 1049 -446 1070 -449 1093 -449 ct 1128 -449 1158 -444 1184 -434 ct 
1210 -424 1229 -411 1242 -394 ct 1254 -377 1263 -354 1267 -326 ct 1195 -316 l 
1191 -338 1182 -356 1166 -369 ct 1150 -381 1128 -388 1099 -388 ct 1064 -388 1040 -382 1025 -371 ct 
1011 -360 1003 -346 1003 -331 ct 1003 -322 1006 -313 1013 -305 ct 1019 -297 1028 -291 1041 -285 ct 
1049 -283 1070 -276 1107 -266 ct 1159 -252 1196 -241 1217 -232 ct 1238 -223 1254 -210 1266 -193 ct 
1278 -176 1284 -154 1284 -129 ct 1284 -104 1277 -81 1262 -59 ct 1248 -37 1227 -20 1199 -8 ct 
1172 4 1141 10 1107 10 ct 1050 10 1006 -2 976 -26 ct 946 -49 927 -84 919 -131 ct 
p ef
1373 0 m  1373 -606 l  1448 -606 l  1448 -260 l  1624 -439 l  1720 -439 l 
1552 -276 l  1737 0 l  1645 0 l  1500 -225 l  1448 -174 l  1448 0 l  1373 0 l 
p ef
pom
0.800 0.800 1.000 c 15800 11906 m  12600 11906 l  12600 8143 l  18999 8143 l 
18999 11906 l  15800 11906 l  p ef
0.003 0.003 0.003 c 15800 11906 m  12600 11906 l  12600 8143 l  18999 8143 l 
18999 11906 l  15800 11906 l  pc
pum
13848 10319 t
0.230 0.226 0.210 c 220 -1 m  220 -535 l  20 -535 l  20 -607 l  500 -607 l 
500 -535 l  300 -535 l  300 -1 l  220 -1 l  p ef
765 -54 m  738 -31 711 -14 686 -4 ct 660 5 633 10 604 10 ct 555 10 518 -2 492 -25 ct 
467 -49 454 -79 454 -116 ct 454 -137 459 -157 468 -175 ct 478 -192 491 -207 507 -217 ct 
523 -228 540 -236 560 -242 ct 575 -246 597 -249 626 -253 ct 687 -260 731 -269 759 -279 ct 
760 -289 760 -295 760 -298 ct 760 -328 753 -350 739 -362 ct 720 -379 691 -387 654 -387 ct 
619 -387 593 -381 576 -369 ct 560 -357 547 -335 539 -304 ct 466 -314 l  473 -345 484 -370 499 -389 ct 
514 -408 536 -423 565 -434 ct 594 -444 627 -449 665 -449 ct 702 -449 733 -445 756 -436 ct 
779 -427 797 -416 808 -402 ct 819 -389 826 -372 831 -352 ct 833 -339 835 -316 835 -283 ct 
835 -184 l  835 -115 836 -71 839 -53 ct 842 -34 849 -17 858 0 ct 780 0 l  773 -15 768 -33 765 -54 ct 
p
759 -220 m  732 -209 692 -200 638 -192 ct 607 -188 585 -183 573 -177 ct 560 -172 550 -164 543 -153 ct 
536 -143 533 -131 533 -118 ct 533 -98 541 -81 556 -68 ct 571 -55 593 -48 622 -48 ct 
650 -48 676 -55 698 -67 ct 720 -80 737 -97 747 -119 ct 755 -135 759 -160 759 -193 ct 
759 -220 l  p ef
919 -131 m  993 -143 l  997 -113 1008 -90 1027 -75 ct 1046 -59 1072 -51 1106 -51 ct 
1141 -51 1166 -58 1183 -72 ct 1199 -86 1207 -102 1207 -121 ct 1207 -138 1200 -151 1185 -161 ct 
1175 -167 1150 -176 1109 -186 ct 1055 -200 1017 -212 996 -222 ct 975 -232 959 -246 948 -264 ct 
937 -281 931 -301 931 -322 ct 931 -342 936 -360 945 -377 ct 954 -394 966 -407 982 -418 ct 
993 -427 1009 -434 1029 -440 ct 1049 -446 1070 -449 1093 -449 ct 1128 -449 1158 -444 1184 -434 ct 
1210 -424 1229 -411 1242 -394 ct 1254 -377 1263 -354 1267 -326 ct 1195 -316 l 
1191 -338 1182 -356 1166 -369 ct 1150 -381 1128 -388 1099 -388 ct 1064 -388 1040 -382 1025 -371 ct 
1011 -360 1003 -346 1003 -331 ct 1003 -322 1006 -313 1013 -305 ct 1019 -297 1028 -291 1041 -285 ct 
1049 -283 1070 -276 1107 -266 ct 1159 -252 1196 -241 1217 -232 ct 1238 -223 1254 -210 1266 -193 ct 
1278 -176 1284 -154 1284 -129 ct 1284 -104 1277 -81 1262 -59 ct 1248 -37 1227 -20 1199 -8 ct 
1172 4 1141 10 1107 10 ct 1050 10 1006 -2 976 -26 ct 946 -49 927 -84 919 -131 ct 
p ef
1373 0 m  1373 -606 l  1448 -606 l  1448 -260 l  1624 -439 l  1720 -439 l 
1552 -276 l  1737 0 l  1645 0 l  1500 -225 l  1448 -174 l  1448 0 l  1373 0 l 
p ef
1805 1 m  1805 -606 l  2034 -606 l  2074 -606 2105 -604 2126 -600 ct 2156 -595 2181 -585 2201 -571 ct 
2221 -558 2237 -538 2250 -513 ct 2262 -488 2268 -460 2268 -430 ct 2268 -379 2252 -335 2219 -300 ct 
2186 -264 2127 -246 2041 -246 ct 1886 -246 l  1886 1 l  1805 1 l  p
1886 -318 m  2042 -318 l  2094 -318 2131 -327 2153 -346 ct 2175 -366 2185 -393 2185 -428 ct 
2185 -453 2179 -475 2166 -493 ct 2153 -511 2136 -523 2116 -529 ct 2102 -532 2077 -534 2041 -534 ct 
1886 -534 l  1886 -318 l  p ef
2358 0 m  2358 -439 l  2425 -439 l  2425 -373 l  2442 -404 2458 -424 2472 -434 ct 
2487 -444 2503 -449 2520 -449 ct 2545 -449 2571 -441 2597 -425 ct 2571 -356 l 
2553 -367 2535 -372 2516 -372 ct 2500 -372 2486 -367 2473 -357 ct 2460 -348 2450 -334 2445 -317 ct 
2437 -290 2432 -261 2432 -230 ct 2432 0 l  2358 0 l  p ef
2615 -220 m  2615 -301 2638 -361 2683 -400 ct 2721 -433 2767 -449 2821 -449 ct 
2881 -449 2931 -429 2969 -390 ct 3007 -350 3027 -295 3027 -226 ct 3027 -169 3018 -125 3001 -92 ct 
2984 -60 2960 -35 2927 -17 ct 2895 1 2859 10 2821 10 ct 2760 10 2710 -10 2672 -49 ct 
2634 -89 2615 -145 2615 -220 ct p
2692 -220 m  2692 -163 2704 -121 2728 -93 ct 2753 -65 2784 -51 2821 -51 ct 2858 -51 2889 -65 2913 -93 ct 
2938 -121 2950 -164 2950 -222 ct 2950 -276 2938 -317 2913 -345 ct 2888 -373 2858 -387 2821 -387 ct 
2784 -387 2753 -373 2728 -346 ct 2704 -318 2692 -276 2692 -220 ct p ef
3062 0 m  3223 -228 l  3074 -439 l  3167 -439 l  3235 -336 l  3247 -317 3258 -300 3265 -287 ct 
3277 -305 3289 -321 3299 -335 ct 3373 -439 l  3462 -439 l  3310 -232 l  3473 0 l 
3382 0 l  3292 -136 l  3268 -173 l  3152 0 l  3062 0 l  p ef
3533 169 m  3524 99 l  3541 103 3555 106 3567 106 ct 3583 106 3597 103 3607 97 ct 
3616 92 3625 84 3631 74 ct 3636 67 3643 48 3654 19 ct 3655 15 3657 9 3660 1 ct 
3494 -440 l  3574 -440 l  3665 -185 l  3677 -153 3688 -119 3697 -83 ct 3706 -118 3716 -151 3728 -183 ct 
3822 -440 l  3896 -440 l  3729 7 l  3711 55 3697 89 3687 107 ct 3674 131 3659 149 3642 161 ct 
3625 172 3604 178 3581 178 ct 3566 178 3550 175 3533 169 ct p ef
pom
0.003 0.003 0.003 c 13490 8144 m  13490 6719 l  13515 6719 l  13540 6719 l 
13540 8144 l  13515 8144 l  13490 8144 l  p ef
13515 6263 m  13325 6833 l  13705 6833 l  13515 6263 l  p ef
14455 6263 m  14455 7688 l  14430 7688 l  14405 7688 l  14405 6263 l  14430 6263 l 
14455 6263 l  p ef
14430 8144 m  14620 7574 l  14240 7574 l  14430 8144 l  p ef
18062 8144 m  18062 6719 l  18087 6719 l  18112 6719 l  18112 8144 l  18087 8144 l 
18062 8144 l  p ef
18087 6263 m  17897 6833 l  18277 6833 l  18087 6263 l  p ef
13495 25302 m  13495 23877 l  13520 23877 l  13545 23877 l  13545 25302 l 
13520 25302 l  13495 25302 l  p ef
13520 23421 m  13330 23991 l  13710 23991 l  13520 23421 l  p ef
14459 23421 m  14459 24846 l  14434 24846 l  14409 24846 l  14409 23421 l 
14434 23421 l  14459 23421 l  p ef
14434 25302 m  14624 24732 l  14244 24732 l  14434 25302 l  p ef
18066 25302 m  18066 23877 l  18091 23877 l  18116 23877 l  18116 25302 l 
18091 25302 l  18066 25302 l  p ef
18091 23421 m  17901 23991 l  18281 23991 l  18091 23421 l  p ef
0.800 0.800 1.000 c 15800 23367 m  12600 23367 l  12600 19604 l  18999 19604 l 
18999 23367 l  15800 23367 l  p ef
0.003 0.003 0.003 c 15800 23367 m  12600 23367 l  12600 19604 l  18999 19604 l 
18999 23367 l  15800 23367 l  pc
pum
14790 21780 t
0.230 0.226 0.210 c 65 0 m  65 -606 l  147 -606 l  465 -130 l  465 -606 l 
542 -606 l  542 0 l  460 0 l  141 -476 l  141 0 l  65 0 l  p ef
638 -220 m  638 -301 661 -361 706 -400 ct 744 -433 790 -449 844 -449 ct 904 -449 954 -429 992 -390 ct 
1030 -350 1050 -295 1050 -226 ct 1050 -169 1041 -125 1024 -92 ct 1007 -60 983 -35 950 -17 ct 
918 1 882 10 844 10 ct 783 10 733 -10 695 -49 ct 657 -89 638 -145 638 -220 ct p
715 -220 m  715 -163 727 -121 751 -93 ct 776 -65 807 -51 844 -51 ct 881 -51 912 -65 936 -93 ct 
961 -121 973 -164 973 -222 ct 973 -276 961 -317 936 -345 ct 911 -373 881 -387 844 -387 ct 
807 -387 776 -373 751 -346 ct 727 -318 715 -276 715 -220 ct p ef
1421 0 m  1421 -55 l  1393 -12 1352 10 1298 10 ct 1263 10 1231 0 1201 -19 ct 
1172 -38 1149 -65 1133 -100 ct 1117 -134 1109 -174 1109 -219 ct 1109 -263 1116 -303 1131 -338 ct 
1145 -374 1167 -401 1197 -420 ct 1226 -439 1259 -449 1295 -449 ct 1321 -449 1345 -443 1365 -432 ct 
1386 -421 1403 -407 1416 -389 ct 1416 -606 l  1490 -606 l  1490 0 l  1421 0 l 
p
1185 -219 m  1185 -163 1197 -121 1221 -93 ct 1245 -65 1273 -51 1305 -51 ct 1338 -51 1365 -64 1388 -91 ct 
1411 -118 1422 -158 1422 -213 ct 1422 -273 1410 -317 1387 -345 ct 1364 -373 1336 -387 1302 -387 ct 
1269 -387 1241 -374 1219 -347 ct 1197 -320 1185 -277 1185 -219 ct p ef
1906 -142 m  1982 -132 l  1970 -87 1948 -52 1915 -27 ct 1882 -2 1840 10 1789 10 ct 
1725 10 1674 -10 1636 -49 ct 1599 -89 1580 -144 1580 -216 ct 1580 -290 1599 -347 1637 -388 ct 
1675 -429 1725 -449 1785 -449 ct 1844 -449 1892 -429 1929 -389 ct 1966 -349 1985 -293 1985 -221 ct 
1985 -216 1985 -210 1985 -201 ct 1657 -201 l  1660 -152 1673 -115 1698 -90 ct 
1722 -64 1753 -51 1790 -51 ct 1817 -51 1840 -58 1860 -73 ct 1879 -87 1894 -110 1906 -142 ct 
p
1661 -262 m  1906 -262 l  1903 -299 1894 -326 1878 -345 ct 1855 -374 1824 -388 1786 -388 ct 
1752 -388 1723 -376 1700 -354 ct 1676 -331 1664 -300 1661 -262 ct p ef
pom
0.003 0.003 0.003 c 13514 19579 m  13514 18154 l  13539 18154 l  13564 18154 l 
13564 19579 l  13539 19579 l  13514 19579 l  p ef
13539 17698 m  13349 18268 l  13729 18268 l  13539 17698 l  p ef
14478 17698 m  14478 19123 l  14453 19123 l  14428 19123 l  14428 17698 l 
14453 17698 l  14478 17698 l  p ef
14453 19579 m  14643 19009 l  14263 19009 l  14453 19579 l  p ef
18085 19579 m  18085 18154 l  18110 18154 l  18135 18154 l  18135 19579 l 
18110 19579 l  18085 19579 l  p ef
18110 17698 m  17920 18268 l  18300 18268 l  18110 17698 l  p ef
1.000 1.000 0.601 c 15800 17635 m  12600 17635 l  12600 13872 l  18999 13872 l 
18999 17635 l  15800 17635 l  p ef
0.003 0.003 0.003 c 15804 17660 m  15800 17660 l  15800 17635 l  15800 17610 l 
15804 17610 l  15804 17635 l  15804 17660 l  p ef
15800 17660 m  15292 17660 l  15292 17635 l  15292 17610 l  15800 17610 l 
15800 17635 l  15800 17660 l  p ef
14784 17660 m  14276 17660 l  14276 17635 l  14276 17610 l  14784 17610 l 
14784 17635 l  14784 17660 l  p ef
13768 17660 m  13260 17660 l  13260 17635 l  13260 17610 l  13768 17610 l 
13768 17635 l  13768 17660 l  p ef
12752 17660 m  12600 17660 l  12600 17635 l  12600 17610 l  12752 17610 l 
12752 17635 l  12752 17660 l  p ef
12600 17660 m  12586 17660 12575 17649 12575 17635 ct 12600 17635 l  12600 17660 l 
p ef
12575 17635 m  12575 17279 l  12600 17279 l  12625 17279 l  12625 17635 l 
12600 17635 l  12575 17635 l  p ef
12575 16771 m  12575 16263 l  12600 16263 l  12625 16263 l  12625 16771 l 
12600 16771 l  12575 16771 l  p ef
12575 15755 m  12575 15247 l  12600 15247 l  12625 15247 l  12625 15755 l 
12600 15755 l  12575 15755 l  p ef
12575 14739 m  12575 14231 l  12600 14231 l  12625 14231 l  12625 14739 l 
12600 14739 l  12575 14739 l  p ef
12750 13847 m  13258 13847 l  13258 13872 l  13258 13897 l  12750 13897 l 
12750 13872 l  12750 13847 l  p ef
13766 13847 m  14274 13847 l  14274 13872 l  14274 13897 l  13766 13897 l 
13766 13872 l  13766 13847 l  p ef
14782 13847 m  15290 13847 l  15290 13872 l  15290 13897 l  14782 13897 l 
14782 13872 l  14782 13847 l  p ef
15798 13847 m  16306 13847 l  16306 13872 l  16306 13897 l  15798 13897 l 
15798 13872 l  15798 13847 l  p ef
16814 13847 m  17322 13847 l  17322 13872 l  17322 13897 l  16814 13897 l 
16814 13872 l  16814 13847 l  p ef
17830 13847 m  18338 13847 l  18338 13872 l  18338 13897 l  17830 13897 l 
17830 13872 l  17830 13847 l  p ef
18846 13847 m  18999 13847 l  18999 13872 l  18999 13897 l  18846 13897 l 
18846 13872 l  18846 13847 l  p ef
18999 13847 m  19013 13847 19024 13858 19024 13872 ct 18999 13872 l  18999 13847 l 
p ef
19024 13872 m  19024 14227 l  18999 14227 l  18974 14227 l  18974 13872 l 
18999 13872 l  19024 13872 l  p ef
19024 14735 m  19024 15243 l  18999 15243 l  18974 15243 l  18974 14735 l 
18999 14735 l  19024 14735 l  p ef
19024 15751 m  19024 16259 l  18999 16259 l  18974 16259 l  18974 15751 l 
18999 15751 l  19024 15751 l  p ef
19024 16767 m  19024 17275 l  18999 17275 l  18974 17275 l  18974 16767 l 
18999 16767 l  19024 16767 l  p ef
18852 17660 m  18344 17660 l  18344 17635 l  18344 17610 l  18852 17610 l 
18852 17635 l  18852 17660 l  p ef
17836 17660 m  17328 17660 l  17328 17635 l  17328 17610 l  17836 17610 l 
17836 17635 l  17836 17660 l  p ef
16820 17660 m  16312 17660 l  16312 17635 l  16312 17610 l  16820 17610 l 
16820 17635 l  16820 17660 l  p ef
pum
13048 16048 t
0.230 0.226 0.210 c 498 -213 m  578 -193 l  561 -127 531 -76 487 -42 ct 444 -7 390 10 327 10 ct 
262 10 209 -3 168 -30 ct 127 -56 96 -95 74 -145 ct 53 -196 42 -250 42 -308 ct 42 -371 54 -426 78 -473 ct 
103 -520 137 -556 181 -580 ct 226 -604 275 -617 328 -617 ct 389 -617 440 -601 481 -570 ct 
523 -539 552 -496 568 -440 ct 489 -422 l  475 -466 454 -498 428 -518 ct 401 -538 367 -548 327 -548 ct 
280 -548 241 -537 210 -515 ct 179 -492 157 -462 144 -425 ct 131 -387 125 -348 125 -308 ct 
125 -257 132 -212 147 -173 ct 162 -135 186 -106 218 -87 ct 249 -68 284 -59 321 -59 ct 
365 -59 404 -72 435 -97 ct 466 -123 487 -162 498 -213 ct p ef
638 -220 m  638 -301 661 -361 706 -400 ct 744 -433 790 -449 844 -449 ct 904 -449 954 -429 992 -390 ct 
1030 -350 1050 -295 1050 -226 ct 1050 -169 1041 -125 1024 -92 ct 1007 -60 983 -35 950 -17 ct 
918 1 882 10 844 10 ct 783 10 733 -10 695 -49 ct 657 -89 638 -145 638 -220 ct p
715 -220 m  715 -163 727 -121 751 -93 ct 776 -65 807 -51 844 -51 ct 881 -51 912 -65 936 -93 ct 
961 -121 973 -164 973 -222 ct 973 -276 961 -317 936 -345 ct 911 -373 881 -387 844 -387 ct 
807 -387 776 -373 751 -346 ct 727 -318 715 -276 715 -220 ct p ef
1136 0 m  1136 -439 l  1202 -439 l  1202 -377 l  1216 -399 1235 -416 1257 -429 ct 
1280 -442 1306 -449 1336 -449 ct 1368 -449 1395 -442 1416 -429 ct 1436 -415 1451 -396 1460 -372 ct 
1494 -423 1540 -449 1595 -449 ct 1639 -449 1672 -437 1696 -413 ct 1719 -389 1731 -352 1731 -301 ct 
1731 0 l  1657 0 l  1657 -277 l  1657 -306 1655 -328 1650 -341 ct 1645 -354 1636 -365 1623 -373 ct 
1611 -381 1596 -385 1579 -385 ct 1548 -385 1522 -374 1502 -354 ct 1481 -333 1471 -300 1471 -255 ct 
1471 0 l  1397 0 l  1397 -285 l  1397 -318 1391 -343 1379 -360 ct 1366 -376 1347 -385 1319 -385 ct 
1298 -385 1279 -379 1261 -368 ct 1243 -357 1230 -341 1222 -320 ct 1214 -298 1210 -268 1210 -228 ct 
1210 0 l  1136 0 l  p ef
1842 0 m  1842 -439 l  1908 -439 l  1908 -377 l  1922 -399 1941 -416 1963 -429 ct 
1986 -442 2012 -449 2042 -449 ct 2074 -449 2101 -442 2122 -429 ct 2142 -415 2157 -396 2166 -372 ct 
2200 -423 2246 -449 2301 -449 ct 2345 -449 2378 -437 2402 -413 ct 2425 -389 2437 -352 2437 -301 ct 
2437 0 l  2363 0 l  2363 -277 l  2363 -306 2361 -328 2356 -341 ct 2351 -354 2342 -365 2329 -373 ct 
2317 -381 2302 -385 2285 -385 ct 2254 -385 2228 -374 2208 -354 ct 2187 -333 2177 -300 2177 -255 ct 
2177 0 l  2103 0 l  2103 -285 l  2103 -318 2097 -343 2085 -360 ct 2072 -376 2053 -385 2025 -385 ct 
2004 -385 1985 -379 1967 -368 ct 1949 -357 1936 -341 1928 -320 ct 1920 -298 1916 -268 1916 -228 ct 
1916 0 l  1842 0 l  p ef
2837 0 m  2837 -64 l  2802 -15 2756 10 2697 10 ct 2671 10 2647 5 2625 -5 ct 
2602 -15 2586 -27 2575 -42 ct 2564 -57 2556 -76 2552 -98 ct 2549 -112 2547 -135 2547 -167 ct 
2547 -439 l  2622 -439 l  2622 -195 l  2622 -157 2623 -130 2626 -117 ct 2631 -97 2641 -82 2656 -71 ct 
2671 -60 2690 -54 2712 -54 ct 2735 -54 2755 -60 2775 -71 ct 2795 -83 2808 -98 2817 -118 ct 
2825 -138 2829 -166 2829 -204 ct 2829 -439 l  2903 -439 l  2903 0 l  2837 0 l 
p ef
3019 0 m  3019 -439 l  3086 -439 l  3086 -377 l  3118 -425 3165 -449 3226 -449 ct 
3252 -449 3276 -444 3299 -435 ct 3321 -425 3337 -413 3348 -397 ct 3359 -382 3367 -364 3372 -342 ct 
3374 -329 3376 -304 3376 -270 ct 3376 0 l  3301 0 l  3301 -267 l  3301 -297 3298 -320 3293 -335 ct 
3287 -350 3277 -362 3262 -371 ct 3247 -380 3230 -385 3210 -385 ct 3178 -385 3151 -374 3128 -354 ct 
3105 -334 3093 -296 3093 -240 ct 3093 0 l  3019 0 l  p ef
3489 -520 m  3489 -606 l  3564 -606 l  3564 -520 l  3489 -520 l  p
3489 0 m  3489 -439 l  3564 -439 l  3564 0 l  3489 0 l  p ef
3962 -161 m  4036 -151 l  4028 -101 4007 -61 3974 -33 ct 3941 -4 3901 10 3853 10 ct 
3793 10 3744 -10 3708 -49 ct 3671 -88 3653 -145 3653 -218 ct 3653 -265 3661 -307 3677 -342 ct 
3692 -378 3716 -405 3748 -422 ct 3781 -440 3815 -449 3853 -449 ct 3901 -449 3940 -437 3970 -413 ct 
4001 -389 4020 -354 4029 -310 ct 3956 -299 l  3949 -328 3937 -351 3920 -365 ct 
3902 -380 3881 -388 3856 -388 ct 3819 -388 3788 -374 3765 -347 ct 3741 -321 3730 -278 3730 -220 ct 
3730 -161 3741 -118 3764 -91 ct 3786 -65 3816 -51 3852 -51 ct 3881 -51 3906 -60 3925 -78 ct 
3945 -96 3957 -124 3962 -161 ct p ef
4385 -54 m  4358 -31 4331 -14 4306 -4 ct 4280 5 4253 10 4224 10 ct 4175 10 4138 -2 4112 -25 ct 
4087 -49 4074 -79 4074 -116 ct 4074 -137 4079 -157 4088 -175 ct 4098 -192 4111 -207 4127 -217 ct 
4143 -228 4160 -236 4180 -242 ct 4195 -246 4217 -249 4246 -253 ct 4307 -260 4351 -269 4379 -279 ct 
4380 -289 4380 -295 4380 -298 ct 4380 -328 4373 -350 4359 -362 ct 4340 -379 4311 -387 4274 -387 ct 
4239 -387 4213 -381 4196 -369 ct 4180 -357 4167 -335 4159 -304 ct 4086 -314 l 
4093 -345 4104 -370 4119 -389 ct 4134 -408 4156 -423 4185 -434 ct 4214 -444 4247 -449 4285 -449 ct 
4322 -449 4353 -445 4376 -436 ct 4399 -427 4417 -416 4428 -402 ct 4439 -389 4446 -372 4451 -352 ct 
4453 -339 4455 -316 4455 -283 ct 4455 -184 l  4455 -115 4456 -71 4459 -53 ct 
4462 -34 4469 -17 4478 0 ct 4400 0 l  4393 -15 4388 -33 4385 -54 ct p
4379 -220 m  4352 -209 4312 -200 4258 -192 ct 4227 -188 4205 -183 4193 -177 ct 
4180 -172 4170 -164 4163 -153 ct 4156 -143 4153 -131 4153 -118 ct 4153 -98 4161 -81 4176 -68 ct 
4191 -55 4213 -48 4242 -48 ct 4270 -48 4296 -55 4318 -67 ct 4340 -80 4357 -97 4367 -119 ct 
4375 -135 4379 -160 4379 -193 ct 4379 -220 l  p ef
4731 -66 m  4742 -1 l  4721 4 4702 6 4686 6 ct 4659 6 4638 2 4623 -7 ct 4608 -15 4598 -27 4592 -41 ct 
4586 -54 4582 -84 4582 -128 ct 4582 -381 l  4528 -381 l  4528 -439 l  4582 -439 l 
4582 -548 l  4657 -592 l  4657 -439 l  4731 -439 l  4731 -381 l  4657 -381 l 
4657 -124 l  4657 -103 4658 -89 4660 -83 ct 4663 -77 4667 -72 4673 -69 ct 4679 -65 4688 -63 4699 -63 ct 
4707 -63 4718 -64 4731 -66 ct p ef
4778 -220 m  4778 -301 4801 -361 4846 -400 ct 4884 -433 4930 -449 4984 -449 ct 
5044 -449 5094 -429 5132 -390 ct 5170 -350 5190 -295 5190 -226 ct 5190 -169 5181 -125 5164 -92 ct 
5147 -60 5123 -35 5090 -17 ct 5058 1 5022 10 4984 10 ct 4923 10 4873 -10 4835 -49 ct 
4797 -89 4778 -145 4778 -220 ct p
4855 -220 m  4855 -163 4867 -121 4891 -93 ct 4916 -65 4947 -51 4984 -51 ct 5021 -51 5052 -65 5076 -93 ct 
5101 -121 5113 -164 5113 -222 ct 5113 -276 5101 -317 5076 -345 ct 5051 -373 5021 -387 4984 -387 ct 
4947 -387 4916 -373 4891 -346 ct 4867 -318 4855 -276 4855 -220 ct p ef
5275 0 m  5275 -439 l  5342 -439 l  5342 -373 l  5359 -404 5375 -424 5389 -434 ct 
5404 -444 5420 -449 5437 -449 ct 5462 -449 5488 -441 5514 -425 ct 5488 -356 l 
5470 -367 5452 -372 5433 -372 ct 5417 -372 5403 -367 5390 -357 ct 5377 -348 5367 -334 5362 -317 ct 
5354 -290 5349 -261 5349 -230 ct 5349 0 l  5275 0 l  p ef
pom
0.003 0.003 0.003 c 13514 13847 m  13514 12422 l  13539 12422 l  13564 12422 l 
13564 13847 l  13539 13847 l  13514 13847 l  p ef
13539 11966 m  13349 12536 l  13729 12536 l  13539 11966 l  p ef
14478 11966 m  14478 13391 l  14453 13391 l  14428 13391 l  14428 11966 l 
14453 11966 l  14478 11966 l  p ef
14453 13847 m  14643 13277 l  14263 13277 l  14453 13847 l  p ef
18085 13847 m  18085 12422 l  18110 12422 l  18135 12422 l  18135 13847 l 
18110 13847 l  18085 13847 l  p ef
18110 11966 m  17920 12536 l  18300 12536 l  18110 11966 l  p ef
0.800 0.800 1.000 c 10800 28988 m  2600 28988 l  2600 25225 l  18999 25225 l 
18999 28988 l  10800 28988 l  p ef
0.003 0.003 0.003 c 10800 28988 m  2600 28988 l  2600 25225 l  18999 25225 l 
18999 28988 l  10800 28988 l  pc
pum
9227 27401 t
0.230 0.226 0.210 c 498 -213 m  578 -193 l  561 -127 531 -76 487 -42 ct 444 -7 390 10 327 10 ct 
262 10 209 -3 168 -30 ct 127 -56 96 -95 74 -145 ct 53 -196 42 -250 42 -308 ct 42 -371 54 -426 78 -473 ct 
103 -520 137 -556 181 -580 ct 226 -604 275 -617 328 -617 ct 389 -617 440 -601 481 -570 ct 
523 -539 552 -496 568 -440 ct 489 -422 l  475 -466 454 -498 428 -518 ct 401 -538 367 -548 327 -548 ct 
280 -548 241 -537 210 -515 ct 179 -492 157 -462 144 -425 ct 131 -387 125 -348 125 -308 ct 
125 -257 132 -212 147 -173 ct 162 -135 186 -106 218 -87 ct 249 -68 284 -59 321 -59 ct 
365 -59 404 -72 435 -97 ct 466 -123 487 -162 498 -213 ct p ef
666 0 m  666 -606 l  740 -606 l  740 -389 l  775 -429 819 -449 872 -449 ct 
904 -449 933 -443 957 -430 ct 981 -417 998 -399 1008 -377 ct 1018 -354 1024 -321 1024 -278 ct 
1024 0 l  949 0 l  949 -278 l  949 -315 941 -343 925 -359 ct 909 -376 886 -385 856 -385 ct 
834 -385 814 -379 794 -368 ct 775 -356 761 -341 753 -321 ct 744 -302 740 -275 740 -240 ct 
740 0 l  666 0 l  p ef
1422 -54 m  1395 -31 1368 -14 1343 -4 ct 1317 5 1290 10 1261 10 ct 1212 10 1175 -2 1149 -25 ct 
1124 -49 1111 -79 1111 -116 ct 1111 -137 1116 -157 1125 -175 ct 1135 -192 1148 -207 1164 -217 ct 
1180 -228 1197 -236 1217 -242 ct 1232 -246 1254 -249 1283 -253 ct 1344 -260 1388 -269 1416 -279 ct 
1417 -289 1417 -295 1417 -298 ct 1417 -328 1410 -350 1396 -362 ct 1377 -379 1348 -387 1311 -387 ct 
1276 -387 1250 -381 1233 -369 ct 1217 -357 1204 -335 1196 -304 ct 1123 -314 l 
1130 -345 1141 -370 1156 -389 ct 1171 -408 1193 -423 1222 -434 ct 1251 -444 1284 -449 1322 -449 ct 
1359 -449 1390 -445 1413 -436 ct 1436 -427 1454 -416 1465 -402 ct 1476 -389 1483 -372 1488 -352 ct 
1490 -339 1492 -316 1492 -283 ct 1492 -184 l  1492 -115 1493 -71 1496 -53 ct 
1499 -34 1506 -17 1515 0 ct 1437 0 l  1430 -15 1425 -33 1422 -54 ct p
1416 -220 m  1389 -209 1349 -200 1295 -192 ct 1264 -188 1242 -183 1230 -177 ct 
1217 -172 1207 -164 1200 -153 ct 1193 -143 1190 -131 1190 -118 ct 1190 -98 1198 -81 1213 -68 ct 
1228 -55 1250 -48 1279 -48 ct 1307 -48 1333 -55 1355 -67 ct 1377 -80 1394 -97 1404 -119 ct 
1412 -135 1416 -160 1416 -193 ct 1416 -220 l  p ef
1605 0 m  1605 -439 l  1672 -439 l  1672 -377 l  1704 -425 1751 -449 1812 -449 ct 
1838 -449 1862 -444 1885 -435 ct 1907 -425 1923 -413 1934 -397 ct 1945 -382 1953 -364 1958 -342 ct 
1960 -329 1962 -304 1962 -270 ct 1962 0 l  1887 0 l  1887 -267 l  1887 -297 1884 -320 1879 -335 ct 
1873 -350 1863 -362 1848 -371 ct 1833 -380 1816 -385 1796 -385 ct 1764 -385 1737 -374 1714 -354 ct 
1691 -334 1679 -296 1679 -240 ct 1679 0 l  1605 0 l  p ef
2075 0 m  2075 -439 l  2142 -439 l  2142 -377 l  2174 -425 2221 -449 2282 -449 ct 
2308 -449 2332 -444 2355 -435 ct 2377 -425 2393 -413 2404 -397 ct 2415 -382 2423 -364 2428 -342 ct 
2430 -329 2432 -304 2432 -270 ct 2432 0 l  2357 0 l  2357 -267 l  2357 -297 2354 -320 2349 -335 ct 
2343 -350 2333 -362 2318 -371 ct 2303 -380 2286 -385 2266 -385 ct 2234 -385 2207 -374 2184 -354 ct 
2161 -334 2149 -296 2149 -240 ct 2149 0 l  2075 0 l  p ef
2846 -142 m  2922 -132 l  2910 -87 2888 -52 2855 -27 ct 2822 -2 2780 10 2729 10 ct 
2665 10 2614 -10 2576 -49 ct 2539 -89 2520 -144 2520 -216 ct 2520 -290 2539 -347 2577 -388 ct 
2615 -429 2665 -449 2725 -449 ct 2784 -449 2832 -429 2869 -389 ct 2906 -349 2925 -293 2925 -221 ct 
2925 -216 2925 -210 2925 -201 ct 2597 -201 l  2600 -152 2613 -115 2638 -90 ct 
2662 -64 2693 -51 2730 -51 ct 2757 -51 2780 -58 2800 -73 ct 2819 -87 2834 -110 2846 -142 ct 
p
2601 -262 m  2846 -262 l  2843 -299 2834 -326 2818 -345 ct 2795 -374 2764 -388 2726 -388 ct 
2692 -388 2663 -376 2640 -354 ct 2616 -331 2604 -300 2601 -262 ct p ef
3013 0 m  3013 -606 l  3088 -606 l  3088 0 l  3013 0 l  p ef
pom
gr
gs
0 0 m 21999 0 l 21999 35499 l 0 35499 l 0 0 l eoclip newpath
gr
gr
0 35500 t 
pom
count op_count sub {pop} repeat countdictstack dict_count sub {end} repeat b4_inc_state restore
%%PageTrailer
%%Trailer
%%EOF
