%!PS-Adobe-3.0 EPSF-3.0 
%%BoundingBox: 0 0 901 850
%%Pages: 0
%%Creator: Sun Microsystems, Inc.
%%Title: none
%%CreationDate: none
%%LanguageLevel: 2
%%EndComments
%%BeginProlog
%%BeginResource: procset SDRes-Prolog 1.0 0
/b4_inc_state save def
/dict_count countdictstack def
/op_count count 1 sub def
userdict begin
0 setgray 0 setlinecap 1 setlinewidth 0 setlinejoin 10 setmiterlimit[] 0 setdash newpath
/languagelevel where {pop languagelevel 1 ne {false setstrokeadjust false setoverprint} if} if
/bdef {bind def} bind def
/c {setrgbcolor} bdef
/l {neg lineto} bdef
/rl {neg rlineto} bdef
/lc {setlinecap} bdef
/lj {setlinejoin} bdef
/lw {setlinewidth} bdef
/ml {setmiterlimit} bdef
/ld {setdash} bdef
/m {neg moveto} bdef
/ct {6 2 roll neg 6 2 roll neg 6 2 roll neg curveto} bdef
/r {rotate} bdef
/t {neg translate} bdef
/s {scale} bdef
/sw {show} bdef
/gs {gsave} bdef
/gr {grestore} bdef
/f {findfont dup length dict begin
{1 index /FID ne {def} {pop pop} ifelse} forall /Encoding ISOLatin1Encoding def
currentdict end /NFont exch definefont pop /NFont findfont} bdef
/p {closepath} bdef
/sf {scalefont setfont} bdef
/ef {eofill}bdef
/pc {closepath stroke}bdef
/ps {stroke}bdef
/pum {matrix currentmatrix}bdef
/pom {setmatrix}bdef
/bs {/aString exch def /nXOfs exch def /nWidth exch def currentpoint nXOfs 0 rmoveto pum nWidth aString stringwidth pop div 1 scale aString show pom moveto} bdef
%%EndResource
%%EndProlog
%%BeginSetup
%%EndSetup
%%Page: 1 1
%%BeginPageSetup
%%EndPageSetup
pum
0.02833 0.02833 s 
0 -30000 t
/tm matrix currentmatrix def
gs
0 0 m 31799 0 l 31799 29999 l 0 29999 l 0 0 l eoclip newpath
gs
0 0 m 31799 0 l 31799 29999 l 0 29999 l 0 0 l eoclip newpath
0.902 0.902 0.902 c 15917 316 m  15917 316 l  18201 316 20105 462 20105 638 ct 
20105 2570 l  20105 2745 18201 2892 15917 2892 ct 13632 2892 11729 2745 11729 2570 ct 
11729 638 l  11729 462 13632 316 15917 316 ct p
11729 316 m  11729 316 l  p
20105 2892 m  20105 2892 l  p ef
10 lw 1 lj 0.003 0.003 0.003 c 15917 316 m  13632 316 11729 462 11729 638 ct 
11729 2570 l  11729 2745 13632 2892 15917 2892 ct 18201 2892 20105 2745 20105 2570 ct 
20105 638 l  20105 462 18201 316 15917 316 ct 15917 316 l  pc
11729 316 m  11729 316 l  pc
20105 2892 m  20105 2892 l  pc
0.941 0.941 0.941 c 15917 316 m  15917 316 l  18201 316 20105 462 20105 638 ct 
20105 813 18201 960 15917 960 ct 13632 960 11729 813 11729 638 ct 11729 462 13632 316 15917 316 ct 
p
11729 316 m  11729 316 l  p
20105 2892 m  20105 2892 l  p ef
0.003 0.003 0.003 c 15917 316 m  13632 316 11729 462 11729 638 ct 11729 813 13632 960 15917 960 ct 
18201 960 20105 813 20105 638 ct 20105 462 18201 316 15917 316 ct 15917 316 l 
pc
11729 316 m  11729 316 l  pc
20105 2892 m  20105 2892 l  pc
pum
12573 2034 t
0.230 0.226 0.210 c 35 -179 m  104 -185 l  107 -157 115 -135 127 -117 ct 139 -99 158 -85 183 -74 ct 
208 -63 237 -57 268 -57 ct 296 -57 321 -61 343 -70 ct 364 -78 380 -89 390 -104 ct 
401 -118 406 -134 406 -151 ct 406 -169 401 -184 391 -197 ct 381 -210 364 -221 341 -230 ct 
326 -236 293 -245 242 -257 ct 191 -269 155 -281 135 -292 ct 108 -306 89 -323 76 -344 ct 
63 -364 56 -387 56 -413 ct 56 -441 64 -467 80 -491 ct 96 -516 119 -534 150 -547 ct 
180 -560 214 -566 252 -566 ct 293 -566 329 -559 361 -546 ct 392 -533 416 -513 433 -487 ct 
450 -462 459 -432 460 -400 ct 390 -395 l  386 -430 373 -456 351 -474 ct 330 -492 297 -501 255 -501 ct 
210 -501 178 -493 157 -477 ct 137 -460 127 -441 127 -418 ct 127 -398 134 -381 149 -368 ct 
163 -355 200 -342 259 -329 ct 319 -315 360 -303 382 -293 ct 415 -278 439 -259 454 -237 ct 
469 -214 477 -187 477 -158 ct 477 -128 469 -100 452 -74 ct 435 -48 410 -27 379 -13 ct 
347 2 311 9 272 9 ct 221 9 179 2 145 -13 ct 111 -28 85 -50 65 -79 ct 46 -109 36 -142 35 -179 ct 
p ef
564 155 m  557 91 l  571 95 584 97 596 97 ct 611 97 623 94 632 89 ct 641 84 649 77 654 68 ct 
659 61 666 44 675 17 ct 676 13 678 8 681 0 ct 529 -404 l  602 -404 l  686 -170 l 
697 -141 706 -109 715 -77 ct 723 -108 732 -139 743 -169 ct 829 -404 l  897 -404 l 
744 6 l  728 51 715 81 706 98 ct 694 120 680 137 664 147 ct 648 158 630 163 608 163 ct 
595 163 580 160 564 155 ct p ef
930 -120 m  997 -131 l  1001 -104 1012 -83 1029 -69 ct 1046 -54 1070 -47 1102 -47 ct 
1133 -47 1156 -54 1171 -66 ct 1186 -79 1194 -94 1194 -111 ct 1194 -127 1187 -139 1174 -148 ct 
1165 -154 1141 -161 1104 -171 ct 1054 -183 1019 -194 1000 -204 ct 981 -213 966 -226 956 -242 ct 
946 -258 941 -276 941 -296 ct 941 -314 945 -331 954 -346 ct 962 -361 973 -374 987 -384 ct 
998 -392 1012 -399 1030 -404 ct 1049 -409 1068 -412 1089 -412 ct 1121 -412 1149 -408 1173 -398 ct 
1196 -389 1214 -377 1225 -362 ct 1237 -346 1245 -325 1249 -299 ct 1182 -290 l 
1179 -311 1170 -327 1156 -339 ct 1141 -350 1121 -356 1094 -356 ct 1063 -356 1041 -351 1027 -340 ct 
1014 -330 1007 -318 1007 -304 ct 1007 -295 1010 -287 1016 -280 ct 1021 -273 1030 -267 1042 -262 ct 
1048 -259 1069 -254 1102 -244 ct 1150 -232 1184 -221 1203 -213 ct 1222 -205 1237 -193 1248 -177 ct 
1259 -161 1264 -142 1264 -118 ct 1264 -96 1257 -74 1244 -54 ct 1231 -34 1212 -19 1187 -8 ct 
1162 3 1133 9 1102 9 ct 1050 9 1010 -2 982 -24 ct 955 -45 937 -78 930 -120 ct p ef
1495 -61 m  1505 -1 l  1486 3 1469 5 1453 5 ct 1429 5 1409 1 1396 -7 ct 1382 -15 1373 -25 1367 -38 ct 
1361 -50 1359 -77 1359 -118 ct 1359 -350 l  1309 -350 l  1309 -403 l  1359 -403 l 
1359 -503 l  1426 -544 l  1426 -403 l  1495 -403 l  1495 -350 l  1426 -350 l 
1426 -114 l  1426 -95 1428 -83 1430 -77 ct 1432 -71 1436 -67 1442 -64 ct 1447 -60 1455 -59 1465 -59 ct 
1473 -59 1483 -60 1495 -61 ct p ef
1838 -130 m  1908 -121 l  1897 -80 1876 -48 1846 -25 ct 1816 -2 1778 9 1731 9 ct 
1672 9 1626 -9 1591 -45 ct 1557 -82 1539 -133 1539 -198 ct 1539 -266 1557 -319 1592 -356 ct 
1627 -393 1672 -412 1727 -412 ct 1781 -412 1825 -394 1859 -357 ct 1893 -320 1910 -269 1910 -202 ct 
1910 -198 1910 -192 1910 -184 ct 1610 -184 l  1612 -140 1625 -106 1647 -82 ct 
1670 -59 1698 -47 1732 -47 ct 1757 -47 1778 -54 1796 -67 ct 1813 -80 1827 -101 1838 -130 ct 
p
1614 -240 m  1838 -240 l  1835 -274 1827 -300 1813 -317 ct 1791 -343 1763 -356 1728 -356 ct 
1697 -356 1670 -345 1649 -324 ct 1628 -303 1616 -275 1614 -240 ct p ef
1994 0 m  1994 -403 l  2055 -403 l  2055 -346 l  2068 -366 2085 -382 2106 -394 ct 
2127 -406 2150 -412 2177 -412 ct 2207 -412 2231 -406 2250 -393 ct 2270 -381 2283 -364 2291 -341 ct 
2323 -388 2364 -412 2415 -412 ct 2455 -412 2486 -401 2507 -379 ct 2529 -357 2539 -323 2539 -277 ct 
2539 0 l  2472 0 l  2472 -254 l  2472 -281 2469 -301 2465 -313 ct 2461 -325 2453 -335 2441 -342 ct 
2429 -349 2416 -353 2400 -353 ct 2372 -353 2348 -343 2329 -325 ct 2311 -306 2301 -276 2301 -234 ct 
2301 0 l  2233 0 l  2233 -262 l  2233 -292 2228 -315 2217 -330 ct 2205 -345 2187 -353 2162 -353 ct 
2143 -353 2125 -348 2109 -338 ct 2092 -328 2081 -313 2073 -293 ct 2066 -274 2062 -246 2062 -209 ct 
2062 0 l  1994 0 l  p ef
2862 0 m  2862 -556 l  3053 -556 l  3096 -556 3129 -553 3152 -548 ct 3184 -541 3211 -527 3234 -508 ct 
3263 -483 3285 -452 3299 -413 ct 3314 -375 3321 -331 3321 -281 ct 3321 -239 3316 -201 3306 -169 ct 
3296 -136 3284 -109 3268 -88 ct 3253 -66 3236 -50 3218 -37 ct 3200 -25 3177 -16 3152 -9 ct 
3126 -3 3096 0 3062 0 ct 2862 0 l  p
2935 -66 m  3054 -66 l  3091 -66 3119 -69 3140 -76 ct 3161 -83 3178 -92 3190 -105 ct 
3207 -122 3221 -146 3231 -175 ct 3240 -204 3245 -240 3245 -282 ct 3245 -340 3236 -385 3217 -416 ct 
3198 -447 3174 -468 3147 -479 ct 3127 -487 3096 -490 3052 -490 ct 2935 -490 l 
2935 -66 l  p ef
3688 -130 m  3758 -121 l  3747 -80 3726 -48 3696 -25 ct 3666 -2 3628 9 3581 9 ct 
3522 9 3476 -9 3441 -45 ct 3407 -82 3389 -133 3389 -198 ct 3389 -266 3407 -319 3442 -356 ct 
3477 -393 3522 -412 3577 -412 ct 3631 -412 3675 -394 3709 -357 ct 3743 -320 3760 -269 3760 -202 ct 
3760 -198 3760 -192 3760 -184 ct 3460 -184 l  3462 -140 3475 -106 3497 -82 ct 
3520 -59 3548 -47 3582 -47 ct 3607 -47 3628 -54 3646 -67 ct 3663 -80 3677 -101 3688 -130 ct 
p
3464 -240 m  3688 -240 l  3685 -274 3677 -300 3663 -317 ct 3641 -343 3613 -356 3578 -356 ct 
3547 -356 3520 -345 3499 -324 ct 3478 -303 3466 -275 3464 -240 ct p ef
3817 -120 m  3884 -131 l  3888 -104 3899 -83 3916 -69 ct 3933 -54 3957 -47 3989 -47 ct 
4020 -47 4043 -54 4058 -66 ct 4073 -79 4081 -94 4081 -111 ct 4081 -127 4074 -139 4061 -148 ct 
4052 -154 4028 -161 3991 -171 ct 3941 -183 3906 -194 3887 -204 ct 3868 -213 3853 -226 3843 -242 ct 
3833 -258 3828 -276 3828 -296 ct 3828 -314 3832 -331 3841 -346 ct 3849 -361 3860 -374 3874 -384 ct 
3885 -392 3899 -399 3917 -404 ct 3936 -409 3955 -412 3976 -412 ct 4008 -412 4036 -408 4060 -398 ct 
4083 -389 4101 -377 4112 -362 ct 4124 -346 4132 -325 4136 -299 ct 4069 -290 l 
4066 -311 4057 -327 4043 -339 ct 4028 -350 4008 -356 3981 -356 ct 3950 -356 3928 -351 3914 -340 ct 
3901 -330 3894 -318 3894 -304 ct 3894 -295 3897 -287 3903 -280 ct 3908 -273 3917 -267 3929 -262 ct 
3935 -259 3956 -254 3989 -244 ct 4037 -232 4071 -221 4090 -213 ct 4109 -205 4124 -193 4135 -177 ct 
4146 -161 4151 -142 4151 -118 ct 4151 -96 4144 -74 4131 -54 ct 4118 -34 4099 -19 4074 -8 ct 
4049 3 4020 9 3989 9 ct 3937 9 3897 -2 3869 -24 ct 3842 -45 3824 -78 3817 -120 ct 
p ef
4497 -148 m  4564 -139 l  4556 -93 4538 -56 4508 -30 ct 4477 -4 4440 9 4396 9 ct 
4341 9 4297 -9 4264 -45 ct 4230 -81 4213 -133 4213 -200 ct 4213 -244 4221 -282 4235 -314 ct 
4249 -347 4271 -371 4301 -388 ct 4330 -404 4362 -412 4397 -412 ct 4440 -412 4476 -401 4504 -379 ct 
4532 -357 4550 -325 4557 -285 ct 4491 -274 l  4485 -301 4474 -322 4458 -336 ct 
4441 -349 4422 -356 4399 -356 ct 4365 -356 4337 -344 4316 -319 ct 4294 -294 4283 -255 4283 -202 ct 
4283 -148 4294 -109 4314 -84 ct 4335 -59 4362 -47 4396 -47 ct 4422 -47 4445 -55 4463 -72 ct 
4481 -88 4492 -114 4497 -148 ct p ef
4622 0 m  4622 -403 l  4684 -403 l  4684 -342 l  4699 -370 4714 -389 4727 -398 ct 
4740 -407 4755 -412 4771 -412 ct 4794 -412 4817 -405 4841 -390 ct 4818 -327 l 
4801 -337 4784 -341 4768 -341 ct 4753 -341 4739 -337 4727 -328 ct 4715 -319 4707 -307 4702 -291 ct 
4694 -266 4691 -240 4691 -211 ct 4691 0 l  4622 0 l  p ef
4882 -477 m  4882 -556 l  4950 -556 l  4950 -477 l  4882 -477 l  p
4882 0 m  4882 -403 l  4950 -403 l  4950 0 l  4882 0 l  p ef
5055 154 m  5055 -403 l  5117 -403 l  5117 -351 l  5132 -372 5148 -387 5167 -397 ct 
5185 -407 5208 -412 5234 -412 ct 5268 -412 5299 -404 5325 -386 ct 5351 -368 5371 -343 5384 -311 ct 
5398 -279 5405 -243 5405 -205 ct 5405 -164 5397 -126 5382 -93 ct 5368 -60 5346 -35 5318 -17 ct 
5290 0 5260 9 5229 9 ct 5206 9 5186 4 5168 -5 ct 5150 -15 5135 -27 5123 -42 ct 
5123 154 l  5055 154 l  p
5117 -199 m  5117 -148 5127 -109 5148 -84 ct 5169 -60 5195 -47 5225 -47 ct 5255 -47 5281 -60 5302 -86 ct 
5324 -111 5335 -151 5335 -205 ct 5335 -257 5324 -295 5303 -321 ct 5282 -346 5257 -359 5228 -359 ct 
5199 -359 5173 -345 5150 -318 ct 5128 -291 5117 -251 5117 -199 ct p ef
5636 -61 m  5646 -1 l  5627 3 5610 5 5594 5 ct 5570 5 5550 1 5537 -7 ct 5523 -15 5514 -25 5508 -38 ct 
5502 -50 5500 -77 5500 -118 ct 5500 -350 l  5450 -350 l  5450 -403 l  5500 -403 l 
5500 -503 l  5567 -544 l  5567 -403 l  5636 -403 l  5636 -350 l  5567 -350 l 
5567 -114 l  5567 -95 5569 -83 5571 -77 ct 5573 -71 5577 -67 5583 -64 ct 5588 -60 5596 -59 5606 -59 ct 
5614 -59 5624 -60 5636 -61 ct p ef
5704 -477 m  5704 -556 l  5772 -556 l  5772 -477 l  5704 -477 l  p
5704 0 m  5704 -403 l  5772 -403 l  5772 0 l  5704 0 l  p ef
5851 -202 m  5851 -276 5871 -331 5913 -367 ct 5948 -397 5990 -412 6039 -412 ct 
6095 -412 6140 -394 6175 -358 ct 6210 -321 6228 -271 6228 -207 ct 6228 -155 6220 -115 6204 -85 ct 
6189 -55 6166 -32 6137 -16 ct 6107 1 6075 9 6039 9 ct 5983 9 5938 -9 5903 -45 ct 
5868 -81 5851 -133 5851 -202 ct p
5921 -202 m  5921 -150 5932 -111 5955 -86 ct 5977 -60 6005 -47 6039 -47 ct 6073 -47 6101 -60 6124 -86 ct 
6146 -112 6158 -151 6158 -204 ct 6158 -254 6146 -291 6124 -317 ct 6101 -343 6073 -355 6039 -355 ct 
6005 -355 5977 -343 5955 -317 ct 5932 -292 5921 -253 5921 -202 ct p ef
6308 0 m  6308 -403 l  6370 -403 l  6370 -346 l  6399 -390 6442 -412 6498 -412 ct 
6522 -412 6544 -408 6564 -399 ct 6585 -390 6600 -379 6610 -365 ct 6620 -350 6627 -334 6631 -314 ct 
6634 -301 6635 -279 6635 -248 ct 6635 0 l  6567 0 l  6567 -245 l  6567 -273 6564 -294 6559 -307 ct 
6554 -321 6544 -332 6531 -341 ct 6517 -349 6501 -353 6483 -353 ct 6454 -353 6429 -344 6408 -325 ct 
6387 -307 6376 -272 6376 -220 ct 6376 0 l  6308 0 l  p ef
pom
0.800 0.800 0.800 c 15855 9716 m  11730 9716 l  11730 6662 l  19980 6662 l 
19980 9716 l  15855 9716 l  p ef
50 lw 0.003 0.003 0.003 c 15855 9716 m  11730 9716 l  11730 6662 l  19980 6662 l 
19980 9716 l  15855 9716 l  pc
pum
12221 7590 t
0.230 0.226 0.210 c 35 -179 m  104 -185 l  107 -157 115 -135 127 -117 ct 139 -99 158 -85 183 -74 ct 
208 -63 237 -57 268 -57 ct 296 -57 321 -61 343 -70 ct 364 -78 380 -89 390 -104 ct 
401 -118 406 -134 406 -151 ct 406 -169 401 -184 391 -197 ct 381 -210 364 -221 341 -230 ct 
326 -236 293 -245 242 -257 ct 191 -269 155 -281 135 -292 ct 108 -306 89 -323 76 -344 ct 
63 -364 56 -387 56 -413 ct 56 -441 64 -467 80 -491 ct 96 -516 119 -534 150 -547 ct 
180 -560 214 -566 252 -566 ct 293 -566 329 -559 361 -546 ct 392 -533 416 -513 433 -487 ct 
450 -462 459 -432 460 -400 ct 390 -395 l  386 -430 373 -456 351 -474 ct 330 -492 297 -501 255 -501 ct 
210 -501 178 -493 157 -477 ct 137 -460 127 -441 127 -418 ct 127 -398 134 -381 149 -368 ct 
163 -355 200 -342 259 -329 ct 319 -315 360 -303 382 -293 ct 415 -278 439 -259 454 -237 ct 
469 -214 477 -187 477 -158 ct 477 -128 469 -100 452 -74 ct 435 -48 410 -27 379 -13 ct 
347 2 311 9 272 9 ct 221 9 179 2 145 -13 ct 111 -28 85 -50 65 -79 ct 46 -109 36 -142 35 -179 ct 
p ef
564 155 m  557 91 l  571 95 584 97 596 97 ct 611 97 623 94 632 89 ct 641 84 649 77 654 68 ct 
659 61 666 44 675 17 ct 676 13 678 8 681 0 ct 529 -404 l  602 -404 l  686 -170 l 
697 -141 706 -109 715 -77 ct 723 -108 732 -139 743 -169 ct 829 -404 l  897 -404 l 
744 6 l  728 51 715 81 706 98 ct 694 120 680 137 664 147 ct 648 158 630 163 608 163 ct 
595 163 580 160 564 155 ct p ef
930 -120 m  997 -131 l  1001 -104 1012 -83 1029 -69 ct 1046 -54 1070 -47 1102 -47 ct 
1133 -47 1156 -54 1171 -66 ct 1186 -79 1194 -94 1194 -111 ct 1194 -127 1187 -139 1174 -148 ct 
1165 -154 1141 -161 1104 -171 ct 1054 -183 1019 -194 1000 -204 ct 981 -213 966 -226 956 -242 ct 
946 -258 941 -276 941 -296 ct 941 -314 945 -331 954 -346 ct 962 -361 973 -374 987 -384 ct 
998 -392 1012 -399 1030 -404 ct 1049 -409 1068 -412 1089 -412 ct 1121 -412 1149 -408 1173 -398 ct 
1196 -389 1214 -377 1225 -362 ct 1237 -346 1245 -325 1249 -299 ct 1182 -290 l 
1179 -311 1170 -327 1156 -339 ct 1141 -350 1121 -356 1094 -356 ct 1063 -356 1041 -351 1027 -340 ct 
1014 -330 1007 -318 1007 -304 ct 1007 -295 1010 -287 1016 -280 ct 1021 -273 1030 -267 1042 -262 ct 
1048 -259 1069 -254 1102 -244 ct 1150 -232 1184 -221 1203 -213 ct 1222 -205 1237 -193 1248 -177 ct 
1259 -161 1264 -142 1264 -118 ct 1264 -96 1257 -74 1244 -54 ct 1231 -34 1212 -19 1187 -8 ct 
1162 3 1133 9 1102 9 ct 1050 9 1010 -2 982 -24 ct 955 -45 937 -78 930 -120 ct p ef
1495 -61 m  1505 -1 l  1486 3 1469 5 1453 5 ct 1429 5 1409 1 1396 -7 ct 1382 -15 1373 -25 1367 -38 ct 
1361 -50 1359 -77 1359 -118 ct 1359 -350 l  1309 -350 l  1309 -403 l  1359 -403 l 
1359 -503 l  1426 -544 l  1426 -403 l  1495 -403 l  1495 -350 l  1426 -350 l 
1426 -114 l  1426 -95 1428 -83 1430 -77 ct 1432 -71 1436 -67 1442 -64 ct 1447 -60 1455 -59 1465 -59 ct 
1473 -59 1483 -60 1495 -61 ct p ef
1838 -130 m  1908 -121 l  1897 -80 1876 -48 1846 -25 ct 1816 -2 1778 9 1731 9 ct 
1672 9 1626 -9 1591 -45 ct 1557 -82 1539 -133 1539 -198 ct 1539 -266 1557 -319 1592 -356 ct 
1627 -393 1672 -412 1727 -412 ct 1781 -412 1825 -394 1859 -357 ct 1893 -320 1910 -269 1910 -202 ct 
1910 -198 1910 -192 1910 -184 ct 1610 -184 l  1612 -140 1625 -106 1647 -82 ct 
1670 -59 1698 -47 1732 -47 ct 1757 -47 1778 -54 1796 -67 ct 1813 -80 1827 -101 1838 -130 ct 
p
1614 -240 m  1838 -240 l  1835 -274 1827 -300 1813 -317 ct 1791 -343 1763 -356 1728 -356 ct 
1697 -356 1670 -345 1649 -324 ct 1628 -303 1616 -275 1614 -240 ct p ef
1994 0 m  1994 -403 l  2055 -403 l  2055 -346 l  2068 -366 2085 -382 2106 -394 ct 
2127 -406 2150 -412 2177 -412 ct 2207 -412 2231 -406 2250 -393 ct 2270 -381 2283 -364 2291 -341 ct 
2323 -388 2364 -412 2415 -412 ct 2455 -412 2486 -401 2507 -379 ct 2529 -357 2539 -323 2539 -277 ct 
2539 0 l  2472 0 l  2472 -254 l  2472 -281 2469 -301 2465 -313 ct 2461 -325 2453 -335 2441 -342 ct 
2429 -349 2416 -353 2400 -353 ct 2372 -353 2348 -343 2329 -325 ct 2311 -306 2301 -276 2301 -234 ct 
2301 0 l  2233 0 l  2233 -262 l  2233 -292 2228 -315 2217 -330 ct 2205 -345 2187 -353 2162 -353 ct 
2143 -353 2125 -348 2109 -338 ct 2092 -328 2081 -313 2073 -293 ct 2066 -274 2062 -246 2062 -209 ct 
2062 0 l  1994 0 l  p ef
3043 -195 m  3117 -177 l  3101 -116 3074 -70 3034 -39 ct 2994 -7 2945 9 2887 9 ct 
2827 9 2778 -3 2741 -28 ct 2703 -52 2675 -87 2655 -134 ct 2635 -180 2626 -230 2626 -283 ct 
2626 -341 2637 -391 2659 -434 ct 2681 -477 2712 -510 2753 -532 ct 2794 -555 2839 -566 2888 -566 ct 
2943 -566 2990 -552 3028 -524 ct 3066 -495 3092 -455 3107 -404 ct 3035 -387 l 
3022 -427 3003 -457 2979 -475 ct 2954 -494 2923 -503 2886 -503 ct 2844 -503 2808 -493 2779 -472 ct 
2751 -452 2730 -424 2719 -390 ct 2707 -355 2701 -320 2701 -283 ct 2701 -236 2708 -194 2722 -159 ct 
2736 -124 2757 -98 2786 -80 ct 2815 -63 2847 -54 2881 -54 ct 2922 -54 2957 -66 2985 -90 ct 
3014 -113 3033 -149 3043 -195 ct p ef
3422 0 m  3422 -556 l  3668 -556 l  3718 -556 3755 -551 3781 -541 ct 3807 -531 3828 -513 3843 -488 ct 
3858 -463 3866 -435 3866 -404 ct 3866 -365 3853 -332 3828 -305 ct 3802 -278 3763 -260 3710 -253 ct 
3729 -244 3744 -234 3754 -225 ct 3775 -206 3796 -181 3815 -151 ct 3912 0 l  3819 0 l 
3746 -116 l  3724 -149 3706 -175 3693 -192 ct 3679 -210 3666 -222 3655 -230 ct 
3644 -237 3633 -242 3622 -244 ct 3613 -246 3600 -247 3581 -247 ct 3496 -247 l 
3496 0 l  3422 0 l  p
3496 -311 m  3654 -311 l  3687 -311 3713 -314 3732 -321 ct 3751 -328 3766 -339 3776 -355 ct 
3785 -370 3790 -386 3790 -404 ct 3790 -431 3781 -452 3762 -469 ct 3743 -486 3713 -495 3671 -495 ct 
3496 -495 l  3496 -311 l  p ef
4108 -1 m  4108 -491 l  3925 -491 l  3925 -557 l  4365 -557 l  4365 -491 l 
4182 -491 l  4182 -1 l  4108 -1 l  p ef
4439 0 m  4439 -556 l  4512 -556 l  4512 -66 l  4786 -66 l  4786 0 l  4439 0 l 
p ef
5369 -66 m  5346 -41 5322 -22 5295 -10 ct 5269 3 5240 9 5209 9 ct 5152 9 5107 -10 5074 -49 ct 
5047 -80 5033 -115 5033 -154 ct 5033 -188 5044 -219 5067 -247 ct 5089 -275 5122 -299 5166 -320 ct 
5141 -349 5124 -372 5116 -390 ct 5107 -408 5103 -425 5103 -442 ct 5103 -475 5116 -505 5142 -529 ct 
5168 -554 5201 -566 5241 -566 ct 5279 -566 5310 -555 5334 -531 ct 5358 -508 5370 -480 5370 -447 ct 
5370 -395 5335 -349 5265 -312 ct 5365 -185 l  5376 -207 5385 -233 5391 -262 ct 
5462 -247 l  5450 -199 5434 -159 5413 -127 ct 5439 -93 5467 -65 5500 -42 ct 
5454 12 l  5426 -5 5398 -31 5369 -66 ct p
5230 -356 m  5260 -373 5279 -389 5287 -402 ct 5296 -415 5300 -430 5300 -446 ct 
5300 -464 5294 -480 5282 -492 ct 5270 -504 5256 -510 5238 -510 ct 5219 -510 5204 -504 5192 -492 ct 
5179 -480 5173 -466 5173 -449 ct 5173 -440 5175 -431 5180 -421 ct 5184 -412 5191 -402 5200 -391 ct 
5230 -356 l  p
5326 -120 m  5201 -275 l  5164 -253 5139 -233 5126 -214 ct 5113 -195 5107 -176 5107 -158 ct 
5107 -135 5116 -112 5134 -88 ct 5152 -63 5177 -51 5210 -51 ct 5230 -51 5252 -58 5273 -70 ct 
5295 -83 5313 -100 5326 -120 ct p ef
5920 -1 m  5920 -491 l  5737 -491 l  5737 -557 l  6177 -557 l  6177 -491 l 
5994 -491 l  5994 -1 l  5920 -1 l  p ef
6250 0 m  6250 -556 l  6323 -556 l  6323 -66 l  6597 -66 l  6597 0 l  6250 0 l 
p ef
6683 0 m  6683 -556 l  6793 -556 l  6925 -162 l  6937 -126 6946 -98 6951 -80 ct 
6958 -100 6967 -130 6981 -169 ct 7114 -556 l  7213 -556 l  7213 0 l  7142 0 l 
7142 -465 l  6980 0 l  6914 0 l  6753 -473 l  6753 0 l  6683 0 l  p ef
pom
pum
15629 8458 t
194 -90 m  194 -242 l  43 -242 l  43 -306 l  194 -306 l  194 -458 l  259 -458 l 
259 -306 l  410 -306 l  410 -242 l  259 -242 l  259 -90 l  194 -90 l  p ef
pom
pum
12860 9326 t
28 -181 m  137 -192 l  144 -155 157 -128 177 -111 ct 197 -93 224 -85 258 -85 ct 
295 -85 322 -93 340 -108 ct 358 -123 368 -141 368 -162 ct 368 -175 364 -186 356 -195 ct 
348 -204 335 -212 316 -219 ct 302 -224 273 -232 226 -244 ct 166 -259 124 -277 99 -299 ct 
65 -329 48 -367 48 -411 ct 48 -439 56 -466 72 -490 ct 88 -515 111 -534 142 -547 ct 
172 -560 208 -566 251 -566 ct 321 -566 373 -550 408 -519 ct 444 -488 462 -447 464 -395 ct 
352 -395 l  347 -423 337 -443 321 -455 ct 305 -467 281 -473 250 -473 ct 217 -473 192 -466 173 -453 ct 
161 -444 155 -433 155 -418 ct 155 -405 161 -394 172 -385 ct 186 -373 221 -360 275 -347 ct 
330 -334 370 -321 396 -307 ct 422 -293 443 -275 458 -251 ct 472 -227 480 -197 480 -162 ct 
480 -130 471 -100 453 -72 ct 436 -45 410 -24 378 -10 ct 346 3 306 10 257 10 ct 
187 10 133 -6 95 -39 ct 58 -71 35 -119 28 -181 ct p ef
928 -205 m  1037 -170 l  1020 -110 992 -65 953 -35 ct 915 -6 865 9 806 9 ct 
732 9 671 -16 624 -67 ct 577 -117 553 -186 553 -274 ct 553 -366 577 -438 624 -489 ct 
672 -540 735 -566 813 -566 ct 881 -566 936 -546 978 -506 ct 1004 -482 1022 -448 1035 -403 ct 
924 -377 l  918 -406 904 -428 883 -445 ct 862 -462 837 -470 807 -470 ct 766 -470 732 -455 707 -426 ct 
681 -396 668 -348 668 -282 ct 668 -212 681 -162 706 -132 ct 731 -102 764 -87 805 -87 ct 
835 -87 860 -96 882 -115 ct 903 -134 919 -164 928 -205 ct p ef
1133 0 m  1133 -556 l  1242 -556 l  1469 -185 l  1469 -556 l  1573 -556 l 
1573 0 l  1461 0 l  1237 -363 l  1237 0 l  1133 0 l  p ef
1662 -181 m  1771 -192 l  1778 -155 1791 -128 1811 -111 ct 1831 -93 1858 -85 1892 -85 ct 
1929 -85 1956 -93 1974 -108 ct 1992 -123 2002 -141 2002 -162 ct 2002 -175 1998 -186 1990 -195 ct 
1982 -204 1969 -212 1950 -219 ct 1936 -224 1907 -232 1860 -244 ct 1800 -259 1758 -277 1733 -299 ct 
1699 -329 1682 -367 1682 -411 ct 1682 -439 1690 -466 1706 -490 ct 1722 -515 1745 -534 1776 -547 ct 
1806 -560 1842 -566 1885 -566 ct 1955 -566 2007 -550 2042 -519 ct 2078 -488 2096 -447 2098 -395 ct 
1986 -395 l  1981 -423 1971 -443 1955 -455 ct 1939 -467 1915 -473 1884 -473 ct 
1851 -473 1826 -466 1807 -453 ct 1795 -444 1789 -433 1789 -418 ct 1789 -405 1795 -394 1806 -385 ct 
1820 -373 1855 -360 1909 -347 ct 1964 -334 2004 -321 2030 -307 ct 2056 -293 2077 -275 2092 -251 ct 
2106 -227 2114 -197 2114 -162 ct 2114 -130 2105 -100 2087 -72 ct 2070 -45 2044 -24 2012 -10 ct 
1980 3 1940 10 1891 10 ct 1821 10 1767 -6 1729 -39 ct 1692 -71 1669 -119 1662 -181 ct 
p ef
2210 0 m  2210 -552 l  2323 -552 l  2323 -94 l  2602 -94 l  2602 0 l  2210 0 l 
p ef
pom
pum
15485 9326 t
274 0 m  274 -556 l  384 -556 l  516 -162 l  528 -126 537 -98 542 -80 ct 
549 -100 558 -130 572 -169 ct 705 -556 l  804 -556 l  804 0 l  733 0 l  733 -465 l 
571 0 l  505 0 l  344 -473 l  344 0 l  274 0 l  p ef
885 -202 m  885 -276 905 -331 947 -367 ct 982 -397 1024 -412 1073 -412 ct 1129 -412 1174 -394 1209 -358 ct 
1244 -321 1262 -271 1262 -207 ct 1262 -155 1254 -115 1238 -85 ct 1223 -55 1200 -32 1171 -16 ct 
1141 1 1109 9 1073 9 ct 1017 9 972 -9 937 -45 ct 902 -81 885 -133 885 -202 ct p
955 -202 m  955 -150 966 -111 989 -86 ct 1011 -60 1039 -47 1073 -47 ct 1107 -47 1135 -60 1158 -86 ct 
1180 -112 1192 -151 1192 -204 ct 1192 -254 1180 -291 1158 -317 ct 1135 -343 1107 -355 1073 -355 ct 
1039 -355 1011 -343 989 -317 ct 966 -292 955 -253 955 -202 ct p ef
1603 0 m  1603 -51 l  1578 -11 1540 9 1491 9 ct 1459 9 1429 0 1402 -18 ct 1375 -35 1354 -60 1340 -92 ct 
1325 -123 1318 -160 1318 -201 ct 1318 -241 1324 -278 1338 -311 ct 1351 -343 1371 -368 1398 -386 ct 
1425 -403 1455 -412 1488 -412 ct 1512 -412 1534 -407 1552 -397 ct 1571 -386 1587 -373 1599 -357 ct 
1599 -556 l  1667 -556 l  1667 0 l  1603 0 l  p
1388 -201 m  1388 -150 1398 -111 1420 -85 ct 1442 -60 1468 -47 1497 -47 ct 1527 -47 1552 -59 1573 -84 ct 
1594 -108 1604 -145 1604 -195 ct 1604 -251 1594 -291 1573 -317 ct 1551 -343 1525 -355 1494 -355 ct 
1464 -355 1438 -343 1418 -318 ct 1398 -294 1388 -254 1388 -201 ct p ef
2050 -130 m  2120 -121 l  2109 -80 2088 -48 2058 -25 ct 2028 -2 1990 9 1943 9 ct 
1884 9 1838 -9 1803 -45 ct 1769 -82 1751 -133 1751 -198 ct 1751 -266 1769 -319 1804 -356 ct 
1839 -393 1884 -412 1939 -412 ct 1993 -412 2037 -394 2071 -357 ct 2105 -320 2122 -269 2122 -202 ct 
2122 -198 2122 -192 2122 -184 ct 1822 -184 l  1824 -140 1837 -106 1859 -82 ct 
1882 -59 1910 -47 1944 -47 ct 1969 -47 1990 -54 2008 -67 ct 2025 -80 2039 -101 2050 -130 ct 
p
1826 -240 m  2050 -240 l  2047 -274 2039 -300 2025 -317 ct 2003 -343 1975 -356 1940 -356 ct 
1909 -356 1882 -345 1861 -324 ct 1840 -303 1828 -275 1826 -240 ct p ef
2205 0 m  2205 -556 l  2273 -556 l  2273 0 l  2205 0 l  p ef
2380 -477 m  2380 -556 l  2448 -556 l  2448 -477 l  2380 -477 l  p
2380 0 m  2380 -403 l  2448 -403 l  2448 0 l  2380 0 l  p ef
2553 0 m  2553 -403 l  2615 -403 l  2615 -346 l  2644 -390 2687 -412 2743 -412 ct 
2767 -412 2789 -408 2809 -399 ct 2830 -390 2845 -379 2855 -365 ct 2865 -350 2872 -334 2876 -314 ct 
2879 -301 2880 -279 2880 -248 ct 2880 0 l  2812 0 l  2812 -245 l  2812 -273 2809 -294 2804 -307 ct 
2799 -321 2789 -332 2776 -341 ct 2762 -349 2746 -353 2728 -353 ct 2699 -353 2674 -344 2653 -325 ct 
2632 -307 2621 -272 2621 -220 ct 2621 0 l  2553 0 l  p ef
2973 33 m  3039 43 l  3042 63 3049 78 3062 88 ct 3079 100 3102 106 3131 106 ct 
3163 106 3187 100 3205 88 ct 3222 75 3233 57 3239 34 ct 3243 20 3245 -9 3244 -53 ct 
3215 -18 3177 0 3133 0 ct 3078 0 3035 -20 3004 -60 ct 2974 -100 2959 -148 2959 -204 ct 
2959 -243 2966 -278 2980 -311 ct 2994 -343 3014 -368 3040 -386 ct 3067 -404 3098 -413 3133 -413 ct 
3181 -413 3220 -393 3251 -355 ct 3251 -403 l  3314 -403 l  3314 -55 l  3314 8 3307 52 3295 78 ct 
3282 104 3262 125 3234 140 ct 3206 155 3172 163 3132 163 ct 3084 163 3045 152 3015 131 ct 
2986 109 2972 76 2973 33 ct p
3029 -209 m  3029 -156 3040 -118 3061 -93 ct 3082 -69 3108 -57 3139 -57 ct 3171 -57 3197 -69 3218 -93 ct 
3239 -117 3250 -155 3250 -207 ct 3250 -256 3239 -293 3217 -318 ct 3195 -343 3169 -356 3138 -356 ct 
3108 -356 3082 -344 3061 -319 ct 3040 -294 3029 -258 3029 -209 ct p ef
pom
0.902 0.902 0.902 c 15917 13842 m  15917 13842 l  18201 13842 20105 13988 20105 14164 ct 
20105 16096 l  20105 16271 18201 16418 15917 16418 ct 13632 16418 11729 16271 11729 16096 ct 
11729 14164 l  11729 13988 13632 13842 15917 13842 ct p
11729 13842 m  11729 13842 l  p
20105 16418 m  20105 16418 l  p ef
10 lw 0.003 0.003 0.003 c 15917 13842 m  13632 13842 11729 13988 11729 14164 ct 
11729 16096 l  11729 16271 13632 16418 15917 16418 ct 18201 16418 20105 16271 20105 16096 ct 
20105 14164 l  20105 13988 18201 13842 15917 13842 ct 15917 13842 l  pc
11729 13842 m  11729 13842 l  pc
20105 16418 m  20105 16418 l  pc
0.941 0.941 0.941 c 15917 13842 m  15917 13842 l  18201 13842 20105 13988 20105 14164 ct 
20105 14339 18201 14486 15917 14486 ct 13632 14486 11729 14339 11729 14164 ct 
11729 13988 13632 13842 15917 13842 ct p
11729 13842 m  11729 13842 l  p
20105 16418 m  20105 16418 l  p ef
0.003 0.003 0.003 c 15917 13842 m  13632 13842 11729 13988 11729 14164 ct 11729 14339 13632 14486 15917 14486 ct 
18201 14486 20105 14339 20105 14164 ct 20105 13988 18201 13842 15917 13842 ct 
15917 13842 l  pc
11729 13842 m  11729 13842 l  pc
20105 16418 m  20105 16418 l  pc
pum
13049 15560 t
0.230 0.226 0.210 c 35 -179 m  104 -185 l  107 -157 115 -135 127 -117 ct 139 -99 158 -85 183 -74 ct 
208 -63 237 -57 268 -57 ct 296 -57 321 -61 343 -70 ct 364 -78 380 -89 390 -104 ct 
401 -118 406 -134 406 -151 ct 406 -169 401 -184 391 -197 ct 381 -210 364 -221 341 -230 ct 
326 -236 293 -245 242 -257 ct 191 -269 155 -281 135 -292 ct 108 -306 89 -323 76 -344 ct 
63 -364 56 -387 56 -413 ct 56 -441 64 -467 80 -491 ct 96 -516 119 -534 150 -547 ct 
180 -560 214 -566 252 -566 ct 293 -566 329 -559 361 -546 ct 392 -533 416 -513 433 -487 ct 
450 -462 459 -432 460 -400 ct 390 -395 l  386 -430 373 -456 351 -474 ct 330 -492 297 -501 255 -501 ct 
210 -501 178 -493 157 -477 ct 137 -460 127 -441 127 -418 ct 127 -398 134 -381 149 -368 ct 
163 -355 200 -342 259 -329 ct 319 -315 360 -303 382 -293 ct 415 -278 439 -259 454 -237 ct 
469 -214 477 -187 477 -158 ct 477 -128 469 -100 452 -74 ct 435 -48 410 -27 379 -13 ct 
347 2 311 9 272 9 ct 221 9 179 2 145 -13 ct 111 -28 85 -50 65 -79 ct 46 -109 36 -142 35 -179 ct 
p ef
568 -477 m  568 -556 l  636 -556 l  636 -477 l  568 -477 l  p
568 0 m  568 -403 l  636 -403 l  636 0 l  568 0 l  p ef
741 0 m  741 -403 l  802 -403 l  802 -346 l  815 -366 832 -382 853 -394 ct 
874 -406 897 -412 924 -412 ct 954 -412 978 -406 997 -393 ct 1017 -381 1030 -364 1038 -341 ct 
1070 -388 1111 -412 1162 -412 ct 1202 -412 1233 -401 1254 -379 ct 1276 -357 1286 -323 1286 -277 ct 
1286 0 l  1219 0 l  1219 -254 l  1219 -281 1216 -301 1212 -313 ct 1208 -325 1200 -335 1188 -342 ct 
1176 -349 1163 -353 1147 -353 ct 1119 -353 1095 -343 1076 -325 ct 1058 -306 1048 -276 1048 -234 ct 
1048 0 l  980 0 l  980 -262 l  980 -292 975 -315 964 -330 ct 952 -345 934 -353 909 -353 ct 
890 -353 872 -348 856 -338 ct 839 -328 828 -313 820 -293 ct 813 -274 809 -246 809 -209 ct 
809 0 l  741 0 l  p ef
1649 0 m  1649 -59 l  1618 -14 1575 9 1521 9 ct 1497 9 1475 4 1455 -5 ct 1434 -14 1419 -25 1409 -39 ct 
1399 -53 1392 -70 1388 -90 ct 1385 -103 1384 -124 1384 -153 ct 1384 -403 l  1452 -403 l 
1452 -180 l  1452 -144 1453 -120 1456 -107 ct 1460 -90 1469 -75 1483 -65 ct 
1497 -55 1514 -50 1535 -50 ct 1555 -50 1574 -55 1592 -66 ct 1610 -76 1623 -90 1630 -108 ct 
1638 -127 1642 -153 1642 -187 ct 1642 -403 l  1710 -403 l  1710 0 l  1649 0 l 
p ef
1815 0 m  1815 -556 l  1883 -556 l  1883 0 l  1815 0 l  p ef
2253 -50 m  2227 -28 2203 -13 2180 -4 ct 2156 5 2131 9 2105 9 ct 2060 9 2026 -2 2003 -23 ct 
1979 -45 1967 -73 1967 -106 ct 1967 -126 1972 -144 1980 -160 ct 1989 -177 2001 -190 2016 -200 ct 
2030 -209 2047 -217 2065 -222 ct 2078 -226 2098 -229 2125 -232 ct 2181 -239 2221 -247 2247 -256 ct 
2247 -265 2247 -271 2247 -274 ct 2247 -301 2241 -321 2228 -332 ct 2211 -348 2185 -355 2150 -355 ct 
2118 -355 2095 -350 2079 -339 ct 2064 -327 2053 -307 2045 -279 ct 1979 -288 l 
1985 -317 1995 -340 2009 -357 ct 2023 -375 2043 -388 2069 -398 ct 2095 -407 2126 -412 2160 -412 ct 
2195 -412 2223 -408 2244 -400 ct 2266 -392 2281 -382 2291 -369 ct 2302 -357 2309 -342 2313 -323 ct 
2315 -311 2316 -290 2316 -260 ct 2316 -169 l  2316 -105 2317 -65 2320 -48 ct 
2323 -32 2329 -16 2338 0 ct 2266 0 l  2259 -14 2255 -31 2253 -50 ct p
2247 -202 m  2222 -192 2185 -184 2136 -176 ct 2108 -172 2088 -168 2076 -163 ct 
2065 -158 2056 -150 2049 -141 ct 2043 -131 2040 -120 2040 -108 ct 2040 -90 2047 -75 2060 -63 ct 
2074 -51 2094 -45 2121 -45 ct 2147 -45 2171 -50 2191 -62 ct 2211 -73 2226 -89 2236 -109 ct 
2243 -124 2247 -147 2247 -177 ct 2247 -202 l  p ef
2485 0 m  2422 0 l  2422 -556 l  2490 -556 l  2490 -358 l  2519 -394 2556 -412 2600 -412 ct 
2625 -412 2648 -407 2671 -397 ct 2693 -387 2711 -373 2725 -355 ct 2739 -337 2751 -315 2759 -290 ct 
2767 -264 2771 -237 2771 -208 ct 2771 -139 2754 -85 2720 -48 ct 2685 -10 2645 9 2597 9 ct 
2549 9 2512 -11 2485 -51 ct 2485 0 l  p
2484 -205 m  2484 -156 2491 -121 2504 -100 ct 2525 -65 2555 -47 2591 -47 ct 
2621 -47 2647 -60 2668 -86 ct 2690 -112 2701 -151 2701 -202 ct 2701 -255 2691 -293 2670 -318 ct 
2649 -343 2624 -356 2594 -356 ct 2564 -356 2539 -343 2517 -317 ct 2495 -291 2484 -254 2484 -205 ct 
p ef
2852 0 m  2852 -556 l  2920 -556 l  2920 0 l  2852 0 l  p ef
3303 -130 m  3373 -121 l  3362 -80 3341 -48 3311 -25 ct 3281 -2 3243 9 3196 9 ct 
3137 9 3091 -9 3056 -45 ct 3022 -82 3004 -133 3004 -198 ct 3004 -266 3022 -319 3057 -356 ct 
3092 -393 3137 -412 3192 -412 ct 3246 -412 3290 -394 3324 -357 ct 3358 -320 3375 -269 3375 -202 ct 
3375 -198 3375 -192 3375 -184 ct 3075 -184 l  3077 -140 3090 -106 3112 -82 ct 
3135 -59 3163 -47 3197 -47 ct 3222 -47 3243 -54 3261 -67 ct 3278 -80 3292 -101 3303 -130 ct 
p
3079 -240 m  3303 -240 l  3300 -274 3292 -300 3278 -317 ct 3256 -343 3228 -356 3193 -356 ct 
3162 -356 3135 -345 3114 -324 ct 3093 -303 3081 -275 3079 -240 ct p ef
3682 0 m  3682 -556 l  3792 -556 l  3924 -162 l  3936 -126 3945 -98 3950 -80 ct 
3957 -100 3966 -130 3980 -169 ct 4113 -556 l  4212 -556 l  4212 0 l  4141 0 l 
4141 -465 l  3979 0 l  3913 0 l  3752 -473 l  3752 0 l  3682 0 l  p ef
4293 -202 m  4293 -276 4313 -331 4355 -367 ct 4390 -397 4432 -412 4481 -412 ct 
4537 -412 4582 -394 4617 -358 ct 4652 -321 4670 -271 4670 -207 ct 4670 -155 4662 -115 4646 -85 ct 
4631 -55 4608 -32 4579 -16 ct 4549 1 4517 9 4481 9 ct 4425 9 4380 -9 4345 -45 ct 
4310 -81 4293 -133 4293 -202 ct p
4363 -202 m  4363 -150 4374 -111 4397 -86 ct 4419 -60 4447 -47 4481 -47 ct 4515 -47 4543 -60 4566 -86 ct 
4588 -112 4600 -151 4600 -204 ct 4600 -254 4588 -291 4566 -317 ct 4543 -343 4515 -355 4481 -355 ct 
4447 -355 4419 -343 4397 -317 ct 4374 -292 4363 -253 4363 -202 ct p ef
5011 0 m  5011 -51 l  4986 -11 4948 9 4899 9 ct 4867 9 4837 0 4810 -18 ct 4783 -35 4762 -60 4748 -92 ct 
4733 -123 4726 -160 4726 -201 ct 4726 -241 4732 -278 4746 -311 ct 4759 -343 4779 -368 4806 -386 ct 
4833 -403 4863 -412 4896 -412 ct 4920 -412 4942 -407 4960 -397 ct 4979 -386 4995 -373 5007 -357 ct 
5007 -556 l  5075 -556 l  5075 0 l  5011 0 l  p
4796 -201 m  4796 -150 4806 -111 4828 -85 ct 4850 -60 4876 -47 4905 -47 ct 4935 -47 4960 -59 4981 -84 ct 
5002 -108 5012 -145 5012 -195 ct 5012 -251 5002 -291 4981 -317 ct 4959 -343 4933 -355 4902 -355 ct 
4872 -355 4846 -343 4826 -318 ct 4806 -294 4796 -254 4796 -201 ct p ef
5458 -130 m  5528 -121 l  5517 -80 5496 -48 5466 -25 ct 5436 -2 5398 9 5351 9 ct 
5292 9 5246 -9 5211 -45 ct 5177 -82 5159 -133 5159 -198 ct 5159 -266 5177 -319 5212 -356 ct 
5247 -393 5292 -412 5347 -412 ct 5401 -412 5445 -394 5479 -357 ct 5513 -320 5530 -269 5530 -202 ct 
5530 -198 5530 -192 5530 -184 ct 5230 -184 l  5232 -140 5245 -106 5267 -82 ct 
5290 -59 5318 -47 5352 -47 ct 5377 -47 5398 -54 5416 -67 ct 5433 -80 5447 -101 5458 -130 ct 
p
5234 -240 m  5458 -240 l  5455 -274 5447 -300 5433 -317 ct 5411 -343 5383 -356 5348 -356 ct 
5317 -356 5290 -345 5269 -324 ct 5248 -303 5236 -275 5234 -240 ct p ef
5613 0 m  5613 -556 l  5681 -556 l  5681 0 l  5613 0 l  p ef
pom
0.800 0.800 0.800 c 5030 23844 m  1121 23844 l  1121 21177 l  8938 21177 l 
8938 23844 l  5030 23844 l  p ef
50 lw 0.003 0.003 0.003 c 5030 23844 m  1121 23844 l  1121 21177 l  8938 21177 l 
8938 23844 l  5030 23844 l  pc
pum
3736 22346 t
0.230 0.226 0.210 c 35 -179 m  104 -185 l  107 -157 115 -135 127 -117 ct 139 -99 158 -85 183 -74 ct 
208 -63 237 -57 268 -57 ct 296 -57 321 -61 343 -70 ct 364 -78 380 -89 390 -104 ct 
401 -118 406 -134 406 -151 ct 406 -169 401 -184 391 -197 ct 381 -210 364 -221 341 -230 ct 
326 -236 293 -245 242 -257 ct 191 -269 155 -281 135 -292 ct 108 -306 89 -323 76 -344 ct 
63 -364 56 -387 56 -413 ct 56 -441 64 -467 80 -491 ct 96 -516 119 -534 150 -547 ct 
180 -560 214 -566 252 -566 ct 293 -566 329 -559 361 -546 ct 392 -533 416 -513 433 -487 ct 
450 -462 459 -432 460 -400 ct 390 -395 l  386 -430 373 -456 351 -474 ct 330 -492 297 -501 255 -501 ct 
210 -501 178 -493 157 -477 ct 137 -460 127 -441 127 -418 ct 127 -398 134 -381 149 -368 ct 
163 -355 200 -342 259 -329 ct 319 -315 360 -303 382 -293 ct 415 -278 439 -259 454 -237 ct 
469 -214 477 -187 477 -158 ct 477 -128 469 -100 452 -74 ct 435 -48 410 -27 379 -13 ct 
347 2 311 9 272 9 ct 221 9 179 2 145 -13 ct 111 -28 85 -50 65 -79 ct 46 -109 36 -142 35 -179 ct 
p ef
564 155 m  557 91 l  571 95 584 97 596 97 ct 611 97 623 94 632 89 ct 641 84 649 77 654 68 ct 
659 61 666 44 675 17 ct 676 13 678 8 681 0 ct 529 -404 l  602 -404 l  686 -170 l 
697 -141 706 -109 715 -77 ct 723 -108 732 -139 743 -169 ct 829 -404 l  897 -404 l 
744 6 l  728 51 715 81 706 98 ct 694 120 680 137 664 147 ct 648 158 630 163 608 163 ct 
595 163 580 160 564 155 ct p ef
930 -120 m  997 -131 l  1001 -104 1012 -83 1029 -69 ct 1046 -54 1070 -47 1102 -47 ct 
1133 -47 1156 -54 1171 -66 ct 1186 -79 1194 -94 1194 -111 ct 1194 -127 1187 -139 1174 -148 ct 
1165 -154 1141 -161 1104 -171 ct 1054 -183 1019 -194 1000 -204 ct 981 -213 966 -226 956 -242 ct 
946 -258 941 -276 941 -296 ct 941 -314 945 -331 954 -346 ct 962 -361 973 -374 987 -384 ct 
998 -392 1012 -399 1030 -404 ct 1049 -409 1068 -412 1089 -412 ct 1121 -412 1149 -408 1173 -398 ct 
1196 -389 1214 -377 1225 -362 ct 1237 -346 1245 -325 1249 -299 ct 1182 -290 l 
1179 -311 1170 -327 1156 -339 ct 1141 -350 1121 -356 1094 -356 ct 1063 -356 1041 -351 1027 -340 ct 
1014 -330 1007 -318 1007 -304 ct 1007 -295 1010 -287 1016 -280 ct 1021 -273 1030 -267 1042 -262 ct 
1048 -259 1069 -254 1102 -244 ct 1150 -232 1184 -221 1203 -213 ct 1222 -205 1237 -193 1248 -177 ct 
1259 -161 1264 -142 1264 -118 ct 1264 -96 1257 -74 1244 -54 ct 1231 -34 1212 -19 1187 -8 ct 
1162 3 1133 9 1102 9 ct 1050 9 1010 -2 982 -24 ct 955 -45 937 -78 930 -120 ct p ef
1495 -61 m  1505 -1 l  1486 3 1469 5 1453 5 ct 1429 5 1409 1 1396 -7 ct 1382 -15 1373 -25 1367 -38 ct 
1361 -50 1359 -77 1359 -118 ct 1359 -350 l  1309 -350 l  1309 -403 l  1359 -403 l 
1359 -503 l  1426 -544 l  1426 -403 l  1495 -403 l  1495 -350 l  1426 -350 l 
1426 -114 l  1426 -95 1428 -83 1430 -77 ct 1432 -71 1436 -67 1442 -64 ct 1447 -60 1455 -59 1465 -59 ct 
1473 -59 1483 -60 1495 -61 ct p ef
1838 -130 m  1908 -121 l  1897 -80 1876 -48 1846 -25 ct 1816 -2 1778 9 1731 9 ct 
1672 9 1626 -9 1591 -45 ct 1557 -82 1539 -133 1539 -198 ct 1539 -266 1557 -319 1592 -356 ct 
1627 -393 1672 -412 1727 -412 ct 1781 -412 1825 -394 1859 -357 ct 1893 -320 1910 -269 1910 -202 ct 
1910 -198 1910 -192 1910 -184 ct 1610 -184 l  1612 -140 1625 -106 1647 -82 ct 
1670 -59 1698 -47 1732 -47 ct 1757 -47 1778 -54 1796 -67 ct 1813 -80 1827 -101 1838 -130 ct 
p
1614 -240 m  1838 -240 l  1835 -274 1827 -300 1813 -317 ct 1791 -343 1763 -356 1728 -356 ct 
1697 -356 1670 -345 1649 -324 ct 1628 -303 1616 -275 1614 -240 ct p ef
1994 0 m  1994 -403 l  2055 -403 l  2055 -346 l  2068 -366 2085 -382 2106 -394 ct 
2127 -406 2150 -412 2177 -412 ct 2207 -412 2231 -406 2250 -393 ct 2270 -381 2283 -364 2291 -341 ct 
2323 -388 2364 -412 2415 -412 ct 2455 -412 2486 -401 2507 -379 ct 2529 -357 2539 -323 2539 -277 ct 
2539 0 l  2472 0 l  2472 -254 l  2472 -281 2469 -301 2465 -313 ct 2461 -325 2453 -335 2441 -342 ct 
2429 -349 2416 -353 2400 -353 ct 2372 -353 2348 -343 2329 -325 ct 2311 -306 2301 -276 2301 -234 ct 
2301 0 l  2233 0 l  2233 -262 l  2233 -292 2228 -315 2217 -330 ct 2205 -345 2187 -353 2162 -353 ct 
2143 -353 2125 -348 2109 -338 ct 2092 -328 2081 -313 2073 -293 ct 2066 -274 2062 -246 2062 -209 ct 
2062 0 l  1994 0 l  p ef
pom
pum
3021 23214 t
pom
pum
3237 23214 t
219 0 m  3 -556 l  83 -556 l  227 -152 l  239 -120 249 -89 257 -61 ct 265 -91 275 -122 286 -152 ct 
437 -556 l  512 -556 l  294 0 l  219 0 l  p ef
801 -130 m  871 -121 l  860 -80 839 -48 809 -25 ct 779 -2 741 9 694 9 ct 635 9 589 -9 554 -45 ct 
520 -82 502 -133 502 -198 ct 502 -266 520 -319 555 -356 ct 590 -393 635 -412 690 -412 ct 
744 -412 788 -394 822 -357 ct 856 -320 873 -269 873 -202 ct 873 -198 873 -192 873 -184 ct 
573 -184 l  575 -140 588 -106 610 -82 ct 633 -59 661 -47 695 -47 ct 720 -47 741 -54 759 -67 ct 
776 -80 790 -101 801 -130 ct p
577 -240 m  801 -240 l  798 -274 790 -300 776 -317 ct 754 -343 726 -356 691 -356 ct 
660 -356 633 -345 612 -324 ct 591 -303 579 -275 577 -240 ct p ef
956 0 m  956 -403 l  1018 -403 l  1018 -342 l  1033 -370 1048 -389 1061 -398 ct 
1074 -407 1089 -412 1105 -412 ct 1128 -412 1151 -405 1175 -390 ct 1152 -327 l 
1135 -337 1118 -341 1102 -341 ct 1087 -341 1073 -337 1061 -328 ct 1049 -319 1041 -307 1036 -291 ct 
1028 -266 1025 -240 1025 -211 ct 1025 0 l  956 0 l  p ef
1216 -477 m  1216 -556 l  1284 -556 l  1284 -477 l  1216 -477 l  p
1216 0 m  1216 -403 l  1284 -403 l  1284 0 l  1216 0 l  p ef
1405 0 m  1405 -350 l  1345 -350 l  1345 -403 l  1405 -403 l  1405 -446 l 
1405 -473 1408 -493 1413 -506 ct 1419 -524 1431 -538 1447 -549 ct 1464 -560 1487 -566 1517 -566 ct 
1536 -566 1557 -564 1581 -559 ct 1570 -500 l  1556 -502 1543 -503 1530 -503 ct 
1509 -503 1495 -499 1486 -490 ct 1478 -481 1473 -465 1473 -440 ct 1473 -403 l 
1552 -403 l  1552 -350 l  1473 -350 l  1473 0 l  1405 0 l  p ef
1606 -477 m  1606 -556 l  1674 -556 l  1674 -477 l  1606 -477 l  p
1606 0 m  1606 -403 l  1674 -403 l  1674 0 l  1606 0 l  p ef
2041 -148 m  2108 -139 l  2100 -93 2082 -56 2052 -30 ct 2021 -4 1984 9 1940 9 ct 
1885 9 1841 -9 1808 -45 ct 1774 -81 1757 -133 1757 -200 ct 1757 -244 1765 -282 1779 -314 ct 
1793 -347 1815 -371 1845 -388 ct 1874 -404 1906 -412 1941 -412 ct 1984 -412 2020 -401 2048 -379 ct 
2076 -357 2094 -325 2101 -285 ct 2035 -274 l  2029 -301 2018 -322 2002 -336 ct 
1985 -349 1966 -356 1943 -356 ct 1909 -356 1881 -344 1860 -319 ct 1838 -294 1827 -255 1827 -202 ct 
1827 -148 1838 -109 1858 -84 ct 1879 -59 1906 -47 1940 -47 ct 1966 -47 1989 -55 2007 -72 ct 
2025 -88 2036 -114 2041 -148 ct p ef
2431 -50 m  2405 -28 2381 -13 2358 -4 ct 2334 5 2309 9 2283 9 ct 2238 9 2204 -2 2181 -23 ct 
2157 -45 2145 -73 2145 -106 ct 2145 -126 2150 -144 2158 -160 ct 2167 -177 2179 -190 2194 -200 ct 
2208 -209 2225 -217 2243 -222 ct 2256 -226 2276 -229 2303 -232 ct 2359 -239 2399 -247 2425 -256 ct 
2425 -265 2425 -271 2425 -274 ct 2425 -301 2419 -321 2406 -332 ct 2389 -348 2363 -355 2328 -355 ct 
2296 -355 2273 -350 2257 -339 ct 2242 -327 2231 -307 2223 -279 ct 2157 -288 l 
2163 -317 2173 -340 2187 -357 ct 2201 -375 2221 -388 2247 -398 ct 2273 -407 2304 -412 2338 -412 ct 
2373 -412 2401 -408 2422 -400 ct 2444 -392 2459 -382 2469 -369 ct 2480 -357 2487 -342 2491 -323 ct 
2493 -311 2494 -290 2494 -260 ct 2494 -169 l  2494 -105 2495 -65 2498 -48 ct 
2501 -32 2507 -16 2516 0 ct 2444 0 l  2437 -14 2433 -31 2431 -50 ct p
2425 -202 m  2400 -192 2363 -184 2314 -176 ct 2286 -172 2266 -168 2254 -163 ct 
2243 -158 2234 -150 2227 -141 ct 2221 -131 2218 -120 2218 -108 ct 2218 -90 2225 -75 2238 -63 ct 
2252 -51 2272 -45 2299 -45 ct 2325 -45 2349 -50 2369 -62 ct 2389 -73 2404 -89 2414 -109 ct 
2421 -124 2425 -147 2425 -177 ct 2425 -202 l  p ef
2748 -61 m  2758 -1 l  2739 3 2722 5 2706 5 ct 2682 5 2662 1 2649 -7 ct 2635 -15 2626 -25 2620 -38 ct 
2614 -50 2612 -77 2612 -118 ct 2612 -350 l  2562 -350 l  2562 -403 l  2612 -403 l 
2612 -503 l  2679 -544 l  2679 -403 l  2748 -403 l  2748 -350 l  2679 -350 l 
2679 -114 l  2679 -95 2681 -83 2683 -77 ct 2685 -71 2689 -67 2695 -64 ct 2700 -60 2708 -59 2718 -59 ct 
2726 -59 2736 -60 2748 -61 ct p ef
2816 -477 m  2816 -556 l  2884 -556 l  2884 -477 l  2816 -477 l  p
2816 0 m  2816 -403 l  2884 -403 l  2884 0 l  2816 0 l  p ef
2964 -202 m  2964 -276 2984 -331 3026 -367 ct 3061 -397 3103 -412 3152 -412 ct 
3208 -412 3253 -394 3288 -358 ct 3323 -321 3341 -271 3341 -207 ct 3341 -155 3333 -115 3317 -85 ct 
3302 -55 3279 -32 3250 -16 ct 3220 1 3188 9 3152 9 ct 3096 9 3051 -9 3016 -45 ct 
2981 -81 2964 -133 2964 -202 ct p
3034 -202 m  3034 -150 3045 -111 3068 -86 ct 3090 -60 3118 -47 3152 -47 ct 3186 -47 3214 -60 3237 -86 ct 
3259 -112 3271 -151 3271 -204 ct 3271 -254 3259 -291 3237 -317 ct 3214 -343 3186 -355 3152 -355 ct 
3118 -355 3090 -343 3068 -317 ct 3045 -292 3034 -253 3034 -202 ct p ef
3421 0 m  3421 -403 l  3483 -403 l  3483 -346 l  3512 -390 3555 -412 3611 -412 ct 
3635 -412 3657 -408 3677 -399 ct 3698 -390 3713 -379 3723 -365 ct 3733 -350 3740 -334 3744 -314 ct 
3747 -301 3748 -279 3748 -248 ct 3748 0 l  3680 0 l  3680 -245 l  3680 -273 3677 -294 3672 -307 ct 
3667 -321 3657 -332 3644 -341 ct 3630 -349 3614 -353 3596 -353 ct 3567 -353 3542 -344 3521 -325 ct 
3500 -307 3489 -272 3489 -220 ct 3489 0 l  3421 0 l  p ef
pom
0.003 0.003 0.003 c 2101 21178 m  2101 21077 2088 20992 2065 20921 ct 2089 20913 l 
2113 20905 l  2137 20981 2151 21071 2151 21178 ct 2126 21178 l  2101 21178 l 
p ef
2065 20921 m  2054 20886 2040 20854 2023 20826 ct 2045 20814 l  2067 20801 l 
2085 20832 2100 20867 2113 20905 ct 2089 20913 l  2065 20921 l  p ef
2023 20826 m  2007 20798 1989 20774 1969 20752 ct 1987 20735 l  2005 20718 l 
2028 20742 2049 20770 2067 20801 ct 2045 20814 l  2023 20826 l  p ef
1969 20752 m  1949 20730 1926 20712 1903 20696 ct 1916 20675 l  1930 20654 l 
1957 20672 1982 20693 2005 20718 ct 1987 20735 l  1969 20752 l  p ef
1903 20696 m  1879 20681 1853 20668 1826 20658 ct 1835 20634 l  1844 20611 l 
1874 20622 1903 20637 1930 20654 ct 1916 20675 l  1903 20696 l  p ef
1826 20658 m  1772 20637 1712 20628 1648 20628 ct 1648 20603 l  1648 20578 l 
1718 20578 1784 20588 1844 20611 ct 1835 20634 l  1826 20658 l  p ef
1648 20628 m  1590 20628 1530 20636 1468 20650 ct 1462 20626 l  1456 20602 l 
1522 20586 1587 20578 1648 20578 ct 1648 20603 l  1648 20628 l  p ef
1468 20650 m  1406 20665 1343 20687 1280 20715 ct 1270 20692 l  1260 20669 l 
1325 20640 1391 20617 1456 20602 ct 1462 20626 l  1468 20650 l  p ef
1280 20715 m  1155 20770 1033 20849 929 20943 ct 912 20924 l  895 20905 l 
1004 20808 1130 20726 1260 20669 ct 1270 20692 l  1280 20715 l  p ef
929 20943 m  804 21054 710 21168 646 21278 ct 624 21265 l  603 21253 l  669 21139 767 21021 895 20905 ct 
912 20924 l  929 20943 l  p ef
646 21278 m  615 21332 591 21385 575 21437 ct 551 21429 l  527 21422 l  544 21367 569 21310 603 21253 ct 
624 21265 l  646 21278 l  p ef
575 21437 m  559 21487 551 21536 551 21583 ct 526 21583 l  501 21583 l  501 21532 510 21478 527 21422 ct 
551 21429 l  575 21437 l  p ef
551 21583 m  551 21618 556 21652 565 21684 ct 541 21692 l  517 21699 l  507 21662 501 21623 501 21583 ct 
526 21583 l  551 21583 l  p ef
565 21684 m  575 21716 589 21747 608 21775 ct 587 21789 l  566 21803 l  545 21770 528 21735 517 21699 ct 
541 21692 l  565 21684 l  p ef
608 21775 m  627 21803 651 21829 680 21853 ct 664 21872 l  648 21891 l  615 21864 588 21835 566 21803 ct 
587 21789 l  608 21775 l  p ef
680 21853 m  709 21877 743 21898 783 21917 ct 772 21939 l  761 21962 l  718 21941 680 21918 648 21891 ct 
664 21872 l  680 21853 l  p ef
1122 22004 m  724 21745 l  649 22036 l  1122 22004 l  p ef

pum
124 20252 t
0.230 0.226 0.210 c 50 0 m  50 -403 l  112 -403 l  112 -342 l  127 -370 142 -389 155 -398 ct 
168 -407 183 -412 199 -412 ct 222 -412 245 -405 269 -390 ct 246 -327 l  229 -337 212 -341 196 -341 ct 
181 -341 167 -337 155 -328 ct 143 -319 135 -307 130 -291 ct 122 -266 119 -240 119 -211 ct 
119 0 l  50 0 l  p ef
585 -130 m  655 -121 l  644 -80 623 -48 593 -25 ct 563 -2 525 9 478 9 ct 419 9 373 -9 338 -45 ct 
304 -82 286 -133 286 -198 ct 286 -266 304 -319 339 -356 ct 374 -393 419 -412 474 -412 ct 
528 -412 572 -394 606 -357 ct 640 -320 657 -269 657 -202 ct 657 -198 657 -192 657 -184 ct 
357 -184 l  359 -140 372 -106 394 -82 ct 417 -59 445 -47 479 -47 ct 504 -47 525 -54 543 -67 ct 
560 -80 574 -101 585 -130 ct p
361 -240 m  585 -240 l  582 -274 574 -300 560 -317 ct 538 -343 510 -356 475 -356 ct 
444 -356 417 -345 396 -324 ct 375 -303 363 -275 361 -240 ct p ef
757 0 m  757 -350 l  697 -350 l  697 -403 l  757 -403 l  757 -446 l  757 -473 760 -493 765 -506 ct 
771 -524 783 -538 799 -549 ct 816 -560 839 -566 869 -566 ct 888 -566 909 -564 933 -559 ct 
922 -500 l  908 -502 895 -503 882 -503 ct 861 -503 847 -499 838 -490 ct 830 -481 825 -465 825 -440 ct 
825 -403 l  904 -403 l  904 -350 l  825 -350 l  825 0 l  757 0 l  p ef
958 -477 m  958 -556 l  1026 -556 l  1026 -477 l  958 -477 l  p
958 0 m  958 -403 l  1026 -403 l  1026 0 l  958 0 l  p ef
1131 0 m  1131 -403 l  1193 -403 l  1193 -346 l  1222 -390 1265 -412 1321 -412 ct 
1345 -412 1367 -408 1387 -399 ct 1408 -390 1423 -379 1433 -365 ct 1443 -350 1450 -334 1454 -314 ct 
1457 -301 1458 -279 1458 -248 ct 1458 0 l  1390 0 l  1390 -245 l  1390 -273 1387 -294 1382 -307 ct 
1377 -321 1367 -332 1354 -341 ct 1340 -349 1324 -353 1306 -353 ct 1277 -353 1252 -344 1231 -325 ct 
1210 -307 1199 -272 1199 -220 ct 1199 0 l  1131 0 l  p ef
1838 -130 m  1908 -121 l  1897 -80 1876 -48 1846 -25 ct 1816 -2 1778 9 1731 9 ct 
1672 9 1626 -9 1591 -45 ct 1557 -82 1539 -133 1539 -198 ct 1539 -266 1557 -319 1592 -356 ct 
1627 -393 1672 -412 1727 -412 ct 1781 -412 1825 -394 1859 -357 ct 1893 -320 1910 -269 1910 -202 ct 
1910 -198 1910 -192 1910 -184 ct 1610 -184 l  1612 -140 1625 -106 1647 -82 ct 
1670 -59 1698 -47 1732 -47 ct 1757 -47 1778 -54 1796 -67 ct 1813 -80 1827 -101 1838 -130 ct 
p
1614 -240 m  1838 -240 l  1835 -274 1827 -300 1813 -317 ct 1791 -343 1763 -356 1728 -356 ct 
1697 -356 1670 -345 1649 -324 ct 1628 -303 1616 -275 1614 -240 ct p ef
1994 0 m  1994 -403 l  2055 -403 l  2055 -346 l  2068 -366 2085 -382 2106 -394 ct 
2127 -406 2150 -412 2177 -412 ct 2207 -412 2231 -406 2250 -393 ct 2270 -381 2283 -364 2291 -341 ct 
2323 -388 2364 -412 2415 -412 ct 2455 -412 2486 -401 2507 -379 ct 2529 -357 2539 -323 2539 -277 ct 
2539 0 l  2472 0 l  2472 -254 l  2472 -281 2469 -301 2465 -313 ct 2461 -325 2453 -335 2441 -342 ct 
2429 -349 2416 -353 2400 -353 ct 2372 -353 2348 -343 2329 -325 ct 2311 -306 2301 -276 2301 -234 ct 
2301 0 l  2233 0 l  2233 -262 l  2233 -292 2228 -315 2217 -330 ct 2205 -345 2187 -353 2162 -353 ct 
2143 -353 2125 -348 2109 -338 ct 2092 -328 2081 -313 2073 -293 ct 2066 -274 2062 -246 2062 -209 ct 
2062 0 l  1994 0 l  p ef
2914 -130 m  2984 -121 l  2973 -80 2952 -48 2922 -25 ct 2892 -2 2854 9 2807 9 ct 
2748 9 2702 -9 2667 -45 ct 2633 -82 2615 -133 2615 -198 ct 2615 -266 2633 -319 2668 -356 ct 
2703 -393 2748 -412 2803 -412 ct 2857 -412 2901 -394 2935 -357 ct 2969 -320 2986 -269 2986 -202 ct 
2986 -198 2986 -192 2986 -184 ct 2686 -184 l  2688 -140 2701 -106 2723 -82 ct 
2746 -59 2774 -47 2808 -47 ct 2833 -47 2854 -54 2872 -67 ct 2889 -80 2903 -101 2914 -130 ct 
p
2690 -240 m  2914 -240 l  2911 -274 2903 -300 2889 -317 ct 2867 -343 2839 -356 2804 -356 ct 
2773 -356 2746 -345 2725 -324 ct 2704 -303 2692 -275 2690 -240 ct p ef
3069 0 m  3069 -403 l  3131 -403 l  3131 -346 l  3160 -390 3203 -412 3259 -412 ct 
3283 -412 3305 -408 3325 -399 ct 3346 -390 3361 -379 3371 -365 ct 3381 -350 3388 -334 3392 -314 ct 
3395 -301 3396 -279 3396 -248 ct 3396 0 l  3328 0 l  3328 -245 l  3328 -273 3325 -294 3320 -307 ct 
3315 -321 3305 -332 3292 -341 ct 3278 -349 3262 -353 3244 -353 ct 3215 -353 3190 -344 3169 -325 ct 
3148 -307 3137 -272 3137 -220 ct 3137 0 l  3069 0 l  p ef
3650 -61 m  3660 -1 l  3641 3 3624 5 3608 5 ct 3584 5 3564 1 3551 -7 ct 3537 -15 3528 -25 3522 -38 ct 
3516 -50 3514 -77 3514 -118 ct 3514 -350 l  3464 -350 l  3464 -403 l  3514 -403 l 
3514 -503 l  3581 -544 l  3581 -403 l  3650 -403 l  3650 -350 l  3581 -350 l 
3581 -114 l  3581 -95 3583 -83 3585 -77 ct 3587 -71 3591 -67 3597 -64 ct 3602 -60 3610 -59 3620 -59 ct 
3628 -59 3638 -60 3650 -61 ct p ef
pom
0.800 0.800 0.800 c 15896 23844 m  11171 23844 l  11171 21177 l  20620 21177 l 
20620 23844 l  15896 23844 l  p ef
0.003 0.003 0.003 c 15896 23844 m  11171 23844 l  11171 21177 l  20620 21177 l 
20620 23844 l  15896 23844 l  pc
pum
14473 22346 t
0.230 0.226 0.210 c 59 0 m  59 -556 l  135 -556 l  426 -120 l  426 -556 l 
497 -556 l  497 0 l  421 0 l  130 -437 l  130 0 l  59 0 l  p ef
886 -130 m  956 -121 l  945 -80 924 -48 894 -25 ct 864 -2 826 9 779 9 ct 720 9 674 -9 639 -45 ct 
605 -82 587 -133 587 -198 ct 587 -266 605 -319 640 -356 ct 675 -393 720 -412 775 -412 ct 
829 -412 873 -394 907 -357 ct 941 -320 958 -269 958 -202 ct 958 -198 958 -192 958 -184 ct 
658 -184 l  660 -140 673 -106 695 -82 ct 718 -59 746 -47 780 -47 ct 805 -47 826 -54 844 -67 ct 
861 -80 875 -101 886 -130 ct p
662 -240 m  886 -240 l  883 -274 875 -300 861 -317 ct 839 -343 811 -356 776 -356 ct 
745 -356 718 -345 697 -324 ct 676 -303 664 -275 662 -240 ct p ef
1191 -61 m  1201 -1 l  1182 3 1165 5 1149 5 ct 1125 5 1105 1 1092 -7 ct 1078 -15 1069 -25 1063 -38 ct 
1057 -50 1055 -77 1055 -118 ct 1055 -350 l  1005 -350 l  1005 -403 l  1055 -403 l 
1055 -503 l  1122 -544 l  1122 -403 l  1191 -403 l  1191 -350 l  1122 -350 l 
1122 -114 l  1122 -95 1124 -83 1126 -77 ct 1128 -71 1132 -67 1138 -64 ct 1143 -60 1151 -59 1161 -59 ct 
1169 -59 1179 -60 1191 -61 ct p ef
1332 0 m  1209 -403 l  1280 -403 l  1344 -170 l  1368 -84 l  1369 -88 1376 -116 1389 -167 ct 
1453 -403 l  1523 -403 l  1583 -169 l  1603 -92 l  1626 -170 l  1695 -403 l 
1761 -403 l  1636 0 l  1565 0 l  1501 -241 l  1485 -310 l  1404 0 l  1332 0 l 
p ef
1791 -202 m  1791 -276 1811 -331 1853 -367 ct 1888 -397 1930 -412 1979 -412 ct 
2035 -412 2080 -394 2115 -358 ct 2150 -321 2168 -271 2168 -207 ct 2168 -155 2160 -115 2144 -85 ct 
2129 -55 2106 -32 2077 -16 ct 2047 1 2015 9 1979 9 ct 1923 9 1878 -9 1843 -45 ct 
1808 -81 1791 -133 1791 -202 ct p
1861 -202 m  1861 -150 1872 -111 1895 -86 ct 1917 -60 1945 -47 1979 -47 ct 2013 -47 2041 -60 2064 -86 ct 
2086 -112 2098 -151 2098 -204 ct 2098 -254 2086 -291 2064 -317 ct 2041 -343 2013 -355 1979 -355 ct 
1945 -355 1917 -343 1895 -317 ct 1872 -292 1861 -253 1861 -202 ct p ef
2247 0 m  2247 -403 l  2309 -403 l  2309 -342 l  2324 -370 2339 -389 2352 -398 ct 
2365 -407 2380 -412 2396 -412 ct 2419 -412 2442 -405 2466 -390 ct 2443 -327 l 
2426 -337 2409 -341 2393 -341 ct 2378 -341 2364 -337 2352 -328 ct 2340 -319 2332 -307 2327 -291 ct 
2319 -266 2316 -240 2316 -211 ct 2316 0 l  2247 0 l  p ef
2507 0 m  2507 -556 l  2575 -556 l  2575 -239 l  2736 -403 l  2824 -403 l 
2671 -253 l  2840 0 l  2756 0 l  2623 -206 l  2575 -160 l  2575 0 l  2507 0 l 
p ef
pom
pum
11427 23214 t
60 0 m  60 -556 l  251 -556 l  294 -556 327 -553 350 -548 ct 382 -541 409 -527 432 -508 ct 
461 -483 483 -452 497 -413 ct 512 -375 519 -331 519 -281 ct 519 -239 514 -201 504 -169 ct 
494 -136 482 -109 466 -88 ct 451 -66 434 -50 416 -37 ct 398 -25 375 -16 350 -9 ct 
324 -3 294 0 260 0 ct 60 0 l  p
133 -66 m  252 -66 l  289 -66 317 -69 338 -76 ct 359 -83 376 -92 388 -105 ct 
405 -122 419 -146 429 -175 ct 438 -204 443 -240 443 -282 ct 443 -340 434 -385 415 -416 ct 
396 -447 372 -468 345 -479 ct 325 -487 294 -490 250 -490 ct 133 -490 l  133 -66 l 
p ef
886 -130 m  956 -121 l  945 -80 924 -48 894 -25 ct 864 -2 826 9 779 9 ct 720 9 674 -9 639 -45 ct 
605 -82 587 -133 587 -198 ct 587 -266 605 -319 640 -356 ct 675 -393 720 -412 775 -412 ct 
829 -412 873 -394 907 -357 ct 941 -320 958 -269 958 -202 ct 958 -198 958 -192 958 -184 ct 
658 -184 l  660 -140 673 -106 695 -82 ct 718 -59 746 -47 780 -47 ct 805 -47 826 -54 844 -67 ct 
861 -80 875 -101 886 -130 ct p
662 -240 m  886 -240 l  883 -274 875 -300 861 -317 ct 839 -343 811 -356 776 -356 ct 
745 -356 718 -345 697 -324 ct 676 -303 664 -275 662 -240 ct p ef
1015 -120 m  1082 -131 l  1086 -104 1097 -83 1114 -69 ct 1131 -54 1155 -47 1187 -47 ct 
1218 -47 1241 -54 1256 -66 ct 1271 -79 1279 -94 1279 -111 ct 1279 -127 1272 -139 1259 -148 ct 
1250 -154 1226 -161 1189 -171 ct 1139 -183 1104 -194 1085 -204 ct 1066 -213 1051 -226 1041 -242 ct 
1031 -258 1026 -276 1026 -296 ct 1026 -314 1030 -331 1039 -346 ct 1047 -361 1058 -374 1072 -384 ct 
1083 -392 1097 -399 1115 -404 ct 1134 -409 1153 -412 1174 -412 ct 1206 -412 1234 -408 1258 -398 ct 
1281 -389 1299 -377 1310 -362 ct 1322 -346 1330 -325 1334 -299 ct 1267 -290 l 
1264 -311 1255 -327 1241 -339 ct 1226 -350 1206 -356 1179 -356 ct 1148 -356 1126 -351 1112 -340 ct 
1099 -330 1092 -318 1092 -304 ct 1092 -295 1095 -287 1101 -280 ct 1106 -273 1115 -267 1127 -262 ct 
1133 -259 1154 -254 1187 -244 ct 1235 -232 1269 -221 1288 -213 ct 1307 -205 1322 -193 1333 -177 ct 
1344 -161 1349 -142 1349 -118 ct 1349 -96 1342 -74 1329 -54 ct 1316 -34 1297 -19 1272 -8 ct 
1247 3 1218 9 1187 9 ct 1135 9 1095 -2 1067 -24 ct 1040 -45 1022 -78 1015 -120 ct 
p ef
1432 -477 m  1432 -556 l  1500 -556 l  1500 -477 l  1432 -477 l  p
1432 0 m  1432 -403 l  1500 -403 l  1500 0 l  1432 0 l  p ef
1593 33 m  1659 43 l  1662 63 1669 78 1682 88 ct 1699 100 1722 106 1751 106 ct 
1783 106 1807 100 1825 88 ct 1842 75 1853 57 1859 34 ct 1863 20 1865 -9 1864 -53 ct 
1835 -18 1797 0 1753 0 ct 1698 0 1655 -20 1624 -60 ct 1594 -100 1579 -148 1579 -204 ct 
1579 -243 1586 -278 1600 -311 ct 1614 -343 1634 -368 1660 -386 ct 1687 -404 1718 -413 1753 -413 ct 
1801 -413 1840 -393 1871 -355 ct 1871 -403 l  1934 -403 l  1934 -55 l  1934 8 1927 52 1915 78 ct 
1902 104 1882 125 1854 140 ct 1826 155 1792 163 1752 163 ct 1704 163 1665 152 1635 131 ct 
1606 109 1592 76 1593 33 ct p
1649 -209 m  1649 -156 1660 -118 1681 -93 ct 1702 -69 1728 -57 1759 -57 ct 1791 -57 1817 -69 1838 -93 ct 
1859 -117 1870 -155 1870 -207 ct 1870 -256 1859 -293 1837 -318 ct 1815 -343 1789 -356 1758 -356 ct 
1728 -356 1702 -344 1681 -319 ct 1660 -294 1649 -258 1649 -209 ct p ef
2036 0 m  2036 -403 l  2098 -403 l  2098 -346 l  2127 -390 2170 -412 2226 -412 ct 
2250 -412 2272 -408 2292 -399 ct 2313 -390 2328 -379 2338 -365 ct 2348 -350 2355 -334 2359 -314 ct 
2362 -301 2363 -279 2363 -248 ct 2363 0 l  2295 0 l  2295 -245 l  2295 -273 2292 -294 2287 -307 ct 
2282 -321 2272 -332 2259 -341 ct 2245 -349 2229 -353 2211 -353 ct 2182 -353 2157 -344 2136 -325 ct 
2115 -307 2104 -272 2104 -220 ct 2104 0 l  2036 0 l  p ef
2668 -179 m  2737 -185 l  2740 -157 2748 -135 2760 -117 ct 2772 -99 2791 -85 2816 -74 ct 
2841 -63 2870 -57 2901 -57 ct 2929 -57 2954 -61 2976 -70 ct 2997 -78 3013 -89 3023 -104 ct 
3034 -118 3039 -134 3039 -151 ct 3039 -169 3034 -184 3024 -197 ct 3014 -210 2997 -221 2974 -230 ct 
2959 -236 2926 -245 2875 -257 ct 2824 -269 2788 -281 2768 -292 ct 2741 -306 2722 -323 2709 -344 ct 
2696 -364 2689 -387 2689 -413 ct 2689 -441 2697 -467 2713 -491 ct 2729 -516 2752 -534 2783 -547 ct 
2813 -560 2847 -566 2885 -566 ct 2926 -566 2962 -559 2994 -546 ct 3025 -533 3049 -513 3066 -487 ct 
3083 -462 3092 -432 3093 -400 ct 3023 -395 l  3019 -430 3006 -456 2984 -474 ct 
2963 -492 2930 -501 2888 -501 ct 2843 -501 2811 -493 2790 -477 ct 2770 -460 2760 -441 2760 -418 ct 
2760 -398 2767 -381 2782 -368 ct 2796 -355 2833 -342 2892 -329 ct 2952 -315 2993 -303 3015 -293 ct 
3048 -278 3072 -259 3087 -237 ct 3102 -214 3110 -187 3110 -158 ct 3110 -128 3102 -100 3085 -74 ct 
3068 -48 3043 -27 3012 -13 ct 2980 2 2944 9 2905 9 ct 2854 9 2812 2 2778 -13 ct 
2744 -28 2718 -50 2698 -79 ct 2679 -109 2669 -142 2668 -179 ct p ef
3201 154 m  3201 -403 l  3263 -403 l  3263 -351 l  3278 -372 3294 -387 3313 -397 ct 
3331 -407 3354 -412 3380 -412 ct 3414 -412 3445 -404 3471 -386 ct 3497 -368 3517 -343 3530 -311 ct 
3544 -279 3551 -243 3551 -205 ct 3551 -164 3543 -126 3528 -93 ct 3514 -60 3492 -35 3464 -17 ct 
3436 0 3406 9 3375 9 ct 3352 9 3332 4 3314 -5 ct 3296 -15 3281 -27 3269 -42 ct 
3269 154 l  3201 154 l  p
3263 -199 m  3263 -148 3273 -109 3294 -84 ct 3315 -60 3341 -47 3371 -47 ct 3401 -47 3427 -60 3448 -86 ct 
3470 -111 3481 -151 3481 -205 ct 3481 -257 3470 -295 3449 -321 ct 3428 -346 3403 -359 3374 -359 ct 
3345 -359 3319 -345 3296 -318 ct 3274 -291 3263 -251 3263 -199 ct p ef
3895 -50 m  3869 -28 3845 -13 3822 -4 ct 3798 5 3773 9 3747 9 ct 3702 9 3668 -2 3645 -23 ct 
3621 -45 3609 -73 3609 -106 ct 3609 -126 3614 -144 3622 -160 ct 3631 -177 3643 -190 3658 -200 ct 
3672 -209 3689 -217 3707 -222 ct 3720 -226 3740 -229 3767 -232 ct 3823 -239 3863 -247 3889 -256 ct 
3889 -265 3889 -271 3889 -274 ct 3889 -301 3883 -321 3870 -332 ct 3853 -348 3827 -355 3792 -355 ct 
3760 -355 3737 -350 3721 -339 ct 3706 -327 3695 -307 3687 -279 ct 3621 -288 l 
3627 -317 3637 -340 3651 -357 ct 3665 -375 3685 -388 3711 -398 ct 3737 -407 3768 -412 3802 -412 ct 
3837 -412 3865 -408 3886 -400 ct 3908 -392 3923 -382 3933 -369 ct 3944 -357 3951 -342 3955 -323 ct 
3957 -311 3958 -290 3958 -260 ct 3958 -169 l  3958 -105 3959 -65 3962 -48 ct 
3965 -32 3971 -16 3980 0 ct 3908 0 l  3901 -14 3897 -31 3895 -50 ct p
3889 -202 m  3864 -192 3827 -184 3778 -176 ct 3750 -172 3730 -168 3718 -163 ct 
3707 -158 3698 -150 3691 -141 ct 3685 -131 3682 -120 3682 -108 ct 3682 -90 3689 -75 3702 -63 ct 
3716 -51 3736 -45 3763 -45 ct 3789 -45 3813 -50 3833 -62 ct 3853 -73 3868 -89 3878 -109 ct 
3885 -124 3889 -147 3889 -177 ct 3889 -202 l  p ef
4327 -148 m  4394 -139 l  4386 -93 4368 -56 4338 -30 ct 4307 -4 4270 9 4226 9 ct 
4171 9 4127 -9 4094 -45 ct 4060 -81 4043 -133 4043 -200 ct 4043 -244 4051 -282 4065 -314 ct 
4079 -347 4101 -371 4131 -388 ct 4160 -404 4192 -412 4227 -412 ct 4270 -412 4306 -401 4334 -379 ct 
4362 -357 4380 -325 4387 -285 ct 4321 -274 l  4315 -301 4304 -322 4288 -336 ct 
4271 -349 4252 -356 4229 -356 ct 4195 -356 4167 -344 4146 -319 ct 4124 -294 4113 -255 4113 -202 ct 
4113 -148 4124 -109 4144 -84 ct 4165 -59 4192 -47 4226 -47 ct 4252 -47 4275 -55 4293 -72 ct 
4311 -88 4322 -114 4327 -148 ct p ef
4730 -130 m  4800 -121 l  4789 -80 4768 -48 4738 -25 ct 4708 -2 4670 9 4623 9 ct 
4564 9 4518 -9 4483 -45 ct 4449 -82 4431 -133 4431 -198 ct 4431 -266 4449 -319 4484 -356 ct 
4519 -393 4564 -412 4619 -412 ct 4673 -412 4717 -394 4751 -357 ct 4785 -320 4802 -269 4802 -202 ct 
4802 -198 4802 -192 4802 -184 ct 4502 -184 l  4504 -140 4517 -106 4539 -82 ct 
4562 -59 4590 -47 4624 -47 ct 4649 -47 4670 -54 4688 -67 ct 4705 -80 4719 -101 4730 -130 ct 
p
4506 -240 m  4730 -240 l  4727 -274 4719 -300 4705 -317 ct 4683 -343 4655 -356 4620 -356 ct 
4589 -356 4562 -345 4541 -324 ct 4520 -303 4508 -275 4506 -240 ct p ef
5111 0 m  5111 -556 l  5513 -556 l  5513 -490 l  5185 -490 l  5185 -320 l 
5492 -320 l  5492 -255 l  5185 -255 l  5185 -66 l  5526 -66 l  5526 0 l 
5111 0 l  p ef
5573 0 m  5720 -209 l  5584 -403 l  5669 -403 l  5731 -308 l  5742 -290 5752 -275 5759 -263 ct 
5770 -280 5780 -295 5789 -308 ct 5857 -403 l  5939 -403 l  5800 -213 l  5949 0 l 
5866 0 l  5783 -125 l  5761 -159 l  5655 0 l  5573 0 l  p ef
6007 154 m  6007 -403 l  6069 -403 l  6069 -351 l  6084 -372 6100 -387 6119 -397 ct 
6137 -407 6160 -412 6186 -412 ct 6220 -412 6251 -404 6277 -386 ct 6303 -368 6323 -343 6336 -311 ct 
6350 -279 6357 -243 6357 -205 ct 6357 -164 6349 -126 6334 -93 ct 6320 -60 6298 -35 6270 -17 ct 
6242 0 6212 9 6181 9 ct 6158 9 6138 4 6120 -5 ct 6102 -15 6087 -27 6075 -42 ct 
6075 154 l  6007 154 l  p
6069 -199 m  6069 -148 6079 -109 6100 -84 ct 6121 -60 6147 -47 6177 -47 ct 6207 -47 6233 -60 6254 -86 ct 
6276 -111 6287 -151 6287 -205 ct 6287 -257 6276 -295 6255 -321 ct 6234 -346 6209 -359 6180 -359 ct 
6151 -359 6125 -345 6102 -318 ct 6080 -291 6069 -251 6069 -199 ct p ef
6438 0 m  6438 -556 l  6506 -556 l  6506 0 l  6438 0 l  p ef
6588 -202 m  6588 -276 6608 -331 6650 -367 ct 6685 -397 6727 -412 6776 -412 ct 
6832 -412 6877 -394 6912 -358 ct 6947 -321 6965 -271 6965 -207 ct 6965 -155 6957 -115 6941 -85 ct 
6926 -55 6903 -32 6874 -16 ct 6844 1 6812 9 6776 9 ct 6720 9 6675 -9 6640 -45 ct 
6605 -81 6588 -133 6588 -202 ct p
6658 -202 m  6658 -150 6669 -111 6692 -86 ct 6714 -60 6742 -47 6776 -47 ct 6810 -47 6838 -60 6861 -86 ct 
6883 -112 6895 -151 6895 -204 ct 6895 -254 6883 -291 6861 -317 ct 6838 -343 6810 -355 6776 -355 ct 
6742 -355 6714 -343 6692 -317 ct 6669 -292 6658 -253 6658 -202 ct p ef
7043 0 m  7043 -403 l  7105 -403 l  7105 -342 l  7120 -370 7135 -389 7148 -398 ct 
7161 -407 7176 -412 7192 -412 ct 7215 -412 7238 -405 7262 -390 ct 7239 -327 l 
7222 -337 7205 -341 7189 -341 ct 7174 -341 7160 -337 7148 -328 ct 7136 -319 7128 -307 7123 -291 ct 
7115 -266 7112 -240 7112 -211 ct 7112 0 l  7043 0 l  p ef
7566 -50 m  7540 -28 7516 -13 7493 -4 ct 7469 5 7444 9 7418 9 ct 7373 9 7339 -2 7316 -23 ct 
7292 -45 7280 -73 7280 -106 ct 7280 -126 7285 -144 7293 -160 ct 7302 -177 7314 -190 7329 -200 ct 
7343 -209 7360 -217 7378 -222 ct 7391 -226 7411 -229 7438 -232 ct 7494 -239 7534 -247 7560 -256 ct 
7560 -265 7560 -271 7560 -274 ct 7560 -301 7554 -321 7541 -332 ct 7524 -348 7498 -355 7463 -355 ct 
7431 -355 7408 -350 7392 -339 ct 7377 -327 7366 -307 7358 -279 ct 7292 -288 l 
7298 -317 7308 -340 7322 -357 ct 7336 -375 7356 -388 7382 -398 ct 7408 -407 7439 -412 7473 -412 ct 
7508 -412 7536 -408 7557 -400 ct 7579 -392 7594 -382 7604 -369 ct 7615 -357 7622 -342 7626 -323 ct 
7628 -311 7629 -290 7629 -260 ct 7629 -169 l  7629 -105 7630 -65 7633 -48 ct 
7636 -32 7642 -16 7651 0 ct 7579 0 l  7572 -14 7568 -31 7566 -50 ct p
7560 -202 m  7535 -192 7498 -184 7449 -176 ct 7421 -172 7401 -168 7389 -163 ct 
7378 -158 7369 -150 7362 -141 ct 7356 -131 7353 -120 7353 -108 ct 7353 -90 7360 -75 7373 -63 ct 
7387 -51 7407 -45 7434 -45 ct 7460 -45 7484 -50 7504 -62 ct 7524 -73 7539 -89 7549 -109 ct 
7556 -124 7560 -147 7560 -177 ct 7560 -202 l  p ef
7884 -61 m  7894 -1 l  7875 3 7858 5 7842 5 ct 7818 5 7798 1 7785 -7 ct 7771 -15 7762 -25 7756 -38 ct 
7750 -50 7748 -77 7748 -118 ct 7748 -350 l  7698 -350 l  7698 -403 l  7748 -403 l 
7748 -503 l  7815 -544 l  7815 -403 l  7884 -403 l  7884 -350 l  7815 -350 l 
7815 -114 l  7815 -95 7817 -83 7819 -77 ct 7821 -71 7825 -67 7831 -64 ct 7836 -60 7844 -59 7854 -59 ct 
7862 -59 7872 -60 7884 -61 ct p ef
7951 -477 m  7951 -556 l  8019 -556 l  8019 -477 l  7951 -477 l  p
7951 0 m  7951 -403 l  8019 -403 l  8019 0 l  7951 0 l  p ef
8099 -202 m  8099 -276 8119 -331 8161 -367 ct 8196 -397 8238 -412 8287 -412 ct 
8343 -412 8388 -394 8423 -358 ct 8458 -321 8476 -271 8476 -207 ct 8476 -155 8468 -115 8452 -85 ct 
8437 -55 8414 -32 8385 -16 ct 8355 1 8323 9 8287 9 ct 8231 9 8186 -9 8151 -45 ct 
8116 -81 8099 -133 8099 -202 ct p
8169 -202 m  8169 -150 8180 -111 8203 -86 ct 8225 -60 8253 -47 8287 -47 ct 8321 -47 8349 -60 8372 -86 ct 
8394 -112 8406 -151 8406 -204 ct 8406 -254 8394 -291 8372 -317 ct 8349 -343 8321 -355 8287 -355 ct 
8253 -355 8225 -343 8203 -317 ct 8180 -292 8169 -253 8169 -202 ct p ef
8556 0 m  8556 -403 l  8618 -403 l  8618 -346 l  8647 -390 8690 -412 8746 -412 ct 
8770 -412 8792 -408 8812 -399 ct 8833 -390 8848 -379 8858 -365 ct 8868 -350 8875 -334 8879 -314 ct 
8882 -301 8883 -279 8883 -248 ct 8883 0 l  8815 0 l  8815 -245 l  8815 -273 8812 -294 8807 -307 ct 
8802 -321 8792 -332 8779 -341 ct 8765 -349 8749 -353 8731 -353 ct 8702 -353 8677 -344 8656 -325 ct 
8635 -307 8624 -272 8624 -220 ct 8624 0 l  8556 0 l  p ef
pom
0.003 0.003 0.003 c 12360 21178 m  12360 21078 12346 20993 12319 20922 ct 12343 20913 l 
12366 20904 l  12394 20980 12410 21071 12410 21178 ct 12385 21178 l  12360 21178 l 
p ef
12319 20922 m  12306 20887 12290 20855 12272 20827 ct 12293 20814 l  12314 20800 l 
12334 20831 12352 20866 12366 20904 ct 12343 20913 l  12319 20922 l  p ef
12272 20827 m  12254 20799 12233 20775 12210 20753 ct 12227 20735 l  12244 20717 l 
12270 20741 12293 20769 12314 20800 ct 12293 20814 l  12272 20827 l  p ef
12210 20753 m  12187 20731 12162 20713 12134 20697 ct 12147 20675 l  12160 20654 l 
12190 20671 12218 20692 12244 20717 ct 12227 20735 l  12210 20753 l  p ef
12134 20697 m  12107 20681 12078 20668 12047 20658 ct 12055 20634 l  12063 20611 l 
12097 20622 12129 20636 12160 20654 ct 12147 20675 l  12134 20697 l  p ef
12047 20658 m  11985 20637 11916 20628 11843 20628 ct 11843 20603 l  11843 20578 l 
11921 20578 11996 20588 12063 20611 ct 12055 20634 l  12047 20658 l  p ef
11843 20628 m  11711 20628 11566 20660 11426 20715 ct 11416 20692 l  11407 20669 l 
11554 20611 11705 20578 11843 20578 ct 11843 20603 l  11843 20628 l  p ef
11426 20715 m  11284 20771 11147 20850 11031 20943 ct 11015 20924 l  10999 20905 l 
11120 20807 11261 20726 11407 20669 ct 11416 20692 l  11426 20715 l  p ef
11031 20943 m  10889 21057 10783 21173 10712 21286 ct 10691 21272 l  10670 21259 l 
10743 21143 10853 21022 10999 20905 ct 11015 20924 l  11031 20943 l  p ef
10712 21286 m  10677 21341 10651 21395 10633 21447 ct 10610 21439 l  10586 21431 l 
10605 21375 10633 21318 10670 21259 ct 10691 21272 l  10712 21286 l  p ef
10633 21447 m  10616 21498 10607 21548 10607 21595 ct 10582 21595 l  10557 21595 l 
10557 21543 10567 21488 10586 21431 ct 10610 21439 l  10633 21447 l  p ef
10607 21595 m  10607 21629 10612 21661 10621 21692 ct 10597 21700 l  10573 21707 l 
10563 21671 10557 21634 10557 21595 ct 10582 21595 l  10607 21595 l  p ef
10621 21692 m  10630 21723 10644 21752 10663 21779 ct 10642 21793 l  10622 21807 l 
10600 21776 10584 21742 10573 21707 ct 10597 21700 l  10621 21692 l  p ef
10663 21779 m  10681 21806 10705 21832 10733 21854 ct 10717 21874 l  10701 21893 l 
10669 21867 10643 21838 10622 21807 ct 10642 21793 l  10663 21779 l  p ef
10733 21854 m  10761 21878 10795 21898 10833 21917 ct 10822 21939 l  10811 21962 l 
10769 21942 10733 21919 10701 21893 ct 10717 21874 l  10733 21854 l  p ef
11172 22004 m  10775 21745 l  10699 22035 l  11172 22004 l  p ef

pum
9679 20126 t
0.230 0.226 0.210 c 50 0 m  50 -403 l  112 -403 l  112 -342 l  127 -370 142 -389 155 -398 ct 
168 -407 183 -412 199 -412 ct 222 -412 245 -405 269 -390 ct 246 -327 l  229 -337 212 -341 196 -341 ct 
181 -341 167 -337 155 -328 ct 143 -319 135 -307 130 -291 ct 122 -266 119 -240 119 -211 ct 
119 0 l  50 0 l  p ef
585 -130 m  655 -121 l  644 -80 623 -48 593 -25 ct 563 -2 525 9 478 9 ct 419 9 373 -9 338 -45 ct 
304 -82 286 -133 286 -198 ct 286 -266 304 -319 339 -356 ct 374 -393 419 -412 474 -412 ct 
528 -412 572 -394 606 -357 ct 640 -320 657 -269 657 -202 ct 657 -198 657 -192 657 -184 ct 
357 -184 l  359 -140 372 -106 394 -82 ct 417 -59 445 -47 479 -47 ct 504 -47 525 -54 543 -67 ct 
560 -80 574 -101 585 -130 ct p
361 -240 m  585 -240 l  582 -274 574 -300 560 -317 ct 538 -343 510 -356 475 -356 ct 
444 -356 417 -345 396 -324 ct 375 -303 363 -275 361 -240 ct p ef
757 0 m  757 -350 l  697 -350 l  697 -403 l  757 -403 l  757 -446 l  757 -473 760 -493 765 -506 ct 
771 -524 783 -538 799 -549 ct 816 -560 839 -566 869 -566 ct 888 -566 909 -564 933 -559 ct 
922 -500 l  908 -502 895 -503 882 -503 ct 861 -503 847 -499 838 -490 ct 830 -481 825 -465 825 -440 ct 
825 -403 l  904 -403 l  904 -350 l  825 -350 l  825 0 l  757 0 l  p ef
958 -477 m  958 -556 l  1026 -556 l  1026 -477 l  958 -477 l  p
958 0 m  958 -403 l  1026 -403 l  1026 0 l  958 0 l  p ef
1131 0 m  1131 -403 l  1193 -403 l  1193 -346 l  1222 -390 1265 -412 1321 -412 ct 
1345 -412 1367 -408 1387 -399 ct 1408 -390 1423 -379 1433 -365 ct 1443 -350 1450 -334 1454 -314 ct 
1457 -301 1458 -279 1458 -248 ct 1458 0 l  1390 0 l  1390 -245 l  1390 -273 1387 -294 1382 -307 ct 
1377 -321 1367 -332 1354 -341 ct 1340 -349 1324 -353 1306 -353 ct 1277 -353 1252 -344 1231 -325 ct 
1210 -307 1199 -272 1199 -220 ct 1199 0 l  1131 0 l  p ef
1838 -130 m  1908 -121 l  1897 -80 1876 -48 1846 -25 ct 1816 -2 1778 9 1731 9 ct 
1672 9 1626 -9 1591 -45 ct 1557 -82 1539 -133 1539 -198 ct 1539 -266 1557 -319 1592 -356 ct 
1627 -393 1672 -412 1727 -412 ct 1781 -412 1825 -394 1859 -357 ct 1893 -320 1910 -269 1910 -202 ct 
1910 -198 1910 -192 1910 -184 ct 1610 -184 l  1612 -140 1625 -106 1647 -82 ct 
1670 -59 1698 -47 1732 -47 ct 1757 -47 1778 -54 1796 -67 ct 1813 -80 1827 -101 1838 -130 ct 
p
1614 -240 m  1838 -240 l  1835 -274 1827 -300 1813 -317 ct 1791 -343 1763 -356 1728 -356 ct 
1697 -356 1670 -345 1649 -324 ct 1628 -303 1616 -275 1614 -240 ct p ef
1994 0 m  1994 -403 l  2055 -403 l  2055 -346 l  2068 -366 2085 -382 2106 -394 ct 
2127 -406 2150 -412 2177 -412 ct 2207 -412 2231 -406 2250 -393 ct 2270 -381 2283 -364 2291 -341 ct 
2323 -388 2364 -412 2415 -412 ct 2455 -412 2486 -401 2507 -379 ct 2529 -357 2539 -323 2539 -277 ct 
2539 0 l  2472 0 l  2472 -254 l  2472 -281 2469 -301 2465 -313 ct 2461 -325 2453 -335 2441 -342 ct 
2429 -349 2416 -353 2400 -353 ct 2372 -353 2348 -343 2329 -325 ct 2311 -306 2301 -276 2301 -234 ct 
2301 0 l  2233 0 l  2233 -262 l  2233 -292 2228 -315 2217 -330 ct 2205 -345 2187 -353 2162 -353 ct 
2143 -353 2125 -348 2109 -338 ct 2092 -328 2081 -313 2073 -293 ct 2066 -274 2062 -246 2062 -209 ct 
2062 0 l  1994 0 l  p ef
2914 -130 m  2984 -121 l  2973 -80 2952 -48 2922 -25 ct 2892 -2 2854 9 2807 9 ct 
2748 9 2702 -9 2667 -45 ct 2633 -82 2615 -133 2615 -198 ct 2615 -266 2633 -319 2668 -356 ct 
2703 -393 2748 -412 2803 -412 ct 2857 -412 2901 -394 2935 -357 ct 2969 -320 2986 -269 2986 -202 ct 
2986 -198 2986 -192 2986 -184 ct 2686 -184 l  2688 -140 2701 -106 2723 -82 ct 
2746 -59 2774 -47 2808 -47 ct 2833 -47 2854 -54 2872 -67 ct 2889 -80 2903 -101 2914 -130 ct 
p
2690 -240 m  2914 -240 l  2911 -274 2903 -300 2889 -317 ct 2867 -343 2839 -356 2804 -356 ct 
2773 -356 2746 -345 2725 -324 ct 2704 -303 2692 -275 2690 -240 ct p ef
3069 0 m  3069 -403 l  3131 -403 l  3131 -346 l  3160 -390 3203 -412 3259 -412 ct 
3283 -412 3305 -408 3325 -399 ct 3346 -390 3361 -379 3371 -365 ct 3381 -350 3388 -334 3392 -314 ct 
3395 -301 3396 -279 3396 -248 ct 3396 0 l  3328 0 l  3328 -245 l  3328 -273 3325 -294 3320 -307 ct 
3315 -321 3305 -332 3292 -341 ct 3278 -349 3262 -353 3244 -353 ct 3215 -353 3190 -344 3169 -325 ct 
3148 -307 3137 -272 3137 -220 ct 3137 0 l  3069 0 l  p ef
3650 -61 m  3660 -1 l  3641 3 3624 5 3608 5 ct 3584 5 3564 1 3551 -7 ct 3537 -15 3528 -25 3522 -38 ct 
3516 -50 3514 -77 3514 -118 ct 3514 -350 l  3464 -350 l  3464 -403 l  3514 -403 l 
3514 -503 l  3581 -544 l  3581 -403 l  3650 -403 l  3650 -350 l  3581 -350 l 
3581 -114 l  3581 -95 3583 -83 3585 -77 ct 3587 -71 3591 -67 3597 -64 ct 3602 -60 3610 -59 3620 -59 ct 
3628 -59 3638 -60 3650 -61 ct p ef
pom
0.800 0.800 0.800 c 27363 23969 m  23455 23969 l  23455 21300 l  31271 21300 l 
31271 23969 l  27363 23969 l  p ef
0.003 0.003 0.003 c 27363 23969 m  23455 23969 l  23455 21300 l  31271 21300 l 
31271 23969 l  27363 23969 l  pc
pum
24800 22470 t
0.230 0.226 0.210 c 62 0 m  62 -556 l  136 -556 l  136 -328 l  424 -328 l 
424 -556 l  498 -556 l  498 0 l  424 0 l  424 -262 l  136 -262 l  136 0 l 
62 0 l  p ef
716 0 m  568 -556 l  644 -556 l  728 -192 l  737 -153 745 -115 752 -78 ct 
766 -137 774 -171 777 -181 ct 883 -556 l  971 -556 l  1051 -275 l  1071 -205 1085 -139 1094 -78 ct 
1101 -113 1110 -153 1122 -199 ct 1209 -556 l  1283 -556 l  1130 0 l  1060 0 l 
942 -424 l  933 -459 927 -481 925 -489 ct 919 -463 914 -442 909 -424 ct 791 0 l 
716 0 l  p ef
1507 9 m  1668 -566 l  1723 -566 l  1562 9 l  1507 9 l  p ef
1974 -179 m  2043 -185 l  2046 -157 2054 -135 2066 -117 ct 2078 -99 2097 -85 2122 -74 ct 
2147 -63 2176 -57 2207 -57 ct 2235 -57 2260 -61 2282 -70 ct 2303 -78 2319 -89 2329 -104 ct 
2340 -118 2345 -134 2345 -151 ct 2345 -169 2340 -184 2330 -197 ct 2320 -210 2303 -221 2280 -230 ct 
2265 -236 2232 -245 2181 -257 ct 2130 -269 2094 -281 2074 -292 ct 2047 -306 2028 -323 2015 -344 ct 
2002 -364 1995 -387 1995 -413 ct 1995 -441 2003 -467 2019 -491 ct 2035 -516 2058 -534 2089 -547 ct 
2119 -560 2153 -566 2191 -566 ct 2232 -566 2268 -559 2300 -546 ct 2331 -533 2355 -513 2372 -487 ct 
2389 -462 2398 -432 2399 -400 ct 2329 -395 l  2325 -430 2312 -456 2290 -474 ct 
2269 -492 2236 -501 2194 -501 ct 2149 -501 2117 -493 2096 -477 ct 2076 -460 2066 -441 2066 -418 ct 
2066 -398 2073 -381 2088 -368 ct 2102 -355 2139 -342 2198 -329 ct 2258 -315 2299 -303 2321 -293 ct 
2354 -278 2378 -259 2393 -237 ct 2408 -214 2416 -187 2416 -158 ct 2416 -128 2408 -100 2391 -74 ct 
2374 -48 2349 -27 2318 -13 ct 2286 2 2250 9 2211 9 ct 2160 9 2118 2 2084 -13 ct 
2050 -28 2024 -50 2004 -79 ct 1985 -109 1975 -142 1974 -179 ct p ef
2612 0 m  2464 -556 l  2540 -556 l  2624 -192 l  2633 -153 2641 -115 2648 -78 ct 
2662 -137 2670 -171 2673 -181 ct 2779 -556 l  2867 -556 l  2947 -275 l  2967 -205 2981 -139 2990 -78 ct 
2997 -113 3006 -153 3018 -199 ct 3105 -556 l  3179 -556 l  3026 0 l  2956 0 l 
2838 -424 l  2829 -459 2823 -481 2821 -489 ct 2815 -463 2810 -442 2805 -424 ct 
2687 0 l  2612 0 l  p ef
3404 9 m  3565 -566 l  3620 -566 l  3459 9 l  3404 9 l  p ef
3894 0 m  3894 -556 l  3970 -556 l  4261 -120 l  4261 -556 l  4332 -556 l 
4332 0 l  4256 0 l  3965 -437 l  3965 0 l  3894 0 l  p ef
4551 0 m  4403 -556 l  4479 -556 l  4563 -192 l  4572 -153 4580 -115 4587 -78 ct 
4601 -137 4609 -171 4612 -181 ct 4718 -556 l  4806 -556 l  4886 -275 l  4906 -205 4920 -139 4929 -78 ct 
4936 -113 4945 -153 4957 -199 ct 5044 -556 l  5118 -556 l  4965 0 l  4895 0 l 
4777 -424 l  4768 -459 4762 -481 4760 -489 ct 4754 -463 4749 -442 4744 -424 ct 
4626 0 l  4551 0 l  p ef
pom
pum
25615 23338 t
456 -195 m  530 -177 l  514 -116 487 -70 447 -39 ct 407 -7 358 9 300 9 ct 240 9 191 -3 154 -28 ct 
116 -52 88 -87 68 -134 ct 48 -180 39 -230 39 -283 ct 39 -341 50 -391 72 -434 ct 
94 -477 125 -510 166 -532 ct 207 -555 252 -566 301 -566 ct 356 -566 403 -552 441 -524 ct 
479 -495 505 -455 520 -404 ct 448 -387 l  435 -427 416 -457 392 -475 ct 367 -494 336 -503 299 -503 ct 
257 -503 221 -493 192 -472 ct 164 -452 143 -424 132 -390 ct 120 -355 114 -320 114 -283 ct 
114 -236 121 -194 135 -159 ct 149 -124 170 -98 199 -80 ct 228 -63 260 -54 294 -54 ct 
335 -54 370 -66 398 -90 ct 427 -113 446 -149 456 -195 ct p ef
585 -202 m  585 -276 605 -331 647 -367 ct 682 -397 724 -412 773 -412 ct 829 -412 874 -394 909 -358 ct 
944 -321 962 -271 962 -207 ct 962 -155 954 -115 938 -85 ct 923 -55 900 -32 871 -16 ct 
841 1 809 9 773 9 ct 717 9 672 -9 637 -45 ct 602 -81 585 -133 585 -202 ct p
655 -202 m  655 -150 666 -111 689 -86 ct 711 -60 739 -47 773 -47 ct 807 -47 835 -60 858 -86 ct 
880 -112 892 -151 892 -204 ct 892 -254 880 -291 858 -317 ct 835 -343 807 -355 773 -355 ct 
739 -355 711 -343 689 -317 ct 666 -292 655 -253 655 -202 ct p ef
1303 0 m  1303 -51 l  1278 -11 1240 9 1191 9 ct 1159 9 1129 0 1102 -18 ct 1075 -35 1054 -60 1040 -92 ct 
1025 -123 1018 -160 1018 -201 ct 1018 -241 1024 -278 1038 -311 ct 1051 -343 1071 -368 1098 -386 ct 
1125 -403 1155 -412 1188 -412 ct 1212 -412 1234 -407 1252 -397 ct 1271 -386 1287 -373 1299 -357 ct 
1299 -556 l  1367 -556 l  1367 0 l  1303 0 l  p
1088 -201 m  1088 -150 1098 -111 1120 -85 ct 1142 -60 1168 -47 1197 -47 ct 1227 -47 1252 -59 1273 -84 ct 
1294 -108 1304 -145 1304 -195 ct 1304 -251 1294 -291 1273 -317 ct 1251 -343 1225 -355 1194 -355 ct 
1164 -355 1138 -343 1118 -318 ct 1098 -294 1088 -254 1088 -201 ct p ef
1749 -130 m  1819 -121 l  1808 -80 1787 -48 1757 -25 ct 1727 -2 1689 9 1642 9 ct 
1583 9 1537 -9 1502 -45 ct 1468 -82 1450 -133 1450 -198 ct 1450 -266 1468 -319 1503 -356 ct 
1538 -393 1583 -412 1638 -412 ct 1692 -412 1736 -394 1770 -357 ct 1804 -320 1821 -269 1821 -202 ct 
1821 -198 1821 -192 1821 -184 ct 1521 -184 l  1523 -140 1536 -106 1558 -82 ct 
1581 -59 1609 -47 1643 -47 ct 1668 -47 1689 -54 1707 -67 ct 1724 -80 1738 -101 1749 -130 ct 
p
1525 -240 m  1749 -240 l  1746 -274 1738 -300 1724 -317 ct 1702 -343 1674 -356 1639 -356 ct 
1608 -356 1581 -345 1560 -324 ct 1539 -303 1527 -275 1525 -240 ct p ef
1878 -120 m  1945 -131 l  1949 -104 1960 -83 1977 -69 ct 1994 -54 2018 -47 2050 -47 ct 
2081 -47 2104 -54 2119 -66 ct 2134 -79 2142 -94 2142 -111 ct 2142 -127 2135 -139 2122 -148 ct 
2113 -154 2089 -161 2052 -171 ct 2002 -183 1967 -194 1948 -204 ct 1929 -213 1914 -226 1904 -242 ct 
1894 -258 1889 -276 1889 -296 ct 1889 -314 1893 -331 1902 -346 ct 1910 -361 1921 -374 1935 -384 ct 
1946 -392 1960 -399 1978 -404 ct 1997 -409 2016 -412 2037 -412 ct 2069 -412 2097 -408 2121 -398 ct 
2144 -389 2162 -377 2173 -362 ct 2185 -346 2193 -325 2197 -299 ct 2130 -290 l 
2127 -311 2118 -327 2104 -339 ct 2089 -350 2069 -356 2042 -356 ct 2011 -356 1989 -351 1975 -340 ct 
1962 -330 1955 -318 1955 -304 ct 1955 -295 1958 -287 1964 -280 ct 1969 -273 1978 -267 1990 -262 ct 
1996 -259 2017 -254 2050 -244 ct 2098 -232 2132 -221 2151 -213 ct 2170 -205 2185 -193 2196 -177 ct 
2207 -161 2212 -142 2212 -118 ct 2212 -96 2205 -74 2192 -54 ct 2179 -34 2160 -19 2135 -8 ct 
2110 3 2081 9 2050 9 ct 1998 9 1958 -2 1930 -24 ct 1903 -45 1885 -78 1878 -120 ct 
p ef
2296 -477 m  2296 -556 l  2364 -556 l  2364 -477 l  2296 -477 l  p
2296 0 m  2296 -403 l  2364 -403 l  2364 0 l  2296 0 l  p ef
2456 33 m  2522 43 l  2525 63 2532 78 2545 88 ct 2562 100 2585 106 2614 106 ct 
2646 106 2670 100 2688 88 ct 2705 75 2716 57 2722 34 ct 2726 20 2728 -9 2727 -53 ct 
2698 -18 2660 0 2616 0 ct 2561 0 2518 -20 2487 -60 ct 2457 -100 2442 -148 2442 -204 ct 
2442 -243 2449 -278 2463 -311 ct 2477 -343 2497 -368 2523 -386 ct 2550 -404 2581 -413 2616 -413 ct 
2664 -413 2703 -393 2734 -355 ct 2734 -403 l  2797 -403 l  2797 -55 l  2797 8 2790 52 2778 78 ct 
2765 104 2745 125 2717 140 ct 2689 155 2655 163 2615 163 ct 2567 163 2528 152 2498 131 ct 
2469 109 2455 76 2456 33 ct p
2512 -209 m  2512 -156 2523 -118 2544 -93 ct 2565 -69 2591 -57 2622 -57 ct 2654 -57 2680 -69 2701 -93 ct 
2722 -117 2733 -155 2733 -207 ct 2733 -256 2722 -293 2700 -318 ct 2678 -343 2652 -356 2621 -356 ct 
2591 -356 2565 -344 2544 -319 ct 2523 -294 2512 -258 2512 -209 ct p ef
2900 0 m  2900 -403 l  2962 -403 l  2962 -346 l  2991 -390 3034 -412 3090 -412 ct 
3114 -412 3136 -408 3156 -399 ct 3177 -390 3192 -379 3202 -365 ct 3212 -350 3219 -334 3223 -314 ct 
3226 -301 3227 -279 3227 -248 ct 3227 0 l  3159 0 l  3159 -245 l  3159 -273 3156 -294 3151 -307 ct 
3146 -321 3136 -332 3123 -341 ct 3109 -349 3093 -353 3075 -353 ct 3046 -353 3021 -344 3000 -325 ct 
2979 -307 2968 -272 2968 -220 ct 2968 0 l  2900 0 l  p ef
pom
0.003 0.003 0.003 c 24434 21301 m  24434 21200 24421 21115 24398 21044 ct 24422 21036 l 
24446 21028 l  24470 21104 24484 21194 24484 21301 ct 24459 21301 l  24434 21301 l 
p ef
24398 21044 m  24387 21009 24373 20977 24356 20949 ct 24378 20937 l  24400 20924 l 
24418 20955 24433 20990 24446 21028 ct 24422 21036 l  24398 21044 l  p ef
24356 20949 m  24340 20921 24322 20897 24302 20875 ct 24320 20858 l  24338 20841 l 
24361 20865 24382 20893 24400 20924 ct 24378 20937 l  24356 20949 l  p ef
24302 20875 m  24282 20853 24259 20835 24236 20819 ct 24249 20798 l  24263 20778 l 
24290 20795 24315 20816 24338 20841 ct 24320 20858 l  24302 20875 l  p ef
24236 20819 m  24212 20804 24186 20791 24160 20781 ct 24168 20757 l  24177 20734 l 
24207 20745 24236 20760 24263 20778 ct 24249 20798 l  24236 20819 l  p ef
24160 20781 m  24105 20760 24045 20751 23982 20751 ct 23982 20726 l  23982 20701 l 
24051 20701 24117 20711 24177 20734 ct 24168 20757 l  24160 20781 l  p ef
23982 20751 m  23924 20751 23863 20759 23801 20773 ct 23795 20749 l  23790 20725 l 
23855 20709 23920 20701 23982 20701 ct 23982 20726 l  23982 20751 l  p ef
23801 20773 m  23739 20788 23676 20810 23614 20838 ct 23604 20815 l  23593 20792 l 
23659 20763 23725 20740 23790 20725 ct 23795 20749 l  23801 20773 l  p ef
23614 20838 m  23489 20893 23367 20972 23263 21066 ct 23246 21047 l  23229 21028 l 
23337 20931 23464 20849 23593 20792 ct 23604 20815 l  23614 20838 l  p ef
23263 21066 m  23139 21177 23044 21291 22981 21401 ct 22959 21388 l  22937 21376 l 
23003 21262 23101 21144 23229 21028 ct 23246 21047 l  23263 21066 l  p ef
22981 21401 m  22949 21455 22925 21508 22910 21560 ct 22886 21553 l  22862 21545 l 
22879 21490 22904 21434 22937 21376 ct 22959 21388 l  22981 21401 l  p ef
22910 21560 m  22894 21611 22886 21660 22886 21706 ct 22861 21706 l  22836 21706 l 
22836 21655 22845 21601 22862 21545 ct 22886 21553 l  22910 21560 l  p ef
22886 21706 m  22886 21741 22891 21775 22900 21807 ct 22876 21814 l  22852 21821 l 
22841 21785 22836 21746 22836 21706 ct 22861 21706 l  22886 21706 l  p ef
22900 21807 m  22909 21839 22923 21869 22942 21897 ct 22921 21911 l  22901 21925 l 
22879 21893 22863 21858 22852 21821 ct 22876 21814 l  22900 21807 l  p ef
22942 21897 m  22961 21926 22985 21952 23013 21975 ct 22998 21995 l  22982 22014 l 
22949 21987 22922 21957 22901 21925 ct 22921 21911 l  22942 21897 l  p ef
23013 21975 m  23043 21999 23077 22021 23116 22039 ct 23105 22062 l  23094 22084 l 
23051 22064 23014 22040 22982 22014 ct 22998 21995 l  23013 21975 l  p ef
23455 22127 m  23058 21868 l  22982 22158 l  23455 22127 l  p ef

pum
21366 20254 t
0.230 0.226 0.210 c 50 0 m  50 -403 l  112 -403 l  112 -342 l  127 -370 142 -389 155 -398 ct 
168 -407 183 -412 199 -412 ct 222 -412 245 -405 269 -390 ct 246 -327 l  229 -337 212 -341 196 -341 ct 
181 -341 167 -337 155 -328 ct 143 -319 135 -307 130 -291 ct 122 -266 119 -240 119 -211 ct 
119 0 l  50 0 l  p ef
585 -130 m  655 -121 l  644 -80 623 -48 593 -25 ct 563 -2 525 9 478 9 ct 419 9 373 -9 338 -45 ct 
304 -82 286 -133 286 -198 ct 286 -266 304 -319 339 -356 ct 374 -393 419 -412 474 -412 ct 
528 -412 572 -394 606 -357 ct 640 -320 657 -269 657 -202 ct 657 -198 657 -192 657 -184 ct 
357 -184 l  359 -140 372 -106 394 -82 ct 417 -59 445 -47 479 -47 ct 504 -47 525 -54 543 -67 ct 
560 -80 574 -101 585 -130 ct p
361 -240 m  585 -240 l  582 -274 574 -300 560 -317 ct 538 -343 510 -356 475 -356 ct 
444 -356 417 -345 396 -324 ct 375 -303 363 -275 361 -240 ct p ef
757 0 m  757 -350 l  697 -350 l  697 -403 l  757 -403 l  757 -446 l  757 -473 760 -493 765 -506 ct 
771 -524 783 -538 799 -549 ct 816 -560 839 -566 869 -566 ct 888 -566 909 -564 933 -559 ct 
922 -500 l  908 -502 895 -503 882 -503 ct 861 -503 847 -499 838 -490 ct 830 -481 825 -465 825 -440 ct 
825 -403 l  904 -403 l  904 -350 l  825 -350 l  825 0 l  757 0 l  p ef
958 -477 m  958 -556 l  1026 -556 l  1026 -477 l  958 -477 l  p
958 0 m  958 -403 l  1026 -403 l  1026 0 l  958 0 l  p ef
1131 0 m  1131 -403 l  1193 -403 l  1193 -346 l  1222 -390 1265 -412 1321 -412 ct 
1345 -412 1367 -408 1387 -399 ct 1408 -390 1423 -379 1433 -365 ct 1443 -350 1450 -334 1454 -314 ct 
1457 -301 1458 -279 1458 -248 ct 1458 0 l  1390 0 l  1390 -245 l  1390 -273 1387 -294 1382 -307 ct 
1377 -321 1367 -332 1354 -341 ct 1340 -349 1324 -353 1306 -353 ct 1277 -353 1252 -344 1231 -325 ct 
1210 -307 1199 -272 1199 -220 ct 1199 0 l  1131 0 l  p ef
1838 -130 m  1908 -121 l  1897 -80 1876 -48 1846 -25 ct 1816 -2 1778 9 1731 9 ct 
1672 9 1626 -9 1591 -45 ct 1557 -82 1539 -133 1539 -198 ct 1539 -266 1557 -319 1592 -356 ct 
1627 -393 1672 -412 1727 -412 ct 1781 -412 1825 -394 1859 -357 ct 1893 -320 1910 -269 1910 -202 ct 
1910 -198 1910 -192 1910 -184 ct 1610 -184 l  1612 -140 1625 -106 1647 -82 ct 
1670 -59 1698 -47 1732 -47 ct 1757 -47 1778 -54 1796 -67 ct 1813 -80 1827 -101 1838 -130 ct 
p
1614 -240 m  1838 -240 l  1835 -274 1827 -300 1813 -317 ct 1791 -343 1763 -356 1728 -356 ct 
1697 -356 1670 -345 1649 -324 ct 1628 -303 1616 -275 1614 -240 ct p ef
1994 0 m  1994 -403 l  2055 -403 l  2055 -346 l  2068 -366 2085 -382 2106 -394 ct 
2127 -406 2150 -412 2177 -412 ct 2207 -412 2231 -406 2250 -393 ct 2270 -381 2283 -364 2291 -341 ct 
2323 -388 2364 -412 2415 -412 ct 2455 -412 2486 -401 2507 -379 ct 2529 -357 2539 -323 2539 -277 ct 
2539 0 l  2472 0 l  2472 -254 l  2472 -281 2469 -301 2465 -313 ct 2461 -325 2453 -335 2441 -342 ct 
2429 -349 2416 -353 2400 -353 ct 2372 -353 2348 -343 2329 -325 ct 2311 -306 2301 -276 2301 -234 ct 
2301 0 l  2233 0 l  2233 -262 l  2233 -292 2228 -315 2217 -330 ct 2205 -345 2187 -353 2162 -353 ct 
2143 -353 2125 -348 2109 -338 ct 2092 -328 2081 -313 2073 -293 ct 2066 -274 2062 -246 2062 -209 ct 
2062 0 l  1994 0 l  p ef
2914 -130 m  2984 -121 l  2973 -80 2952 -48 2922 -25 ct 2892 -2 2854 9 2807 9 ct 
2748 9 2702 -9 2667 -45 ct 2633 -82 2615 -133 2615 -198 ct 2615 -266 2633 -319 2668 -356 ct 
2703 -393 2748 -412 2803 -412 ct 2857 -412 2901 -394 2935 -357 ct 2969 -320 2986 -269 2986 -202 ct 
2986 -198 2986 -192 2986 -184 ct 2686 -184 l  2688 -140 2701 -106 2723 -82 ct 
2746 -59 2774 -47 2808 -47 ct 2833 -47 2854 -54 2872 -67 ct 2889 -80 2903 -101 2914 -130 ct 
p
2690 -240 m  2914 -240 l  2911 -274 2903 -300 2889 -317 ct 2867 -343 2839 -356 2804 -356 ct 
2773 -356 2746 -345 2725 -324 ct 2704 -303 2692 -275 2690 -240 ct p ef
3069 0 m  3069 -403 l  3131 -403 l  3131 -346 l  3160 -390 3203 -412 3259 -412 ct 
3283 -412 3305 -408 3325 -399 ct 3346 -390 3361 -379 3371 -365 ct 3381 -350 3388 -334 3392 -314 ct 
3395 -301 3396 -279 3396 -248 ct 3396 0 l  3328 0 l  3328 -245 l  3328 -273 3325 -294 3320 -307 ct 
3315 -321 3305 -332 3292 -341 ct 3278 -349 3262 -353 3244 -353 ct 3215 -353 3190 -344 3169 -325 ct 
3148 -307 3137 -272 3137 -220 ct 3137 0 l  3069 0 l  p ef
3650 -61 m  3660 -1 l  3641 3 3624 5 3608 5 ct 3584 5 3564 1 3551 -7 ct 3537 -15 3528 -25 3522 -38 ct 
3516 -50 3514 -77 3514 -118 ct 3514 -350 l  3464 -350 l  3464 -403 l  3514 -403 l 
3514 -503 l  3581 -544 l  3581 -403 l  3650 -403 l  3650 -350 l  3581 -350 l 
3581 -114 l  3581 -95 3583 -83 3585 -77 ct 3587 -71 3591 -67 3597 -64 ct 3602 -60 3610 -59 3620 -59 ct 
3628 -59 3638 -60 3650 -61 ct p ef
pom
0.902 0.902 0.902 c 16103 26877 m  16103 26877 l  18413 26877 20337 27018 20337 27189 ct 
20337 29063 l  20337 29234 18413 29376 16103 29376 ct 13793 29376 11869 29234 11869 29063 ct 
11869 27189 l  11869 27018 13793 26877 16103 26877 ct p
11869 26877 m  11869 26877 l  p
20338 29376 m  20338 29376 l  p ef
10 lw 0.003 0.003 0.003 c 16103 26877 m  13793 26877 11869 27018 11869 27189 ct 
11869 29063 l  11869 29234 13793 29376 16103 29376 ct 18413 29376 20337 29234 20337 29063 ct 
20337 27189 l  20337 27018 18413 26877 16103 26877 ct 16103 26877 l  pc
11869 26877 m  11869 26877 l  pc
20338 29376 m  20338 29376 l  pc
0.941 0.941 0.941 c 16103 26877 m  16103 26877 l  18413 26877 20337 27018 20337 27189 ct 
20337 27359 18413 27501 16103 27501 ct 13793 27501 11869 27359 11869 27189 ct 
11869 27018 13793 26877 16103 26877 ct p
11869 26877 m  11869 26877 l  p
20338 29376 m  20338 29376 l  p ef
0.003 0.003 0.003 c 16103 26877 m  13793 26877 11869 27018 11869 27189 ct 11869 27359 13793 27501 16103 27501 ct 
18413 27501 20337 27359 20337 27189 ct 20337 27018 18413 26877 16103 26877 ct 
16103 26877 l  pc
11869 26877 m  11869 26877 l  pc
20338 29376 m  20338 29376 l  pc
pum
13623 28551 t
0.230 0.226 0.210 c -1 1 m  212 -556 l  291 -556 l  519 1 l  435 1 l  370 -168 l 
138 -168 l  77 1 l  -1 1 l  p
159 -228 m  347 -228 l  289 -382 l  272 -429 259 -467 250 -497 ct 243 -461 233 -426 220 -391 ct 
159 -228 l  p ef
830 -148 m  897 -139 l  889 -93 871 -56 841 -30 ct 810 -4 773 9 729 9 ct 674 9 630 -9 597 -45 ct 
563 -81 546 -133 546 -200 ct 546 -244 554 -282 568 -314 ct 582 -347 604 -371 634 -388 ct 
663 -404 695 -412 730 -412 ct 773 -412 809 -401 837 -379 ct 865 -357 883 -325 890 -285 ct 
824 -274 l  818 -301 807 -322 791 -336 ct 774 -349 755 -356 732 -356 ct 698 -356 670 -344 649 -319 ct 
627 -294 616 -255 616 -202 ct 616 -148 627 -109 647 -84 ct 668 -59 695 -47 729 -47 ct 
755 -47 778 -55 796 -72 ct 814 -88 825 -114 830 -148 ct p ef
1106 -61 m  1116 -1 l  1097 3 1080 5 1064 5 ct 1040 5 1020 1 1007 -7 ct 993 -15 984 -25 978 -38 ct 
972 -50 970 -77 970 -118 ct 970 -350 l  920 -350 l  920 -403 l  970 -403 l 
970 -503 l  1037 -544 l  1037 -403 l  1106 -403 l  1106 -350 l  1037 -350 l 
1037 -114 l  1037 -95 1039 -83 1041 -77 ct 1043 -71 1047 -67 1053 -64 ct 1058 -60 1066 -59 1076 -59 ct 
1084 -59 1094 -60 1106 -61 ct p ef
1437 0 m  1437 -59 l  1406 -14 1363 9 1309 9 ct 1285 9 1263 4 1243 -5 ct 1222 -14 1207 -25 1197 -39 ct 
1187 -53 1180 -70 1176 -90 ct 1173 -103 1172 -124 1172 -153 ct 1172 -403 l  1240 -403 l 
1240 -180 l  1240 -144 1241 -120 1244 -107 ct 1248 -90 1257 -75 1271 -65 ct 
1285 -55 1302 -50 1323 -50 ct 1343 -50 1362 -55 1380 -66 ct 1398 -76 1411 -90 1418 -108 ct 
1426 -127 1430 -153 1430 -187 ct 1430 -403 l  1498 -403 l  1498 0 l  1437 0 l 
p ef
1868 -50 m  1842 -28 1818 -13 1795 -4 ct 1771 5 1746 9 1720 9 ct 1675 9 1641 -2 1618 -23 ct 
1594 -45 1582 -73 1582 -106 ct 1582 -126 1587 -144 1595 -160 ct 1604 -177 1616 -190 1631 -200 ct 
1645 -209 1662 -217 1680 -222 ct 1693 -226 1713 -229 1740 -232 ct 1796 -239 1836 -247 1862 -256 ct 
1862 -265 1862 -271 1862 -274 ct 1862 -301 1856 -321 1843 -332 ct 1826 -348 1800 -355 1765 -355 ct 
1733 -355 1710 -350 1694 -339 ct 1679 -327 1668 -307 1660 -279 ct 1594 -288 l 
1600 -317 1610 -340 1624 -357 ct 1638 -375 1658 -388 1684 -398 ct 1710 -407 1741 -412 1775 -412 ct 
1810 -412 1838 -408 1859 -400 ct 1881 -392 1896 -382 1906 -369 ct 1917 -357 1924 -342 1928 -323 ct 
1930 -311 1931 -290 1931 -260 ct 1931 -169 l  1931 -105 1932 -65 1935 -48 ct 
1938 -32 1944 -16 1953 0 ct 1881 0 l  1874 -14 1870 -31 1868 -50 ct p
1862 -202 m  1837 -192 1800 -184 1751 -176 ct 1723 -172 1703 -168 1691 -163 ct 
1680 -158 1671 -150 1664 -141 ct 1658 -131 1655 -120 1655 -108 ct 1655 -90 1662 -75 1675 -63 ct 
1689 -51 1709 -45 1736 -45 ct 1762 -45 1786 -50 1806 -62 ct 1826 -73 1841 -89 1851 -109 ct 
1858 -124 1862 -147 1862 -177 ct 1862 -202 l  p ef
2035 0 m  2035 -556 l  2103 -556 l  2103 0 l  2035 0 l  p ef
2410 -179 m  2479 -185 l  2482 -157 2490 -135 2502 -117 ct 2514 -99 2533 -85 2558 -74 ct 
2583 -63 2612 -57 2643 -57 ct 2671 -57 2696 -61 2718 -70 ct 2739 -78 2755 -89 2765 -104 ct 
2776 -118 2781 -134 2781 -151 ct 2781 -169 2776 -184 2766 -197 ct 2756 -210 2739 -221 2716 -230 ct 
2701 -236 2668 -245 2617 -257 ct 2566 -269 2530 -281 2510 -292 ct 2483 -306 2464 -323 2451 -344 ct 
2438 -364 2431 -387 2431 -413 ct 2431 -441 2439 -467 2455 -491 ct 2471 -516 2494 -534 2525 -547 ct 
2555 -560 2589 -566 2627 -566 ct 2668 -566 2704 -559 2736 -546 ct 2767 -533 2791 -513 2808 -487 ct 
2825 -462 2834 -432 2835 -400 ct 2765 -395 l  2761 -430 2748 -456 2726 -474 ct 
2705 -492 2672 -501 2630 -501 ct 2585 -501 2553 -493 2532 -477 ct 2512 -460 2502 -441 2502 -418 ct 
2502 -398 2509 -381 2524 -368 ct 2538 -355 2575 -342 2634 -329 ct 2694 -315 2735 -303 2757 -293 ct 
2790 -278 2814 -259 2829 -237 ct 2844 -214 2852 -187 2852 -158 ct 2852 -128 2844 -100 2827 -74 ct 
2810 -48 2785 -27 2754 -13 ct 2722 2 2686 9 2647 9 ct 2596 9 2554 2 2520 -13 ct 
2486 -28 2460 -50 2440 -79 ct 2421 -109 2411 -142 2410 -179 ct p ef
2939 155 m  2932 91 l  2946 95 2959 97 2971 97 ct 2986 97 2998 94 3007 89 ct 
3016 84 3024 77 3029 68 ct 3034 61 3041 44 3050 17 ct 3051 13 3053 8 3056 0 ct 
2904 -404 l  2977 -404 l  3061 -170 l  3072 -141 3081 -109 3090 -77 ct 3098 -108 3107 -139 3118 -169 ct 
3204 -404 l  3272 -404 l  3119 6 l  3103 51 3090 81 3081 98 ct 3069 120 3055 137 3039 147 ct 
3023 158 3005 163 2983 163 ct 2970 163 2955 160 2939 155 ct p ef
3305 -120 m  3372 -131 l  3376 -104 3387 -83 3404 -69 ct 3421 -54 3445 -47 3477 -47 ct 
3508 -47 3531 -54 3546 -66 ct 3561 -79 3569 -94 3569 -111 ct 3569 -127 3562 -139 3549 -148 ct 
3540 -154 3516 -161 3479 -171 ct 3429 -183 3394 -194 3375 -204 ct 3356 -213 3341 -226 3331 -242 ct 
3321 -258 3316 -276 3316 -296 ct 3316 -314 3320 -331 3329 -346 ct 3337 -361 3348 -374 3362 -384 ct 
3373 -392 3387 -399 3405 -404 ct 3424 -409 3443 -412 3464 -412 ct 3496 -412 3524 -408 3548 -398 ct 
3571 -389 3589 -377 3600 -362 ct 3612 -346 3620 -325 3624 -299 ct 3557 -290 l 
3554 -311 3545 -327 3531 -339 ct 3516 -350 3496 -356 3469 -356 ct 3438 -356 3416 -351 3402 -340 ct 
3389 -330 3382 -318 3382 -304 ct 3382 -295 3385 -287 3391 -280 ct 3396 -273 3405 -267 3417 -262 ct 
3423 -259 3444 -254 3477 -244 ct 3525 -232 3559 -221 3578 -213 ct 3597 -205 3612 -193 3623 -177 ct 
3634 -161 3639 -142 3639 -118 ct 3639 -96 3632 -74 3619 -54 ct 3606 -34 3587 -19 3562 -8 ct 
3537 3 3508 9 3477 9 ct 3425 9 3385 -2 3357 -24 ct 3330 -45 3312 -78 3305 -120 ct 
p ef
3870 -61 m  3880 -1 l  3861 3 3844 5 3828 5 ct 3804 5 3784 1 3771 -7 ct 3757 -15 3748 -25 3742 -38 ct 
3736 -50 3734 -77 3734 -118 ct 3734 -350 l  3684 -350 l  3684 -403 l  3734 -403 l 
3734 -503 l  3801 -544 l  3801 -403 l  3870 -403 l  3870 -350 l  3801 -350 l 
3801 -114 l  3801 -95 3803 -83 3805 -77 ct 3807 -71 3811 -67 3817 -64 ct 3822 -60 3830 -59 3840 -59 ct 
3848 -59 3858 -60 3870 -61 ct p ef
4213 -130 m  4283 -121 l  4272 -80 4251 -48 4221 -25 ct 4191 -2 4153 9 4106 9 ct 
4047 9 4001 -9 3966 -45 ct 3932 -82 3914 -133 3914 -198 ct 3914 -266 3932 -319 3967 -356 ct 
4002 -393 4047 -412 4102 -412 ct 4156 -412 4200 -394 4234 -357 ct 4268 -320 4285 -269 4285 -202 ct 
4285 -198 4285 -192 4285 -184 ct 3985 -184 l  3987 -140 4000 -106 4022 -82 ct 
4045 -59 4073 -47 4107 -47 ct 4132 -47 4153 -54 4171 -67 ct 4188 -80 4202 -101 4213 -130 ct 
p
3989 -240 m  4213 -240 l  4210 -274 4202 -300 4188 -317 ct 4166 -343 4138 -356 4103 -356 ct 
4072 -356 4045 -345 4024 -324 ct 4003 -303 3991 -275 3989 -240 ct p ef
4369 0 m  4369 -403 l  4430 -403 l  4430 -346 l  4443 -366 4460 -382 4481 -394 ct 
4502 -406 4525 -412 4552 -412 ct 4582 -412 4606 -406 4625 -393 ct 4645 -381 4658 -364 4666 -341 ct 
4698 -388 4739 -412 4790 -412 ct 4830 -412 4861 -401 4882 -379 ct 4904 -357 4914 -323 4914 -277 ct 
4914 0 l  4847 0 l  4847 -254 l  4847 -281 4844 -301 4840 -313 ct 4836 -325 4828 -335 4816 -342 ct 
4804 -349 4791 -353 4775 -353 ct 4747 -353 4723 -343 4704 -325 ct 4686 -306 4676 -276 4676 -234 ct 
4676 0 l  4608 0 l  4608 -262 l  4608 -292 4603 -315 4592 -330 ct 4580 -345 4562 -353 4537 -353 ct 
4518 -353 4500 -348 4484 -338 ct 4467 -328 4456 -313 4448 -293 ct 4441 -274 4437 -246 4437 -209 ct 
4437 0 l  4369 0 l  p ef
pom
50 lw 0.003 0.003 0.003 c 350 23966 m  350 24512 1652 25058 2955 25058 ct 13377 25058 l 
14679 25058 15982 25604 15982 26149 ct 15982 25604 17285 25058 18587 25058 ct 
29009 25058 l  30312 25058 31614 24512 31614 23966 ct ps
350 26149 m  350 26149 l  pc
31615 23965 m  31615 23965 l  pc
0.902 0.902 1.000 c 15475 3468 m  16267 3468 l  16267 5445 l  16663 5445 l 
15871 6105 l  15080 5445 l  15475 5445 l  15475 3468 l  p
15080 3468 m  15080 3468 l  p
16663 6105 m  16663 6105 l  p ef
0.003 0.003 0.003 c 15475 3468 m  15475 5445 l  15080 5445 l  15871 6105 l 
16663 5445 l  16267 5445 l  16267 3468 l  15475 3468 l  pc
15080 3468 m  15080 3468 l  pc
16663 6105 m  16663 6105 l  pc
0.902 0.902 1.000 c 15489 17346 m  16277 17346 l  16277 19325 l  16672 19325 l 
15883 19984 l  15095 19325 l  15489 19325 l  15489 17346 l  p
15095 17346 m  15095 17346 l  p
16672 19985 m  16672 19985 l  p ef
0.003 0.003 0.003 c 15489 17346 m  15489 19325 l  15095 19325 l  15883 19984 l 
16672 19325 l  16277 19325 l  16277 17346 l  15489 17346 l  pc
15095 17346 m  15095 17346 l  pc
16672 19985 m  16672 19985 l  pc
0.902 0.902 1.000 c 20751 16915 m  21311 16355 l  22709 17753 l  22989 17473 l 
22896 18500 l  21869 18593 l  22149 18313 l  20751 16915 l  p
20471 17195 m  20471 17195 l  p
23456 17940 m  23456 17940 l  p ef
0.003 0.003 0.003 c 20751 16915 m  22149 18313 l  21869 18593 l  22896 18500 l 
22989 17473 l  22709 17753 l  21311 16355 l  20751 16915 l  pc
20471 17195 m  20471 17195 l  pc
23456 17940 m  23456 17940 l  pc
0.902 0.902 1.000 c 9966 16354 m  10525 16914 l  9126 18313 l  9406 18593 l 
8380 18500 l  8287 17474 l  8566 17754 l  9966 16354 l  p
9686 16075 m  9686 16075 l  p
8939 19060 m  8939 19060 l  p ef
0.003 0.003 0.003 c 9966 16354 m  8566 17754 l  8287 17474 l  8380 18500 l 
9406 18593 l  9126 18313 l  10525 16914 l  9966 16354 l  pc
9686 16075 m  9686 16075 l  pc
8939 19060 m  8939 19060 l  pc
0.902 0.902 1.000 c 15475 10493 m  16267 10493 l  16267 12472 l  16663 12472 l 
15871 13131 l  15080 12472 l  15475 12472 l  15475 10493 l  p
15080 10493 m  15080 10493 l  p
16663 13132 m  16663 13132 l  p ef
0.003 0.003 0.003 c 15475 10493 m  15475 12472 l  15080 12472 l  15871 13131 l 
16663 12472 l  16267 12472 l  16267 10493 l  15475 10493 l  pc
15080 10493 m  15080 10493 l  pc
16663 13132 m  16663 13132 l  pc
gr
gs
0 0 m 31799 0 l 31799 29999 l 0 29999 l 0 0 l eoclip newpath
gr
gr
0 30000 t 
pom
count op_count sub {pop} repeat countdictstack dict_count sub {end} repeat b4_inc_state restore
%%PageTrailer
%%Trailer
%%EOF
